%!PS-Adobe-3.0
%%BoundingBox: 0 0 612 792
%%LanguageLevel: 2
%%Creator: Grace-5.1.25
%%CreationDate: Thu Dec 14 13:58:19 2023
%%DocumentData: Clean8Bit
%%Orientation: Landscape
%%Pages: 1
%%PageOrder: Ascend
%%Title: Untitled
%%For: amrita
%%DocumentNeededResources: (atend)
%%EndComments
%%BeginProlog
/PAGE_OFFSET_X 0 def
/PAGE_OFFSET_Y 0 def
/m {moveto} def
/l {lineto} def
/s {stroke} def
/n {newpath} def
/c {closepath} def
/RL {rlineto} def
/SLW {setlinewidth} def
/GS {gsave} def
/GR {grestore} def
/SC {setcolor} def
/SGRY {setgray} def
/SRGB {setrgbcolor} def
/SD {setdash} def
/SLC {setlinecap} def
/SLJ {setlinejoin} def
/SCS {setcolorspace} def
/FFSF {findfont setfont} def
/CC {concat} def
/PXL {n m 0 0 RL s} def
/Color0 {1.0000 1.0000 1.0000} def
/Color1 {0.0000 0.0000 0.0000} def
/Color2 {1.0000 0.0000 0.0000} def
/Color3 {0.0000 1.0000 0.0000} def
/Color4 {0.0000 0.0000 1.0000} def
/Color5 {1.0000 1.0000 0.0000} def
/Color6 {0.7373 0.5608 0.5608} def
/Color7 {0.8627 0.8627 0.8627} def
/Color8 {0.5804 0.0000 0.8275} def
/Color9 {0.0000 1.0000 1.0000} def
/Color10 {1.0000 0.0000 1.0000} def
/Color11 {1.0000 0.6471 0.0000} def
/Color12 {0.4471 0.1294 0.7373} def
/Color13 {0.4039 0.0275 0.2824} def
/Color14 {0.2510 0.8784 0.8157} def
/Color15 {0.0000 0.5451 0.0000} def
/Color16 {0.7529 0.7529 0.7529} def
/Color17 {0.5059 0.5059 0.5059} def
/Color18 {0.2588 0.2588 0.2588} def
/PTRN {
 /pat_bits exch def 
 <<
  /PaintType 2
  /PatternType 1 /TilingType 1
  /BBox[0 0 16 16]
  /XStep 16 /YStep 16
  /PaintProc {
   pop
   16 16 true [-1 0 0 -1 16 16] pat_bits imagemask
  }
 >>
 [0.0016 0 0 0.0016 0 0]
 makepattern
} def
/Pattern0 {<0000000000000000000000000000000000000000000000000000000000000000> PTRN} bind def
/Pattern1 {<ffffffffffffffffffffffffffffffffffffffffffffffffffffffffffffffff> PTRN} bind def
/Pattern2 {<eeeeffffbbbbffffeeeeffffbbbbffffeeeeffffbbbbffffeeeeffffbbbbffff> PTRN} bind def
/Pattern3 {<eeeebbbbeeeebbbbeeeebbbbeeeebbbbeeeebbbbeeeebbbbeeeebbbbeeeebbbb> PTRN} bind def
/Pattern4 {<5555aaaa5555aaaa5555aaaa5555aaaa5555aaaa5555aaaa5555aaaa5555aaaa> PTRN} bind def
/Pattern5 {<1111444411114444111144441111444411114444111144441111444411114444> PTRN} bind def
/Pattern6 {<1111000044440000111100004444000011110000444400001111000044440000> PTRN} bind def
/Pattern7 {<1010000000000000010100000000000010100000000000000101000000000000> PTRN} bind def
/Pattern8 {<0000000000000000000000000000000000000000000000000000000000000000> PTRN} bind def
/Pattern9 {<1e1e0f0f8787c3c3e1e1f0f078783c3c1e1e0f0f8787c3c3e1e1f0f078783c3c> PTRN} bind def
/Pattern10 {<7878f0f0e1e1c3c387870f0f1e1e3c3c7878f0f0e1e1c3c387870f0f1e1e3c3c> PTRN} bind def
/Pattern11 {<3333333333333333333333333333333333333333333333333333333333333333> PTRN} bind def
/Pattern12 {<ffffffff00000000ffffffff00000000ffffffff00000000ffffffff00000000> PTRN} bind def
/Pattern13 {<8181424224241818181824244242818181814242242418181818242442428181> PTRN} bind def
/Pattern14 {<8080404020201010080804040202010180804040202010100808040402020101> PTRN} bind def
/Pattern15 {<0101020204040808101020204040808001010202040408081010202040408080> PTRN} bind def
/Pattern16 {<2222222222222222222222222222222222222222222222222222222222222222> PTRN} bind def
/Pattern17 {<0000ffff000000000000ffff000000000000ffff000000000000ffff00000000> PTRN} bind def
/Pattern18 {<2222ffff222222222222ffff222222222222ffff222222222222ffff22222222> PTRN} bind def
/Pattern19 {<ffffffff33333333ffffffff33333333ffffffff33333333ffffffff33333333> PTRN} bind def
/Pattern20 {<0f0f0f0f0f0f0f0ff0f0f0f0f0f0f0f00f0f0f0f0f0f0f0ff0f0f0f0f0f0f0f0> PTRN} bind def
/Pattern21 {<ff00ff00ff00ff00ff00ff00ff00ff0000ff00ff00ff00ff00ff00ff00ff00ff> PTRN} bind def
/Pattern22 {<8001800180018001800180018001ffffffff8001800180018001800180018001> PTRN} bind def
/Pattern23 {<c003c003c003c003c003c003ffffffffffffffffc003c003c003c003c003c003> PTRN} bind def
/Pattern24 {<040404040404ffff404040404040ffff040404040404ffff404040404040ffff> PTRN} bind def
/Pattern25 {<180018001800180018001800ffffffff001800180018001800180018ffffffff> PTRN} bind def
/Pattern26 {<1111b8b87c7c3a3a1111a3a3c7c78b8b1111b8b87c7c3a3a1111a3a3c7c78b8b> PTRN} bind def
/Pattern27 {<101010102828c7c70101010182827c7c101010102828c7c70101010182827c7c> PTRN} bind def
/Pattern28 {<1c1c121211112121c1c12121111112121c1c121211112121c1c1212111111212> PTRN} bind def
/Pattern29 {<3e3e414180808080e3e31414080808083e3e414180808080e3e3141408080808> PTRN} bind def
/Pattern30 {<4848888884848383848488884848383848488888848483838484888848483838> PTRN} bind def
/Pattern31 {<03030404080808080c0c12122121c0c003030404080808080c0c12122121c0c0> PTRN} bind def
/ellipsedict 8 dict def
ellipsedict /mtrx matrix put
/EARC {
 ellipsedict begin
  /endangle exch def
  /startangle exch def
  /yrad exch def
  /xrad exch def
  /y exch def
  /x exch def
  /savematrix mtrx currentmatrix def
  x y translate
  xrad yrad scale
  0 0 1 startangle endangle arc
  savematrix setmatrix
 end
} def
/TL {
  /kcomp exch def
  /linewidth exch def
  /offset exch def
  GS
  0 offset rmoveto
  linewidth SLW
  dup stringwidth exch kcomp add exch RL s
  GR
} def
/KINIT
{
 /kvector exch def
 /kid 0 def
} def
/KPROC
{
 pop pop
 kvector kid get
 0 rmoveto
 /kid 1 kid add def
} def
/DefEncoding [
 /.notdef
 /.notdef
 /.notdef
 /.notdef
 /.notdef
 /.notdef
 /.notdef
 /.notdef
 /.notdef
 /.notdef
 /.notdef
 /.notdef
 /.notdef
 /.notdef
 /.notdef
 /.notdef
 /.notdef
 /.notdef
 /.notdef
 /.notdef
 /.notdef
 /.notdef
 /.notdef
 /.notdef
 /.notdef
 /.notdef
 /.notdef
 /.notdef
 /.notdef
 /.notdef
 /.notdef
 /.notdef
 /space
 /exclam
 /quotedbl
 /numbersign
 /dollar
 /percent
 /ampersand
 /quoteright
 /parenleft
 /parenright
 /asterisk
 /plus
 /comma
 /hyphen
 /period
 /slash
 /zero
 /one
 /two
 /three
 /four
 /five
 /six
 /seven
 /eight
 /nine
 /colon
 /semicolon
 /less
 /equal
 /greater
 /question
 /at
 /A
 /B
 /C
 /D
 /E
 /F
 /G
 /H
 /I
 /J
 /K
 /L
 /M
 /N
 /O
 /P
 /Q
 /R
 /S
 /T
 /U
 /V
 /W
 /X
 /Y
 /Z
 /bracketleft
 /backslash
 /bracketright
 /asciicircum
 /underscore
 /grave
 /a
 /b
 /c
 /d
 /e
 /f
 /g
 /h
 /i
 /j
 /k
 /l
 /m
 /n
 /o
 /p
 /q
 /r
 /s
 /t
 /u
 /v
 /w
 /x
 /y
 /z
 /braceleft
 /bar
 /braceright
 /asciitilde
 /.notdef
 /.notdef
 /.notdef
 /.notdef
 /.notdef
 /.notdef
 /.notdef
 /.notdef
 /.notdef
 /.notdef
 /.notdef
 /.notdef
 /.notdef
 /.notdef
 /.notdef
 /.notdef
 /.notdef
 /.notdef
 /.notdef
 /.notdef
 /.notdef
 /.notdef
 /.notdef
 /.notdef
 /.notdef
 /.notdef
 /.notdef
 /.notdef
 /.notdef
 /.notdef
 /.notdef
 /.notdef
 /.notdef
 /space
 /exclamdown
 /cent
 /sterling
 /currency
 /yen
 /brokenbar
 /section
 /dieresis
 /copyright
 /ordfeminine
 /guillemotleft
 /logicalnot
 /hyphen
 /registered
 /macron
 /degree
 /plusminus
 /twosuperior
 /threesuperior
 /acute
 /mu
 /paragraph
 /periodcentered
 /cedilla
 /onesuperior
 /ordmasculine
 /guillemotright
 /onequarter
 /onehalf
 /threequarters
 /questiondown
 /Agrave
 /Aacute
 /Acircumflex
 /Atilde
 /Adieresis
 /Aring
 /AE
 /Ccedilla
 /Egrave
 /Eacute
 /Ecircumflex
 /Edieresis
 /Igrave
 /Iacute
 /Icircumflex
 /Idieresis
 /Eth
 /Ntilde
 /Ograve
 /Oacute
 /Ocircumflex
 /Otilde
 /Odieresis
 /multiply
 /Oslash
 /Ugrave
 /Uacute
 /Ucircumflex
 /Udieresis
 /Yacute
 /Thorn
 /germandbls
 /agrave
 /aacute
 /acircumflex
 /atilde
 /adieresis
 /aring
 /ae
 /ccedilla
 /egrave
 /eacute
 /ecircumflex
 /edieresis
 /igrave
 /iacute
 /icircumflex
 /idieresis
 /eth
 /ntilde
 /ograve
 /oacute
 /ocircumflex
 /otilde
 /odieresis
 /divide
 /oslash
 /ugrave
 /uacute
 /ucircumflex
 /udieresis
 /yacute
 /thorn
 /ydieresis
] def
%%EndProlog
%%BeginSetup
%%EndSetup
%%Page: 1 1
PAGE_OFFSET_X PAGE_OFFSET_Y translate
612.00 612.00 scale
90 rotate
0.0 -1.0 translate
n
0.0000 0.0000 m
0.0000 1.0000 l
1.2941 1.0000 l
1.2941 0.0000 l
c
[/DeviceRGB] SCS
Color0 SC
fill
[/DeviceRGB] SCS
Color1 SC
[] 0 SD
0.0023 SLW
0 SLC
0 SLJ
n
0.1519 0.1514 m
0.1528 0.1529 l
0.1537 0.1541 l
0.1547 0.1560 l
0.1556 0.1573 l
0.1566 0.1590 l
0.1575 0.1606 l
0.1584 0.1618 l
0.1594 0.1632 l
0.1603 0.1647 l
0.1613 0.1660 l
0.1622 0.1672 l
0.1631 0.1689 l
0.1641 0.1704 l
0.1650 0.1717 l
0.1659 0.1734 l
0.1669 0.1747 l
0.1678 0.1763 l
0.1688 0.1776 l
0.1697 0.1788 l
0.1706 0.1803 l
0.1716 0.1819 l
0.1725 0.1836 l
0.1734 0.1849 l
0.1744 0.1863 l
0.1753 0.1878 l
0.1763 0.1890 l
0.1772 0.1904 l
0.1781 0.1918 l
0.1791 0.1933 l
0.1800 0.1949 l
0.1809 0.1962 l
0.1819 0.1976 l
0.1828 0.1990 l
0.1837 0.2005 l
0.1847 0.2016 l
0.1856 0.2031 l
0.1866 0.2044 l
0.1875 0.2057 l
0.1884 0.2071 l
0.1894 0.2084 l
0.1903 0.2101 l
0.1912 0.2112 l
0.1922 0.2127 l
0.1931 0.2141 l
0.1941 0.2155 l
0.1950 0.2165 l
0.1959 0.2181 l
0.1969 0.2192 l
0.1978 0.2207 l
0.1987 0.2219 l
0.1997 0.2232 l
0.2006 0.2245 l
0.2016 0.2257 l
0.2025 0.2273 l
0.2034 0.2282 l
0.2044 0.2297 l
0.2053 0.2309 l
0.2062 0.2322 l
0.2072 0.2332 l
0.2081 0.2346 l
0.2091 0.2357 l
0.2100 0.2368 l
0.2109 0.2383 l
0.2119 0.2393 l
0.2128 0.2408 l
0.2137 0.2418 l
0.2147 0.2433 l
0.2156 0.2442 l
0.2166 0.2455 l
0.2175 0.2468 l
0.2184 0.2478 l
0.2194 0.2491 l
0.2203 0.2504 l
0.2212 0.2512 l
0.2222 0.2524 l
0.2231 0.2531 l
0.2241 0.2547 l
0.2250 0.2558 l
0.2259 0.2569 l
0.2269 0.2579 l
0.2278 0.2590 l
0.2287 0.2599 l
0.2297 0.2613 l
0.2306 0.2623 l
0.2316 0.2634 l
0.2325 0.2641 l
0.2334 0.2654 l
0.2344 0.2663 l
0.2353 0.2676 l
0.2362 0.2685 l
0.2372 0.2694 l
0.2381 0.2704 l
0.2391 0.2714 l
0.2400 0.2724 l
0.2409 0.2736 l
0.2419 0.2744 l
0.2428 0.2756 l
0.2437 0.2761 l
0.2447 0.2772 l
0.2456 0.2779 l
0.2466 0.2791 l
0.2475 0.2802 l
0.2484 0.2810 l
0.2494 0.2822 l
0.2503 0.2830 l
0.2512 0.2837 l
0.2522 0.2847 l
0.2531 0.2855 l
0.2541 0.2865 l
0.2550 0.2874 l
0.2559 0.2881 l
0.2569 0.2889 l
0.2578 0.2899 l
0.2587 0.2907 l
0.2597 0.2916 l
0.2606 0.2925 l
0.2616 0.2932 l
0.2625 0.2941 l
0.2634 0.2950 l
0.2644 0.2957 l
0.2653 0.2967 l
0.2662 0.2974 l
0.2672 0.2979 l
0.2681 0.2989 l
0.2691 0.2996 l
0.2700 0.3003 l
0.2709 0.3009 l
0.2719 0.3017 l
0.2728 0.3023 l
0.2737 0.3029 l
0.2747 0.3038 l
0.2756 0.3045 l
0.2766 0.3052 l
0.2775 0.3057 l
0.2784 0.3067 l
0.2794 0.3069 l
0.2803 0.3080 l
0.2812 0.3083 l
0.2822 0.3092 l
0.2831 0.3097 l
0.2841 0.3104 l
0.2850 0.3110 l
0.2859 0.3118 l
0.2869 0.3126 l
0.2878 0.3129 l
0.2887 0.3135 l
0.2897 0.3143 l
0.2906 0.3145 l
0.2916 0.3151 l
0.2925 0.3161 l
0.2934 0.3162 l
0.2944 0.3169 l
0.2953 0.3175 l
0.2962 0.3178 l
0.2972 0.3189 l
0.2981 0.3195 l
0.2991 0.3198 l
0.3000 0.3203 l
0.3009 0.3207 l
0.3019 0.3215 l
0.3028 0.3220 l
0.3037 0.3221 l
0.3047 0.3230 l
0.3056 0.3237 l
0.3066 0.3239 l
0.3075 0.3243 l
0.3084 0.3249 l
0.3094 0.3254 l
0.3103 0.3259 l
0.3112 0.3265 l
0.3122 0.3268 l
0.3131 0.3273 l
0.3141 0.3278 l
0.3150 0.3283 l
0.3159 0.3288 l
0.3169 0.3291 l
0.3178 0.3296 l
0.3187 0.3302 l
0.3197 0.3306 l
0.3206 0.3312 l
0.3216 0.3315 l
0.3225 0.3323 l
0.3234 0.3322 l
0.3244 0.3326 l
0.3253 0.3334 l
0.3262 0.3339 l
0.3272 0.3343 l
0.3281 0.3346 l
0.3291 0.3354 l
0.3300 0.3357 l
0.3309 0.3362 l
0.3319 0.3367 l
0.3328 0.3371 l
0.3337 0.3376 l
0.3347 0.3380 l
0.3356 0.3383 l
0.3366 0.3390 l
0.3375 0.3394 l
0.3384 0.3399 l
0.3394 0.3403 l
0.3403 0.3411 l
0.3412 0.3413 l
0.3422 0.3416 l
0.3431 0.3418 l
0.3441 0.3427 l
0.3450 0.3434 l
0.3459 0.3438 l
0.3469 0.3442 l
0.3478 0.3444 l
0.3487 0.3448 l
0.3497 0.3456 l
0.3506 0.3459 l
0.3516 0.3461 l
0.3525 0.3474 l
0.3534 0.3477 l
0.3544 0.3482 l
0.3553 0.3486 l
0.3562 0.3491 l
0.3572 0.3496 l
0.3581 0.3507 l
0.3591 0.3510 l
0.3600 0.3513 l
0.3609 0.3523 l
0.3619 0.3529 l
0.3628 0.3531 l
0.3637 0.3535 l
0.3647 0.3548 l
0.3656 0.3553 l
0.3666 0.3550 l
0.3675 0.3557 l
0.3684 0.3569 l
0.3694 0.3578 l
0.3703 0.3578 l
0.3712 0.3591 l
0.3722 0.3592 l
0.3731 0.3607 l
0.3741 0.3607 l
0.3750 0.3619 l
0.3759 0.3622 l
0.3769 0.3634 l
0.3778 0.3631 l
0.3787 0.3645 l
0.3797 0.3648 l
0.3806 0.3661 l
0.3816 0.3663 l
0.3825 0.3671 l
0.3834 0.3680 l
0.3844 0.3685 l
0.3853 0.3697 l
0.3862 0.3710 l
0.3872 0.3707 l
0.3881 0.3726 l
0.3891 0.3723 l
0.3900 0.3743 l
0.3909 0.3751 l
0.3919 0.3765 l
0.3928 0.3775 l
0.3937 0.3785 l
0.3947 0.3799 l
0.3956 0.3801 l
0.3966 0.3807 l
0.3975 0.3816 l
0.3984 0.3834 l
0.3994 0.3842 l
0.4003 0.3847 l
0.4012 0.3860 l
0.4022 0.3871 l
0.4031 0.3884 l
0.4041 0.3893 l
0.4050 0.3892 l
0.4059 0.3912 l
0.4069 0.3922 l
0.4078 0.3935 l
0.4087 0.3942 l
0.4097 0.3950 l
0.4106 0.3962 l
0.4116 0.3977 l
0.4125 0.3984 l
0.4134 0.4001 l
0.4144 0.4011 l
0.4153 0.4017 l
0.4162 0.4028 l
0.4172 0.4039 l
0.4181 0.4052 l
0.4191 0.4059 l
0.4200 0.4071 l
0.4209 0.4079 l
0.4219 0.4099 l
0.4228 0.4106 l
0.4237 0.4112 l
0.4247 0.4122 l
0.4256 0.4122 l
0.4266 0.4139 l
0.4275 0.4148 l
0.4284 0.4158 l
0.4294 0.4171 l
0.4303 0.4182 l
0.4312 0.4192 l
0.4322 0.4206 l
0.4331 0.4203 l
0.4341 0.4212 l
0.4350 0.4227 l
0.4359 0.4236 l
0.4369 0.4239 l
0.4378 0.4258 l
0.4387 0.4260 l
0.4397 0.4272 l
0.4406 0.4277 l
0.4416 0.4284 l
0.4425 0.4282 l
0.4434 0.4240 l
0.4444 0.4286 l
0.4453 0.4273 l
0.4462 0.4272 l
0.4472 0.4314 l
0.4481 0.4262 l
0.4491 0.4266 l
0.4500 0.4291 l
0.4509 0.4269 l
0.4519 0.4263 l
0.4528 0.4189 l
0.4537 0.4100 l
0.4547 0.3949 l
0.4556 0.3941 l
0.4566 0.3916 l
0.4575 0.3932 l
0.4584 0.3945 l
0.4594 0.3931 l
0.4603 0.3912 l
0.4612 0.3921 l
0.4622 0.3946 l
0.4631 0.3942 l
0.4641 0.3913 l
0.4650 0.3930 l
0.4659 0.3948 l
0.4669 0.3930 l
0.4678 0.3932 l
0.4687 0.3918 l
0.4697 0.3917 l
0.4706 0.3933 l
0.4716 0.3921 l
0.4725 0.3947 l
0.4734 0.3942 l
0.4744 0.3911 l
0.4753 0.3926 l
0.4762 0.3937 l
0.4772 0.3913 l
0.4781 0.3929 l
0.4791 0.3948 l
0.4800 0.3936 l
0.4809 0.3922 l
0.4819 0.3930 l
0.4828 0.3943 l
0.4837 0.3930 l
0.4847 0.3945 l
0.4856 0.3933 l
0.4866 0.3952 l
0.4875 0.3927 l
0.4884 0.3960 l
0.4894 0.3955 l
0.4903 0.3915 l
0.4912 0.3930 l
0.4922 0.3945 l
0.4931 0.3937 l
0.4941 0.3919 l
0.4950 0.3931 l
0.4959 0.3941 l
0.4969 0.3918 l
0.4978 0.3938 l
0.4987 0.3940 l
0.4997 0.3925 l
0.5006 0.3909 l
0.5016 0.3925 l
0.5025 0.3946 l
0.5034 0.3948 l
0.5044 0.3926 l
0.5053 0.3936 l
0.5062 0.3928 l
0.5072 0.3949 l
0.5081 0.3953 l
0.5091 0.3955 l
0.5100 0.3939 l
0.5109 0.3935 l
0.5119 0.3947 l
0.5128 0.3933 l
0.5137 0.3960 l
0.5147 0.3932 l
0.5156 0.3959 l
0.5166 0.3954 l
0.5175 0.3936 l
0.5184 0.3933 l
0.5194 0.3941 l
0.5203 0.3947 l
0.5212 0.3950 l
0.5222 0.3949 l
0.5231 0.3955 l
0.5241 0.3938 l
0.5250 0.3948 l
0.5259 0.3954 l
0.5269 0.3949 l
0.5278 0.3949 l
0.5287 0.3968 l
0.5297 0.3947 l
0.5306 0.3959 l
0.5316 0.3953 l
0.5325 0.3950 l
0.5334 0.3946 l
0.5344 0.3935 l
0.5353 0.3959 l
0.5362 0.3939 l
0.5372 0.3947 l
0.5381 0.3957 l
0.5391 0.3953 l
0.5400 0.3948 l
0.5409 0.3950 l
0.5419 0.3951 l
0.5428 0.3963 l
0.5437 0.3960 l
0.5447 0.3965 l
0.5456 0.3947 l
0.5466 0.3955 l
0.5475 0.3962 l
0.5484 0.3967 l
0.5494 0.3952 l
0.5503 0.3964 l
0.5512 0.3965 l
0.5522 0.3964 l
0.5531 0.3981 l
0.5541 0.3956 l
0.5550 0.3967 l
0.5559 0.3984 l
0.5569 0.3978 l
0.5578 0.3957 l
0.5587 0.3942 l
0.5597 0.3965 l
0.5606 0.3977 l
0.5616 0.3972 l
0.5625 0.3986 l
0.5634 0.3963 l
0.5644 0.3993 l
0.5653 0.3986 l
0.5662 0.3980 l
0.5672 0.3962 l
0.5681 0.3957 l
0.5691 0.3966 l
0.5700 0.3979 l
0.5709 0.3972 l
0.5719 0.3980 l
0.5728 0.3983 l
0.5737 0.3983 l
0.5747 0.3985 l
0.5756 0.3986 l
0.5766 0.4002 l
0.5775 0.4005 l
0.5784 0.4007 l
0.5794 0.4010 l
0.5803 0.4007 l
0.5812 0.3958 l
0.5822 0.3974 l
0.5831 0.3958 l
0.5841 0.3888 l
0.5850 0.3899 l
0.5859 0.3916 l
0.5869 0.3914 l
0.5878 0.3928 l
0.5887 0.3934 l
0.5897 0.3943 l
0.5906 0.3951 l
0.5916 0.3952 l
0.5925 0.3971 l
0.5934 0.3972 l
0.5944 0.3981 l
0.5953 0.3990 l
0.5962 0.4002 l
0.5972 0.4005 l
0.5981 0.4008 l
0.5991 0.4017 l
0.6000 0.4019 l
0.6009 0.4026 l
0.6019 0.4030 l
0.6028 0.4039 l
0.6037 0.4050 l
0.6047 0.4053 l
0.6056 0.4059 l
0.6066 0.4066 l
0.6075 0.4068 l
0.6084 0.4081 l
0.6094 0.4083 l
0.6103 0.4091 l
0.6112 0.4098 l
0.6122 0.4100 l
0.6131 0.4113 l
0.6141 0.4114 l
0.6150 0.4114 l
0.6159 0.4119 l
0.6169 0.4118 l
0.6178 0.4131 l
0.6187 0.4130 l
0.6197 0.4132 l
0.6206 0.4144 l
0.6216 0.4147 l
0.6225 0.4150 l
0.6234 0.4150 l
0.6244 0.4156 l
0.6253 0.4157 l
0.6262 0.4161 l
0.6272 0.4176 l
0.6281 0.4170 l
0.6291 0.4176 l
0.6300 0.4181 l
0.6309 0.4189 l
0.6319 0.4184 l
0.6328 0.4195 l
0.6337 0.4193 l
0.6347 0.4197 l
0.6356 0.4197 l
0.6366 0.4203 l
0.6375 0.4206 l
0.6384 0.4208 l
0.6394 0.4208 l
0.6403 0.4211 l
0.6412 0.4214 l
0.6422 0.4224 l
0.6431 0.4222 l
0.6441 0.4227 l
0.6450 0.4230 l
0.6459 0.4236 l
0.6469 0.4238 l
0.6478 0.4239 l
0.6487 0.4242 l
0.6497 0.4241 l
0.6506 0.4251 l
0.6516 0.4256 l
0.6525 0.4253 l
0.6534 0.4257 l
0.6544 0.4264 l
0.6553 0.4266 l
0.6562 0.4273 l
0.6572 0.4268 l
0.6581 0.4277 l
0.6591 0.4279 l
0.6600 0.4283 l
0.6609 0.4285 l
0.6619 0.4286 l
0.6628 0.4290 l
0.6637 0.4294 l
0.6647 0.4291 l
0.6656 0.4299 l
0.6666 0.4297 l
0.6675 0.4304 l
0.6684 0.4314 l
0.6694 0.4317 l
0.6703 0.4314 l
0.6712 0.4313 l
0.6722 0.4321 l
0.6731 0.4328 l
0.6741 0.4325 l
0.6750 0.4329 l
0.6759 0.4335 l
0.6769 0.4335 l
0.6778 0.4338 l
0.6787 0.4341 l
0.6797 0.4358 l
0.6806 0.4362 l
0.6816 0.4355 l
0.6825 0.4360 l
0.6834 0.4360 l
0.6844 0.4372 l
0.6853 0.4365 l
0.6862 0.4377 l
0.6872 0.4384 l
0.6881 0.4379 l
0.6891 0.4379 l
0.6900 0.4387 l
0.6909 0.4382 l
0.6919 0.4400 l
0.6928 0.4402 l
0.6937 0.4403 l
0.6947 0.4404 l
0.6956 0.4422 l
0.6966 0.4426 l
0.6975 0.4423 l
0.6984 0.4427 l
0.6994 0.4443 l
0.7003 0.4454 l
0.7012 0.4472 l
0.7022 0.4460 l
0.7031 0.4464 l
0.7041 0.4470 l
0.7050 0.4477 l
0.7059 0.4496 l
0.7069 0.4515 l
0.7078 0.4510 l
0.7087 0.4499 l
0.7097 0.4527 l
0.7106 0.4525 l
0.7116 0.4550 l
0.7125 0.4571 l
0.7134 0.4573 l
0.7144 0.4615 l
0.7153 0.4591 l
0.7162 0.4615 l
0.7172 0.4653 l
0.7181 0.4651 l
0.7191 0.4673 l
0.7200 0.4688 l
0.7209 0.4680 l
0.7219 0.4735 l
0.7228 0.4753 l
0.7237 0.4771 l
0.7247 0.4799 l
0.7256 0.4804 l
0.7266 0.4851 l
0.7275 0.4881 l
0.7284 0.4900 l
0.7294 0.4962 l
0.7303 0.4974 l
0.7312 0.5012 l
0.7322 0.5048 l
0.7331 0.5094 l
0.7341 0.5128 l
0.7350 0.5171 l
0.7359 0.5234 l
0.7369 0.5279 l
0.7378 0.5337 l
0.7387 0.5380 l
0.7397 0.5436 l
0.7406 0.5502 l
0.7416 0.5545 l
0.7425 0.5624 l
0.7434 0.5661 l
0.7444 0.5723 l
0.7453 0.5798 l
0.7462 0.5855 l
0.7472 0.5925 l
0.7481 0.5992 l
0.7491 0.6048 l
0.7500 0.6102 l
0.7509 0.6175 l
0.7519 0.6233 l
0.7528 0.6301 l
0.7537 0.6359 l
0.7547 0.6433 l
0.7556 0.6499 l
0.7566 0.6566 l
0.7575 0.6618 l
0.7584 0.6679 l
0.7594 0.6731 l
0.7603 0.6809 l
0.7612 0.6867 l
0.7622 0.6933 l
0.7631 0.6972 l
0.7641 0.7049 l
0.7650 0.7106 l
0.7659 0.7176 l
0.7669 0.7216 l
0.7678 0.7271 l
0.7687 0.7325 l
0.7697 0.7389 l
0.7706 0.7443 l
0.7716 0.7495 l
0.7725 0.3287 l
0.7734 0.3018 l
0.7744 0.3015 l
0.7753 0.3002 l
0.7762 0.3003 l
0.7772 0.3010 l
0.7781 0.3001 l
0.7791 0.3006 l
0.7800 0.3031 l
0.7809 0.3027 l
0.7819 0.3026 l
0.7828 0.3026 l
0.7837 0.3022 l
0.7847 0.3030 l
0.7856 0.3047 l
0.7866 0.3038 l
0.7875 0.3048 l
0.7884 0.3061 l
0.7894 0.3051 l
0.7903 0.3054 l
0.7912 0.3056 l
0.7922 0.3056 l
0.7931 0.3080 l
0.7941 0.3077 l
0.7950 0.3083 l
0.7959 0.3079 l
0.7969 0.3070 l
0.7978 0.3081 l
0.7987 0.3092 l
0.7997 0.3089 l
0.8006 0.3100 l
0.8016 0.3113 l
0.8025 0.3110 l
0.8034 0.3117 l
0.8044 0.3124 l
0.8053 0.3121 l
0.8062 0.3130 l
0.8072 0.3135 l
0.8081 0.3135 l
0.8091 0.3146 l
0.8100 0.3128 l
0.8109 0.3151 l
0.8119 0.3153 l
0.8128 0.3158 l
0.8137 0.3164 l
0.8147 0.3165 l
0.8156 0.3170 l
0.8166 0.3172 l
0.8175 0.3152 l
0.8184 0.3161 l
0.8194 0.3166 l
0.8203 0.3167 l
0.8212 0.3173 l
0.8222 0.3179 l
0.8231 0.3182 l
0.8241 0.3187 l
0.8250 0.3183 l
0.8259 0.3201 l
0.8269 0.3190 l
0.8278 0.3200 l
0.8287 0.3207 l
0.8297 0.3202 l
0.8306 0.3209 l
0.8316 0.3211 l
0.8325 0.3214 l
0.8334 0.3231 l
0.8344 0.3233 l
0.8353 0.3241 l
0.8362 0.3239 l
0.8372 0.3231 l
0.8381 0.3253 l
0.8391 0.3256 l
0.8400 0.3250 l
0.8409 0.3255 l
0.8419 0.3269 l
0.8428 0.3271 l
0.8437 0.3262 l
0.8447 0.3272 l
0.8456 0.3245 l
0.8466 0.3237 l
0.8475 0.3238 l
0.8484 0.3227 l
0.8494 0.3242 l
0.8503 0.3248 l
0.8512 0.3236 l
0.8522 0.3251 l
0.8531 0.3248 l
0.8541 0.3245 l
0.8550 0.3268 l
0.8559 0.3268 l
0.8569 0.3263 l
0.8578 0.3265 l
0.8587 0.2873 l
0.8597 0.2893 l
0.8606 0.2913 l
0.8616 0.2902 l
0.8625 0.2886 l
0.8634 0.2881 l
0.8644 0.2904 l
0.8653 0.2910 l
0.8662 0.2915 l
0.8672 0.2914 l
0.8681 0.2924 l
0.8691 0.2924 l
0.8700 0.2925 l
0.8709 0.2922 l
0.8719 0.2937 l
0.8728 0.2941 l
0.8737 0.2942 l
0.8747 0.2948 l
0.8756 0.2944 l
0.8766 0.2949 l
0.8775 0.2948 l
0.8784 0.2964 l
0.8794 0.2965 l
0.8803 0.2970 l
0.8812 0.2985 l
0.8822 0.2989 l
0.8831 0.2978 l
0.8841 0.2980 l
0.8850 0.2991 l
0.8859 0.3001 l
0.8869 0.3000 l
0.8878 0.3007 l
0.8887 0.3009 l
0.8897 0.3019 l
0.8906 0.3020 l
0.8916 0.3018 l
0.8925 0.3014 l
0.8934 0.3027 l
0.8944 0.2944 l
0.8953 0.2939 l
0.8962 0.2938 l
0.8972 0.2831 l
0.8981 0.2828 l
0.8991 0.2833 l
0.9000 0.2836 l
0.9009 0.2852 l
0.9019 0.2848 l
0.9028 0.2857 l
0.9037 0.2867 l
0.9047 0.2862 l
0.9056 0.2863 l
0.9066 0.2868 l
0.9075 0.2868 l
0.9084 0.2880 l
0.9094 0.2884 l
0.9103 0.2877 l
0.9112 0.2887 l
0.9122 0.2890 l
0.9131 0.2899 l
0.9141 0.2900 l
0.9150 0.2906 l
0.9159 0.2900 l
0.9169 0.2917 l
0.9178 0.2921 l
0.9187 0.2917 l
0.9197 0.2927 l
0.9206 0.2937 l
0.9216 0.2933 l
0.9225 0.2951 l
0.9234 0.2932 l
0.9244 0.2946 l
0.9253 0.2948 l
0.9262 0.2954 l
0.9272 0.2959 l
0.9281 0.2965 l
0.9291 0.2972 l
0.9300 0.2967 l
0.9309 0.2981 l
0.9319 0.2981 l
0.9328 0.2987 l
0.9337 0.2989 l
0.9347 0.2987 l
0.9356 0.3001 l
0.9366 0.2998 l
0.9375 0.3001 l
0.9384 0.3006 l
0.9394 0.3020 l
0.9403 0.3013 l
0.9412 0.3026 l
0.9422 0.3020 l
0.9431 0.3030 l
0.9441 0.3039 l
0.9450 0.3045 l
0.9459 0.3048 l
0.9469 0.3046 l
0.9478 0.3060 l
0.9487 0.3047 l
0.9497 0.3057 l
0.9506 0.3067 l
0.9516 0.3067 l
0.9525 0.3067 l
0.9534 0.3084 l
0.9544 0.3079 l
0.9553 0.3078 l
0.9562 0.3064 l
0.9572 0.3073 l
0.9581 0.3084 l
0.9591 0.3069 l
0.9600 0.3088 l
0.9609 0.3082 l
0.9619 0.3093 l
0.9628 0.3087 l
0.9637 0.3089 l
0.9647 0.3100 l
0.9656 0.3105 l
0.9666 0.3102 l
0.9675 0.3112 l
0.9684 0.3109 l
0.9694 0.3127 l
0.9703 0.3114 l
0.9712 0.3105 l
0.9722 0.3113 l
0.9731 0.3112 l
0.9741 0.3120 l
0.9750 0.3121 l
0.9759 0.3118 l
0.9769 0.3118 l
0.9778 0.3123 l
0.9787 0.3133 l
0.9797 0.3137 l
0.9806 0.3134 l
0.9816 0.3150 l
0.9825 0.3153 l
0.9834 0.3150 l
0.9844 0.3143 l
0.9853 0.3101 l
0.9862 0.3092 l
0.9872 0.3091 l
0.9881 0.3081 l
0.9891 0.3069 l
0.9900 0.3070 l
0.9909 0.3066 l
0.9919 0.3045 l
0.9928 0.3054 l
0.9937 0.3066 l
0.9947 0.3054 l
0.9956 0.3077 l
0.9966 0.3076 l
0.9975 0.3072 l
0.9984 0.3081 l
0.9994 0.3088 l
1.0003 0.3092 l
1.0012 0.3106 l
1.0022 0.3098 l
1.0031 0.3085 l
1.0041 0.3085 l
1.0050 0.3094 l
1.0059 0.3099 l
1.0069 0.3107 l
1.0078 0.3102 l
1.0087 0.3119 l
1.0097 0.3123 l
1.0106 0.3114 l
1.0116 0.3117 l
1.0125 0.3129 l
1.0134 0.3066 l
1.0144 0.3073 l
1.0153 0.3073 l
1.0162 0.3082 l
1.0172 0.3084 l
1.0181 0.3086 l
1.0191 0.3096 l
1.0200 0.3091 l
1.0209 0.3098 l
1.0219 0.3097 l
1.0228 0.3072 l
1.0237 0.3088 l
1.0247 0.3091 l
1.0256 0.3081 l
1.0266 0.3102 l
1.0275 0.3105 l
1.0284 0.3117 l
1.0294 0.3116 l
1.0303 0.3114 l
1.0312 0.3129 l
1.0322 0.3131 l
1.0331 0.3124 l
1.0341 0.3139 l
1.0350 0.3139 l
1.0359 0.3144 l
1.0369 0.3140 l
1.0378 0.3157 l
1.0387 0.3172 l
1.0397 0.3159 l
1.0406 0.3164 l
1.0416 0.3167 l
1.0425 0.3159 l
1.0434 0.3172 l
1.0444 0.3189 l
1.0453 0.3175 l
1.0462 0.3180 l
1.0472 0.3192 l
1.0481 0.3182 l
1.0491 0.3160 l
1.0500 0.2688 l
1.0509 0.2197 l
1.0519 0.2102 l
1.0528 0.2100 l
1.0537 0.2115 l
1.0547 0.2085 l
1.0556 0.2098 l
1.0566 0.2085 l
1.0575 0.2090 l
1.0584 0.2101 l
1.0594 0.2090 l
1.0603 0.2112 l
1.0612 0.2120 l
1.0622 0.2118 l
1.0631 0.2133 l
1.0641 0.2137 l
1.0650 0.2137 l
1.0659 0.2129 l
1.0669 0.2125 l
1.0678 0.2139 l
1.0687 0.2131 l
1.0697 0.2130 l
1.0706 0.2130 l
1.0716 0.2135 l
1.0725 0.2134 l
1.0734 0.2138 l
1.0744 0.2149 l
1.0753 0.2138 l
1.0762 0.2147 l
1.0772 0.2157 l
1.0781 0.2157 l
1.0791 0.2165 l
1.0800 0.2155 l
1.0809 0.2156 l
1.0819 0.2155 l
1.0828 0.2179 l
1.0837 0.2166 l
1.0847 0.2186 l
1.0856 0.2178 l
1.0866 0.2170 l
1.0875 0.2168 l
1.0881 0.2177 l
s
[/DeviceRGB] SCS
Color2 SC
n
0.1506 0.1504 m
0.1509 0.1507 l
0.1519 0.1524 l
0.1528 0.1538 l
0.1537 0.1552 l
0.1547 0.1566 l
0.1556 0.1583 l
0.1566 0.1596 l
0.1575 0.1610 l
0.1584 0.1625 l
0.1594 0.1637 l
0.1603 0.1652 l
0.1613 0.1664 l
0.1622 0.1682 l
0.1631 0.1696 l
0.1641 0.1710 l
0.1650 0.1723 l
0.1659 0.1735 l
0.1669 0.1749 l
0.1678 0.1763 l
0.1688 0.1776 l
0.1697 0.1787 l
0.1706 0.1801 l
0.1716 0.1814 l
0.1725 0.1825 l
0.1734 0.1837 l
0.1744 0.1852 l
0.1753 0.1864 l
0.1763 0.1878 l
0.1772 0.1887 l
0.1781 0.1901 l
0.1791 0.1913 l
0.1800 0.1924 l
0.1809 0.1939 l
0.1819 0.1953 l
0.1828 0.1963 l
0.1837 0.1975 l
0.1847 0.1988 l
0.1856 0.1999 l
0.1866 0.2011 l
0.1875 0.2023 l
0.1884 0.2034 l
0.1894 0.2047 l
0.1903 0.2056 l
0.1912 0.2071 l
0.1922 0.2080 l
0.1931 0.2095 l
0.1941 0.2105 l
0.1950 0.2115 l
0.1959 0.2129 l
0.1969 0.2139 l
0.1978 0.2151 l
0.1987 0.2162 l
0.1997 0.2172 l
0.2006 0.2183 l
0.2016 0.2194 l
0.2025 0.2207 l
0.2034 0.2219 l
0.2044 0.2228 l
0.2053 0.2241 l
0.2062 0.2250 l
0.2072 0.2262 l
0.2081 0.2271 l
0.2091 0.2284 l
0.2100 0.2293 l
0.2109 0.2305 l
0.2119 0.2316 l
0.2128 0.2326 l
0.2137 0.2338 l
0.2147 0.2349 l
0.2156 0.2361 l
0.2166 0.2368 l
0.2175 0.2378 l
0.2184 0.2389 l
0.2194 0.2399 l
0.2203 0.2412 l
0.2212 0.2424 l
0.2222 0.2432 l
0.2231 0.2442 l
0.2241 0.2452 l
0.2250 0.2463 l
0.2259 0.2469 l
0.2269 0.2481 l
0.2278 0.2492 l
0.2287 0.2501 l
0.2297 0.2512 l
0.2306 0.2522 l
0.2316 0.2532 l
0.2325 0.2545 l
0.2334 0.2551 l
0.2344 0.2565 l
0.2353 0.2569 l
0.2362 0.2582 l
0.2372 0.2593 l
0.2381 0.2600 l
0.2391 0.2611 l
0.2400 0.2622 l
0.2409 0.2626 l
0.2419 0.2639 l
0.2428 0.2650 l
0.2437 0.2656 l
0.2447 0.2666 l
0.2456 0.2677 l
0.2466 0.2683 l
0.2475 0.2694 l
0.2484 0.2704 l
0.2494 0.2711 l
0.2503 0.2723 l
0.2512 0.2731 l
0.2522 0.2741 l
0.2531 0.2747 l
0.2541 0.2759 l
0.2550 0.2767 l
0.2559 0.2775 l
0.2569 0.2783 l
0.2578 0.2792 l
0.2587 0.2802 l
0.2597 0.2809 l
0.2606 0.2817 l
0.2616 0.2828 l
0.2625 0.2837 l
0.2634 0.2842 l
0.2644 0.2852 l
0.2653 0.2859 l
0.2662 0.2865 l
0.2672 0.2877 l
0.2681 0.2885 l
0.2691 0.2893 l
0.2700 0.2900 l
0.2709 0.2911 l
0.2719 0.2917 l
0.2728 0.2925 l
0.2737 0.2932 l
0.2747 0.2941 l
0.2756 0.2947 l
0.2766 0.2958 l
0.2775 0.2965 l
0.2784 0.2972 l
0.2794 0.2979 l
0.2803 0.2988 l
0.2812 0.2994 l
0.2822 0.3001 l
0.2831 0.3010 l
0.2841 0.3018 l
0.2850 0.3023 l
0.2859 0.3031 l
0.2869 0.3042 l
0.2878 0.3046 l
0.2887 0.3053 l
0.2897 0.3061 l
0.2906 0.3069 l
0.2916 0.3076 l
0.2925 0.3082 l
0.2934 0.3091 l
0.2944 0.3096 l
0.2953 0.3102 l
0.2962 0.3110 l
0.2972 0.3117 l
0.2981 0.3123 l
0.2991 0.3133 l
0.3000 0.3135 l
0.3009 0.3144 l
0.3019 0.3150 l
0.3028 0.3157 l
0.3037 0.3164 l
0.3047 0.3172 l
0.3056 0.3176 l
0.3066 0.3185 l
0.3075 0.3190 l
0.3084 0.3196 l
0.3094 0.3201 l
0.3103 0.3206 l
0.3112 0.3215 l
0.3122 0.3224 l
0.3131 0.3226 l
0.3141 0.3233 l
0.3150 0.3238 l
0.3159 0.3247 l
0.3169 0.3252 l
0.3178 0.3259 l
0.3187 0.3263 l
0.3197 0.3270 l
0.3206 0.3271 l
0.3216 0.3278 l
0.3225 0.3284 l
0.3234 0.3290 l
0.3244 0.3296 l
0.3253 0.3300 l
0.3262 0.3308 l
0.3272 0.3316 l
0.3281 0.3319 l
0.3291 0.3326 l
0.3300 0.3327 l
0.3309 0.3337 l
0.3319 0.3338 l
0.3328 0.3344 l
0.3337 0.3352 l
0.3347 0.3356 l
0.3356 0.3359 l
0.3366 0.3368 l
0.3375 0.3373 l
0.3384 0.3376 l
0.3394 0.3384 l
0.3403 0.3386 l
0.3412 0.3391 l
0.3422 0.3397 l
0.3431 0.3402 l
0.3441 0.3404 l
0.3450 0.3412 l
0.3459 0.3417 l
0.3469 0.3420 l
0.3478 0.3426 l
0.3487 0.3432 l
0.3497 0.3436 l
0.3506 0.3438 l
0.3516 0.3441 l
0.3525 0.3448 l
0.3534 0.3453 l
0.3544 0.3458 l
0.3553 0.3461 l
0.3562 0.3464 l
0.3572 0.3469 l
0.3581 0.3475 l
0.3591 0.3477 l
0.3600 0.3483 l
0.3609 0.3486 l
0.3619 0.3492 l
0.3628 0.3496 l
0.3637 0.3501 l
0.3647 0.3503 l
0.3656 0.3507 l
0.3666 0.3513 l
0.3675 0.3514 l
0.3684 0.3519 l
0.3694 0.3524 l
0.3703 0.3528 l
0.3712 0.3529 l
0.3722 0.3533 l
0.3731 0.3539 l
0.3741 0.3541 l
0.3750 0.3547 l
0.3759 0.3550 l
0.3769 0.3555 l
0.3778 0.3560 l
0.3787 0.3561 l
0.3797 0.3565 l
0.3806 0.3568 l
0.3816 0.3571 l
0.3825 0.3577 l
0.3834 0.3578 l
0.3844 0.3583 l
0.3853 0.3587 l
0.3862 0.3592 l
0.3872 0.3591 l
0.3881 0.3598 l
0.3891 0.3600 l
0.3900 0.3604 l
0.3909 0.3612 l
0.3919 0.3610 l
0.3928 0.3613 l
0.3937 0.3620 l
0.3947 0.3620 l
0.3956 0.3626 l
0.3966 0.3630 l
0.3975 0.3632 l
0.3984 0.3633 l
0.3994 0.3639 l
0.4003 0.3641 l
0.4012 0.3647 l
0.4022 0.3648 l
0.4031 0.3654 l
0.4041 0.3656 l
0.4050 0.3659 l
0.4059 0.3661 l
0.4069 0.3666 l
0.4078 0.3668 l
0.4087 0.3671 l
0.4097 0.3674 l
0.4106 0.3682 l
0.4116 0.3681 l
0.4125 0.3685 l
0.4134 0.3686 l
0.4144 0.3690 l
0.4153 0.3695 l
0.4162 0.3698 l
0.4172 0.3701 l
0.4181 0.3698 l
0.4191 0.3707 l
0.4200 0.3709 l
0.4209 0.3714 l
0.4219 0.3716 l
0.4228 0.3720 l
0.4237 0.3722 l
0.4247 0.3725 l
0.4256 0.3732 l
0.4266 0.3734 l
0.4275 0.3735 l
0.4284 0.3743 l
0.4294 0.3741 l
0.4303 0.3744 l
0.4312 0.3744 l
0.4322 0.3754 l
0.4331 0.3753 l
0.4341 0.3760 l
0.4350 0.3760 l
0.4359 0.3765 l
0.4369 0.3773 l
0.4378 0.3773 l
0.4387 0.3775 l
0.4397 0.3776 l
0.4406 0.3779 l
0.4416 0.3784 l
0.4425 0.3788 l
0.4434 0.3790 l
0.4444 0.3790 l
0.4453 0.3798 l
0.4462 0.3799 l
0.4472 0.3801 l
0.4481 0.3804 l
0.4491 0.3808 l
0.4500 0.3815 l
0.4509 0.3813 l
0.4519 0.3820 l
0.4528 0.3826 l
0.4537 0.3827 l
0.4547 0.3826 l
0.4556 0.3835 l
0.4566 0.3839 l
0.4575 0.3840 l
0.4584 0.3843 l
0.4594 0.3841 l
0.4603 0.3849 l
0.4612 0.3855 l
0.4622 0.3855 l
0.4631 0.3861 l
0.4641 0.3867 l
0.4650 0.3870 l
0.4659 0.3876 l
0.4669 0.3875 l
0.4678 0.3881 l
0.4687 0.3878 l
0.4697 0.3886 l
0.4706 0.3881 l
0.4716 0.3889 l
0.4725 0.3893 l
0.4734 0.3900 l
0.4744 0.3905 l
0.4753 0.3905 l
0.4762 0.3912 l
0.4772 0.3918 l
0.4781 0.3916 l
0.4791 0.3923 l
0.4800 0.3921 l
0.4809 0.3925 l
0.4819 0.3937 l
0.4828 0.3937 l
0.4837 0.3945 l
0.4847 0.3949 l
0.4856 0.3954 l
0.4866 0.3950 l
0.4875 0.3960 l
0.4884 0.3959 l
0.4894 0.3970 l
0.4903 0.3970 l
0.4912 0.3979 l
0.4922 0.3975 l
0.4931 0.3984 l
0.4941 0.3986 l
0.4950 0.3987 l
0.4959 0.3998 l
0.4969 0.4006 l
0.4978 0.4005 l
0.4987 0.4016 l
0.4997 0.4025 l
0.5006 0.4019 l
0.5016 0.4021 l
0.5025 0.4025 l
0.5034 0.4035 l
0.5044 0.4042 l
0.5053 0.4043 l
0.5062 0.4051 l
0.5072 0.4055 l
0.5081 0.4064 l
0.5091 0.4077 l
0.5100 0.4076 l
0.5109 0.4081 l
0.5119 0.4087 l
0.5128 0.4089 l
0.5137 0.4101 l
0.5147 0.4104 l
0.5156 0.4111 l
0.5166 0.4115 l
0.5175 0.4118 l
0.5184 0.4131 l
0.5194 0.4134 l
0.5203 0.4142 l
0.5212 0.4159 l
0.5222 0.4140 l
0.5231 0.4166 l
0.5241 0.4158 l
0.5250 0.4173 l
0.5259 0.4175 l
0.5269 0.4196 l
0.5278 0.4208 l
0.5287 0.4200 l
0.5297 0.4214 l
0.5306 0.4225 l
0.5316 0.4231 l
0.5325 0.4252 l
0.5334 0.4251 l
0.5344 0.4260 l
0.5353 0.4272 l
0.5362 0.4279 l
0.5372 0.4278 l
0.5381 0.4299 l
0.5391 0.4305 l
0.5400 0.4319 l
0.5409 0.4316 l
0.5419 0.4338 l
0.5428 0.4340 l
0.5437 0.4355 l
0.5447 0.4365 l
0.5456 0.4364 l
0.5466 0.4389 l
0.5475 0.4402 l
0.5484 0.4408 l
0.5494 0.4427 l
0.5503 0.4443 l
0.5512 0.4451 l
0.5522 0.4468 l
0.5531 0.4478 l
0.5541 0.4484 l
0.5550 0.4490 l
0.5559 0.4509 l
0.5569 0.4524 l
0.5578 0.4538 l
0.5587 0.4557 l
0.5597 0.4568 l
0.5606 0.4583 l
0.5616 0.4600 l
0.5625 0.4608 l
0.5634 0.4631 l
0.5644 0.4635 l
0.5653 0.4645 l
0.5662 0.4671 l
0.5672 0.4686 l
0.5681 0.4703 l
0.5691 0.4718 l
0.5700 0.4735 l
0.5709 0.4749 l
0.5719 0.4757 l
0.5728 0.4787 l
0.5737 0.4794 l
0.5747 0.4809 l
0.5756 0.4833 l
0.5766 0.4854 l
0.5775 0.4870 l
0.5784 0.4886 l
0.5794 0.4903 l
0.5803 0.4921 l
0.5812 0.4941 l
0.5822 0.4958 l
0.5831 0.4974 l
0.5841 0.4986 l
0.5850 0.5018 l
0.5859 0.5037 l
0.5869 0.5055 l
0.5878 0.5077 l
0.5887 0.5094 l
0.5897 0.5117 l
0.5906 0.5139 l
0.5916 0.5158 l
0.5925 0.5176 l
0.5934 0.5195 l
0.5944 0.5219 l
0.5953 0.5246 l
0.5962 0.5265 l
0.5972 0.5289 l
0.5981 0.5316 l
0.5991 0.5327 l
0.6000 0.5346 l
0.6009 0.5369 l
0.6019 0.5395 l
0.6028 0.5414 l
0.6037 0.5439 l
0.6047 0.5463 l
0.6056 0.5492 l
0.6066 0.5517 l
0.6075 0.5540 l
0.6084 0.5566 l
0.6094 0.5584 l
0.6103 0.5614 l
0.6112 0.5645 l
0.6122 0.5669 l
0.6131 0.5689 l
0.6141 0.5723 l
0.6150 0.5745 l
0.6159 0.5772 l
0.6169 0.5805 l
0.6178 0.5829 l
0.6187 0.5859 l
0.6197 0.5893 l
0.6206 0.5919 l
0.6216 0.5941 l
0.6225 0.5977 l
0.6234 0.5999 l
0.6244 0.6034 l
0.6253 0.6064 l
0.6262 0.6097 l
0.6272 0.6126 l
0.6281 0.6156 l
0.6291 0.6201 l
0.6300 0.6220 l
0.6309 0.6250 l
0.6319 0.6286 l
0.6328 0.6320 l
0.6337 0.6348 l
0.6347 0.6379 l
0.6356 0.6424 l
0.6366 0.6456 l
0.6375 0.6497 l
0.6384 0.6521 l
0.6394 0.6555 l
0.6403 0.6589 l
0.6412 0.6625 l
0.6422 0.6657 l
0.6431 0.6697 l
0.6441 0.6731 l
0.6450 0.6768 l
0.6459 0.6802 l
0.6469 0.6840 l
0.6478 0.6880 l
0.6487 0.2750 l
0.6497 0.1548 l
0.6506 0.1519 l
0.6516 0.1516 l
0.6519 0.1499 l
s
n
0.6529 0.1499 m
0.6534 0.1543 l
0.6538 0.1499 l
s
n
0.6548 0.1499 m
0.6553 0.1574 l
0.6558 0.1499 l
s
n
0.6567 0.1499 m
0.6572 0.1560 l
0.6577 0.1499 l
s
n
0.6587 0.1499 m
0.6591 0.1539 l
0.6600 0.1507 l
0.6602 0.1499 l
s
n
0.6614 0.1499 m
0.6619 0.1540 l
0.6623 0.1499 l
s
n
0.6633 0.1499 m
0.6637 0.1547 l
0.6643 0.1499 l
s
n
0.6652 0.1499 m
0.6656 0.1534 l
0.6662 0.1499 l
s
n
0.6670 0.1499 m
0.6675 0.1528 l
0.6681 0.1499 l
s
n
0.6690 0.1499 m
0.6694 0.1510 l
0.6699 0.1499 l
s
n
0.6710 0.1499 m
0.6712 0.1503 l
0.6722 0.1517 l
0.6728 0.1499 l
s
n
0.6734 0.1499 m
0.6741 0.1523 l
0.6745 0.1499 l
s
n
0.6755 0.1499 m
0.6759 0.1530 l
0.6764 0.1499 l
s
n
0.6773 0.1499 m
0.6778 0.1536 l
0.6783 0.1499 l
s
n
0.6793 0.1499 m
0.6797 0.1526 l
0.6806 0.1499 l
s
n
0.6818 0.1499 m
0.6825 0.1521 l
0.6830 0.1499 l
s
n
0.6838 0.1499 m
0.6844 0.1530 l
0.6849 0.1499 l
s
n
0.6858 0.1499 m
0.6862 0.1520 l
0.6868 0.1499 l
s
n
0.6876 0.1499 m
0.6881 0.1514 l
0.6889 0.1499 l
s
n
0.6894 0.1499 m
0.6900 0.1505 l
0.6909 0.1502 l
0.6919 0.1499 l
0.6928 0.1510 l
0.6932 0.1499 l
s
n
0.6943 0.1499 m
0.6947 0.1509 l
0.6950 0.1499 l
s
n
0.6961 0.1499 m
0.6966 0.1521 l
0.6970 0.1499 l
s
n
0.6980 0.1499 m
0.6984 0.1523 l
0.6991 0.1499 l
s
n
0.7000 0.1499 m
0.7003 0.1505 l
0.7012 0.1512 l
0.7017 0.1499 l
s
n
0.7026 0.1499 m
0.7031 0.1516 l
0.7037 0.1499 l
s
n
0.7044 0.1499 m
0.7050 0.1518 l
0.7054 0.1499 l
s
n
0.7065 0.1499 m
0.7069 0.1515 l
0.7074 0.1499 l
s
n
0.7082 0.1499 m
0.7087 0.1515 l
0.7094 0.1499 l
s
n
0.7103 0.1499 m
0.7106 0.1503 l
0.7111 0.1499 l
s
n
0.7122 0.1499 m
0.7125 0.1502 l
0.7134 0.1504 l
0.7137 0.1499 l
s
n
0.7147 0.1499 m
0.7153 0.1520 l
0.7157 0.1499 l
s
n
0.7168 0.1499 m
0.7172 0.1523 l
0.7178 0.1499 l
s
n
0.7185 0.1499 m
0.7191 0.1518 l
0.7196 0.1499 l
s
n
0.7209 0.1499 m
0.7209 0.1500 l
0.7219 0.1504 l
0.7228 0.1501 l
0.7237 0.1505 l
0.7241 0.1499 l
s
n
0.7250 0.1499 m
0.7256 0.1514 l
0.7261 0.1499 l
s
n
0.7270 0.1499 m
0.7275 0.1519 l
0.7279 0.1499 l
s
n
0.7290 0.1499 m
0.7294 0.1517 l
0.7303 0.1500 l
0.7304 0.1499 l
s
n
0.7315 0.1499 m
0.7322 0.1521 l
0.7326 0.1499 l
s
n
0.7336 0.1499 m
0.7341 0.1528 l
0.7346 0.1499 l
s
n
0.7356 0.1499 m
0.7359 0.1509 l
0.7364 0.1499 l
s
n
0.7374 0.1499 m
0.7378 0.1508 l
0.7387 0.1504 l
0.7392 0.1499 l
s
n
0.7400 0.1499 m
0.7406 0.1508 l
0.7409 0.1499 l
s
n
0.7419 0.1499 m
0.7425 0.1530 l
0.7430 0.1499 l
s
n
0.7440 0.1499 m
0.7444 0.1514 l
0.7449 0.1499 l
s
n
0.7457 0.1499 m
0.7462 0.1515 l
0.7470 0.1499 l
s
n
0.7501 0.1499 m
0.7509 0.1505 l
0.7512 0.1499 l
s
n
0.7522 0.1499 m
0.7528 0.1531 l
0.7533 0.1499 l
s
n
0.7542 0.1499 m
0.7547 0.1538 l
0.7553 0.1499 l
s
n
0.7562 0.1499 m
0.7566 0.1510 l
0.7571 0.1499 l
s
n
0.7586 0.1499 m
0.7594 0.1518 l
0.7598 0.1499 l
s
n
0.7608 0.1499 m
0.7612 0.1522 l
0.7617 0.1499 l
s
n
0.7627 0.1499 m
0.7631 0.1523 l
0.7637 0.1499 l
s
n
0.7646 0.1499 m
0.7650 0.1513 l
0.7659 0.1501 l
0.7662 0.1499 l
s
n
0.7671 0.1499 m
0.7678 0.1517 l
0.7683 0.1499 l
s
n
0.7692 0.1499 m
0.7697 0.1517 l
0.7702 0.1499 l
s
n
0.7711 0.1499 m
0.7716 0.1513 l
0.7721 0.1499 l
s
n
0.7729 0.1499 m
0.7734 0.1513 l
0.7740 0.1499 l
s
n
0.7751 0.1499 m
0.7753 0.1502 l
0.7761 0.1499 l
s
n
0.7775 0.1499 m
0.7781 0.1510 l
0.7786 0.1499 l
s
n
0.7795 0.1499 m
0.7800 0.1510 l
0.7804 0.1499 l
s
n
0.7815 0.1499 m
0.7819 0.1511 l
0.7825 0.1499 l
s
n
0.7831 0.1499 m
0.7837 0.1512 l
0.7844 0.1499 l
s
n
0.7854 0.1499 m
0.7856 0.1501 l
0.7866 0.1502 l
0.7869 0.1499 l
s
n
0.7878 0.1499 m
0.7884 0.1510 l
0.7888 0.1499 l
s
n
0.7899 0.1499 m
0.7903 0.1518 l
0.7908 0.1499 l
s
n
0.7917 0.1499 m
0.7922 0.1522 l
0.7928 0.1499 l
s
n
0.7937 0.1499 m
0.7941 0.1509 l
0.7950 0.1500 l
0.7959 0.1502 l
0.7969 0.1518 l
0.7974 0.1499 l
s
n
0.7984 0.1499 m
0.7987 0.1511 l
0.7991 0.1499 l
s
n
0.8002 0.1499 m
0.8006 0.1515 l
0.8011 0.1499 l
s
n
0.8021 0.1499 m
0.8025 0.1507 l
0.8032 0.1499 l
s
n
0.8039 0.1499 m
0.8044 0.1503 l
0.8053 0.1508 l
0.8057 0.1499 l
s
n
0.8066 0.1499 m
0.8072 0.1515 l
0.8076 0.1499 l
s
n
0.8087 0.1499 m
0.8091 0.1511 l
0.8096 0.1499 l
s
n
0.8106 0.1499 m
0.8109 0.1504 l
0.8119 0.1501 l
0.8128 0.1510 l
0.8137 0.1499 l
s
n
0.8142 0.1499 m
0.8147 0.1499 l
0.8150 0.1499 l
s
n
0.8167 0.1499 m
0.8175 0.1519 l
0.8180 0.1499 l
s
n
0.8189 0.1499 m
0.8194 0.1517 l
0.8199 0.1499 l
s
n
0.8208 0.1499 m
0.8212 0.1512 l
0.8222 0.1502 l
0.8228 0.1499 l
s
n
0.8237 0.1499 m
0.8241 0.1500 l
0.8241 0.1499 l
s
n
0.8254 0.1499 m
0.8259 0.1518 l
0.8264 0.1499 l
s
n
0.8273 0.1499 m
0.8278 0.1516 l
0.8282 0.1499 l
s
n
0.8293 0.1499 m
0.8297 0.1514 l
0.8306 0.1499 l
s
n
0.8310 0.1499 m
0.8316 0.1500 l
0.8317 0.1499 l
s
n
0.8332 0.1499 m
0.8334 0.1502 l
0.8344 0.1505 l
0.8347 0.1499 l
s
n
0.8357 0.1499 m
0.8362 0.1512 l
0.8367 0.1499 l
s
n
0.8375 0.1499 m
0.8381 0.1526 l
0.8388 0.1499 l
s
n
0.8396 0.1499 m
0.8400 0.1507 l
0.8409 0.1499 l
s
n
0.8421 0.1499 m
0.8428 0.1517 l
0.8433 0.1499 l
s
n
0.8442 0.1499 m
0.8447 0.1524 l
0.8452 0.1499 l
s
n
0.8461 0.1499 m
0.8466 0.1523 l
0.8471 0.1499 l
s
n
0.8483 0.1499 m
0.8484 0.1501 l
0.8494 0.1504 l
0.8497 0.1499 l
s
n
0.8509 0.1499 m
0.8512 0.1506 l
0.8518 0.1499 l
s
n
0.8527 0.1499 m
0.8531 0.1505 l
0.8536 0.1499 l
s
n
0.8543 0.1499 m
0.8550 0.1513 l
0.8556 0.1499 l
s
n
0.8564 0.1499 m
0.8569 0.1510 l
0.8572 0.1499 l
s
n
0.8585 0.1499 m
0.8587 0.1505 l
0.8597 0.1503 l
0.8602 0.1499 l
s
n
0.8610 0.1499 m
0.8616 0.1503 l
0.8622 0.1499 l
s
n
0.8627 0.1499 m
0.8634 0.1507 l
0.8639 0.1499 l
s
n
0.8647 0.1499 m
0.8653 0.1513 l
0.8658 0.1499 l
s
n
0.8668 0.1499 m
0.8672 0.1509 l
0.8675 0.1499 l
s
n
0.8686 0.1499 m
0.8691 0.1513 l
0.8700 0.1499 l
0.8702 0.1499 l
s
n
0.8710 0.1499 m
0.8719 0.1520 l
0.8724 0.1499 l
s
n
0.8733 0.1499 m
0.8737 0.1520 l
0.8744 0.1499 l
s
n
0.8753 0.1499 m
0.8756 0.1505 l
0.8763 0.1499 l
s
n
0.8784 0.1499 m
0.8784 0.1500 l
0.8785 0.1499 l
s
n
0.8814 0.1499 m
0.8822 0.1508 l
0.8826 0.1499 l
s
n
0.8836 0.1499 m
0.8841 0.1508 l
0.8844 0.1499 l
s
n
0.8855 0.1499 m
0.8859 0.1510 l
0.8866 0.1499 l
s
n
0.8872 0.1499 m
0.8878 0.1508 l
0.8883 0.1499 l
s
n
0.8904 0.1499 m
0.8906 0.1500 l
0.8907 0.1499 l
s
n
0.8919 0.1499 m
0.8925 0.1515 l
0.8931 0.1499 l
s
n
0.8937 0.1499 m
0.8944 0.1523 l
0.8950 0.1499 l
s
n
0.8960 0.1499 m
0.8962 0.1505 l
0.8967 0.1499 l
s
n
0.8978 0.1499 m
0.8981 0.1503 l
0.8991 0.1502 l
0.9000 0.1499 l
0.9009 0.1513 l
0.9016 0.1499 l
s
n
0.9024 0.1499 m
0.9028 0.1504 l
0.9036 0.1499 l
s
n
0.9039 0.1499 m
0.9047 0.1507 l
0.9054 0.1499 l
s
n
0.9077 0.1499 m
0.9084 0.1504 l
0.9094 0.1502 l
0.9103 0.1506 l
0.9112 0.1507 l
0.9117 0.1499 l
s
n
0.9128 0.1499 m
0.9131 0.1505 l
0.9137 0.1499 l
s
n
0.9154 0.1499 m
0.9159 0.1502 l
0.9169 0.1506 l
0.9174 0.1499 l
s
n
0.9181 0.1499 m
0.9187 0.1512 l
0.9194 0.1499 l
s
n
0.9211 0.1499 m
0.9216 0.1502 l
0.9218 0.1499 l
s
n
0.9230 0.1499 m
0.9234 0.1507 l
0.9244 0.1500 l
0.9253 0.1501 l
0.9262 0.1500 l
0.9264 0.1499 l
s
n
0.9278 0.1499 m
0.9281 0.1502 l
0.9291 0.1503 l
0.9293 0.1499 l
s
n
0.9311 0.1499 m
0.9319 0.1504 l
0.9328 0.1504 l
0.9332 0.1499 l
s
n
0.9342 0.1499 m
0.9347 0.1507 l
0.9355 0.1499 l
s
n
0.9357 0.1499 m
0.9366 0.1507 l
0.9375 0.1510 l
0.9379 0.1499 l
s
n
0.9388 0.1499 m
0.9394 0.1514 l
0.9399 0.1499 l
s
n
0.9410 0.1499 m
0.9412 0.1502 l
0.9422 0.1504 l
0.9425 0.1499 l
s
n
0.9439 0.1499 m
0.9441 0.1500 l
0.9450 0.1504 l
0.9459 0.1500 l
0.9469 0.1501 l
0.9478 0.1500 l
0.9480 0.1499 l
s
n
0.9493 0.1499 m
0.9497 0.1504 l
0.9506 0.1501 l
0.9516 0.1505 l
0.9520 0.1499 l
s
n
0.9530 0.1499 m
0.9534 0.1507 l
0.9542 0.1499 l
s
n
0.9548 0.1499 m
0.9553 0.1501 l
0.9562 0.1507 l
0.9572 0.1500 l
0.9581 0.1502 l
0.9585 0.1499 l
s
n
0.9596 0.1499 m
0.9600 0.1504 l
0.9609 0.1509 l
0.9616 0.1499 l
s
n
0.9621 0.1499 m
0.9628 0.1513 l
0.9635 0.1499 l
s
n
0.9647 0.1499 m
0.9656 0.1514 l
0.9660 0.1499 l
s
n
0.9672 0.1499 m
0.9675 0.1510 l
0.9683 0.1499 l
s
n
0.9695 0.1499 m
0.9703 0.1510 l
0.9707 0.1499 l
s
n
0.9719 0.1499 m
0.9722 0.1505 l
0.9728 0.1499 l
s
n
0.9735 0.1499 m
0.9741 0.1506 l
0.9745 0.1499 l
s
n
0.9756 0.1499 m
0.9759 0.1504 l
0.9769 0.1501 l
0.9778 0.1499 l
0.9787 0.1502 l
0.9791 0.1499 l
s
n
0.9800 0.1499 m
0.9806 0.1515 l
0.9813 0.1499 l
s
n
0.9823 0.1499 m
0.9825 0.1501 l
0.9828 0.1499 l
s
n
0.9846 0.1499 m
0.9853 0.1512 l
0.9858 0.1499 l
s
n
0.9868 0.1499 m
0.9872 0.1511 l
0.9877 0.1499 l
s
n
0.9886 0.1499 m
0.9891 0.1510 l
0.9896 0.1499 l
s
n
0.9906 0.1499 m
0.9909 0.1503 l
0.9916 0.1499 l
s
n
0.9930 0.1499 m
0.9937 0.1514 l
0.9944 0.1499 l
s
n
0.9952 0.1499 m
0.9956 0.1504 l
0.9963 0.1499 l
s
n
0.9967 0.1499 m
0.9975 0.1511 l
0.9981 0.1499 l
s
n
0.9990 0.1499 m
0.9994 0.1504 l
0.9997 0.1499 l
s
n
1.0015 0.1499 m
1.0022 0.1506 l
1.0028 0.1499 l
s
n
1.0047 0.1499 m
1.0050 0.1500 l
1.0059 0.1499 l
s
n
1.0059 0.1499 m
1.0069 0.1508 l
1.0078 0.1502 l
1.0080 0.1499 l
s
n
1.0090 0.1499 m
1.0097 0.1517 l
1.0103 0.1499 l
s
n
1.0112 0.1499 m
1.0116 0.1506 l
1.0119 0.1499 l
s
n
1.0135 0.1499 m
1.0144 0.1501 l
1.0145 0.1499 l
s
n
1.0160 0.1499 m
1.0162 0.1502 l
1.0172 0.1499 l
1.0181 0.1506 l
1.0187 0.1499 l
s
n
1.0194 0.1499 m
1.0200 0.1508 l
1.0206 0.1499 l
s
n
1.0219 0.1499 m
1.0228 0.1507 l
1.0235 0.1499 l
s
n
1.0250 0.1499 m
1.0256 0.1507 l
1.0260 0.1499 l
s
n
1.0271 0.1499 m
1.0275 0.1507 l
1.0283 0.1499 l
s
n
1.0296 0.1499 m
1.0303 0.1510 l
1.0308 0.1499 l
s
n
1.0317 0.1499 m
1.0322 0.1513 l
1.0327 0.1499 l
s
n
1.0339 0.1499 m
1.0341 0.1502 l
1.0350 0.1500 l
1.0359 0.1502 l
1.0369 0.1504 l
1.0371 0.1499 l
s
n
1.0383 0.1499 m
1.0387 0.1515 l
1.0393 0.1499 l
s
n
1.0402 0.1499 m
1.0406 0.1512 l
1.0413 0.1499 l
s
n
1.0419 0.1499 m
1.0425 0.1508 l
1.0434 0.1500 l
1.0444 0.1503 l
1.0447 0.1499 l
s
n
1.0460 0.1499 m
1.0462 0.1501 l
1.0472 0.1506 l
1.0481 0.1506 l
1.0491 0.1504 l
1.0494 0.1499 l
s
n
1.0502 0.1499 m
1.0509 0.1524 l
1.0516 0.1499 l
s
n
1.0524 0.1499 m
1.0528 0.1504 l
1.0536 0.1499 l
s
n
1.0539 0.1499 m
1.0547 0.1503 l
1.0556 0.1503 l
1.0566 0.1499 l
1.0566 0.1499 l
s
n
1.0588 0.1499 m
1.0594 0.1518 l
1.0599 0.1499 l
s
n
1.0607 0.1499 m
1.0612 0.1520 l
1.0618 0.1499 l
s
n
1.0628 0.1499 m
1.0631 0.1507 l
1.0641 0.1508 l
1.0647 0.1499 l
s
n
1.0653 0.1499 m
1.0659 0.1508 l
1.0666 0.1499 l
s
n
1.0672 0.1499 m
1.0678 0.1506 l
1.0687 0.1508 l
1.0693 0.1499 l
s
n
1.0708 0.1499 m
1.0716 0.1514 l
1.0722 0.1499 l
s
n
1.0729 0.1499 m
1.0734 0.1509 l
1.0739 0.1499 l
s
n
1.0750 0.1499 m
1.0753 0.1503 l
1.0762 0.1505 l
1.0769 0.1499 l
s
n
1.0775 0.1499 m
1.0781 0.1505 l
1.0784 0.1499 l
s
n
1.0795 0.1499 m
1.0800 0.1513 l
1.0808 0.1499 l
s
n
1.0812 0.1499 m
1.0819 0.1506 l
1.0828 0.1499 l
1.0832 0.1499 l
s
n
1.0838 0.1499 m
1.0847 0.1509 l
1.0853 0.1499 l
s
n
1.0860 0.1499 m
1.0866 0.1506 l
1.0872 0.1499 l
s
[/DeviceRGB] SCS
Color1 SC
n
0.1500 0.1500 m
1.1500 0.1500 l
s
n
0.1500 0.8500 m
1.1500 0.8500 l
s
[] 0 SD
0.0015 SLW
n
0.2125 0.1500 m
0.2125 0.1600 l
s
n
0.2125 0.8500 m
0.2125 0.8400 l
s
n
0.3375 0.1500 m
0.3375 0.1600 l
s
n
0.3375 0.8500 m
0.3375 0.8400 l
s
n
0.4625 0.1500 m
0.4625 0.1600 l
s
n
0.4625 0.8500 m
0.4625 0.8400 l
s
n
0.5875 0.1500 m
0.5875 0.1600 l
s
n
0.5875 0.8500 m
0.5875 0.8400 l
s
n
0.7125 0.1500 m
0.7125 0.1600 l
s
n
0.7125 0.8500 m
0.7125 0.8400 l
s
n
0.8375 0.1500 m
0.8375 0.1600 l
s
n
0.8375 0.8500 m
0.8375 0.8400 l
s
n
0.9625 0.1500 m
0.9625 0.1600 l
s
n
0.9625 0.8500 m
0.9625 0.8400 l
s
n
1.0875 0.1500 m
1.0875 0.1600 l
s
n
1.0875 0.8500 m
1.0875 0.8400 l
s
n
0.1500 0.1500 m
0.1500 0.1700 l
s
n
0.1500 0.8500 m
0.1500 0.8300 l
s
n
0.2750 0.1500 m
0.2750 0.1700 l
s
n
0.2750 0.8500 m
0.2750 0.8300 l
s
n
0.4000 0.1500 m
0.4000 0.1700 l
s
n
0.4000 0.8500 m
0.4000 0.8300 l
s
n
0.5250 0.1500 m
0.5250 0.1700 l
s
n
0.5250 0.8500 m
0.5250 0.8300 l
s
n
0.6500 0.1500 m
0.6500 0.1700 l
s
n
0.6500 0.8500 m
0.6500 0.8300 l
s
n
0.7750 0.1500 m
0.7750 0.1700 l
s
n
0.7750 0.8500 m
0.7750 0.8300 l
s
n
0.9000 0.1500 m
0.9000 0.1700 l
s
n
0.9000 0.8500 m
0.9000 0.8300 l
s
n
1.0250 0.1500 m
1.0250 0.1700 l
s
n
1.0250 0.8500 m
1.0250 0.8300 l
s
n
1.1500 0.1500 m
1.1500 0.1700 l
s
n
1.1500 0.8500 m
1.1500 0.8300 l
s
/Times-Roman findfont
dup length dict begin
 {1 index /FID ne {def} {pop pop} ifelse} forall
 /Encoding DefEncoding def
 currentdict
end
/Font60 exch definefont pop
/Font60 FFSF
0.1433 0.1212 m
GS
[0.0280 0.0000 0.0000 0.0280 0 0] CC
(0) show
GR
/Font60 FFSF
0.2589 0.1212 m
GS
[0.0280 0.0000 0.0000 0.0280 0 0] CC
(0.1) show
GR
/Font60 FFSF
0.3827 0.1212 m
GS
[0.0280 0.0000 0.0000 0.0280 0 0] CC
(0.2) show
GR
/Font60 FFSF
0.5083 0.1212 m
GS
[0.0280 0.0000 0.0000 0.0280 0 0] CC
(0.3) show
GR
/Font60 FFSF
0.6327 0.1212 m
GS
[0.0280 0.0000 0.0000 0.0280 0 0] CC
(0.4) show
GR
/Font60 FFSF
0.7583 0.1208 m
GS
[0.0280 0.0000 0.0000 0.0280 0 0] CC
(0.5) show
GR
/Font60 FFSF
0.8829 0.1208 m
GS
[0.0280 0.0000 0.0000 0.0280 0 0] CC
(0.6) show
GR
/Font60 FFSF
1.0081 0.1212 m
GS
[0.0280 0.0000 0.0000 0.0280 0 0] CC
(0.7) show
GR
/Font60 FFSF
1.1331 0.1212 m
GS
[0.0280 0.0000 0.0000 0.0280 0 0] CC
(0.8) show
GR
/Font60 FFSF
0.6167 0.0912 m
GS
[0.0280 0.0000 0.0000 0.0280 0 0] CC
(Strain) show
GR
[] 0 SD
0.0023 SLW
n
0.1500 0.1500 m
0.1500 0.8500 l
s
n
1.1500 0.1500 m
1.1500 0.8500 l
s
[] 0 SD
0.0015 SLW
n
0.1500 0.2000 m
0.1600 0.2000 l
s
n
1.1500 0.2000 m
1.1400 0.2000 l
s
n
0.1500 0.3000 m
0.1600 0.3000 l
s
n
1.1500 0.3000 m
1.1400 0.3000 l
s
n
0.1500 0.4000 m
0.1600 0.4000 l
s
n
1.1500 0.4000 m
1.1400 0.4000 l
s
n
0.1500 0.5000 m
0.1600 0.5000 l
s
n
1.1500 0.5000 m
1.1400 0.5000 l
s
n
0.1500 0.6000 m
0.1600 0.6000 l
s
n
1.1500 0.6000 m
1.1400 0.6000 l
s
n
0.1500 0.7000 m
0.1600 0.7000 l
s
n
1.1500 0.7000 m
1.1400 0.7000 l
s
n
0.1500 0.8000 m
0.1600 0.8000 l
s
n
1.1500 0.8000 m
1.1400 0.8000 l
s
n
0.1500 0.1500 m
0.1700 0.1500 l
s
n
1.1500 0.1500 m
1.1300 0.1500 l
s
n
0.1500 0.2500 m
0.1700 0.2500 l
s
n
1.1500 0.2500 m
1.1300 0.2500 l
s
n
0.1500 0.3500 m
0.1700 0.3500 l
s
n
1.1500 0.3500 m
1.1300 0.3500 l
s
n
0.1500 0.4500 m
0.1700 0.4500 l
s
n
1.1500 0.4500 m
1.1300 0.4500 l
s
n
0.1500 0.5500 m
0.1700 0.5500 l
s
n
1.1500 0.5500 m
1.1300 0.5500 l
s
n
0.1500 0.6500 m
0.1700 0.6500 l
s
n
1.1500 0.6500 m
1.1300 0.6500 l
s
n
0.1500 0.7500 m
0.1700 0.7500 l
s
n
1.1500 0.7500 m
1.1300 0.7500 l
s
n
0.1500 0.8500 m
0.1700 0.8500 l
s
n
1.1500 0.8500 m
1.1300 0.8500 l
s
/Font60 FFSF
0.1267 0.1408 m
GS
[0.0280 0.0000 0.0000 0.0280 0 0] CC
(0) show
GR
/Font60 FFSF
0.1125 0.2406 m
GS
[0.0280 0.0000 0.0000 0.0280 0 0] CC
(50) show
GR
/Font60 FFSF
0.0988 0.3408 m
GS
[0.0280 0.0000 0.0000 0.0280 0 0] CC
(100) show
GR
/Font60 FFSF
0.0988 0.4406 m
GS
[0.0280 0.0000 0.0000 0.0280 0 0] CC
(150) show
GR
/Font60 FFSF
0.0988 0.5408 m
GS
[0.0280 0.0000 0.0000 0.0280 0 0] CC
(200) show
GR
/Font60 FFSF
0.0988 0.6406 m
GS
[0.0280 0.0000 0.0000 0.0280 0 0] CC
(250) show
GR
/Font60 FFSF
0.0988 0.7408 m
GS
[0.0280 0.0000 0.0000 0.0280 0 0] CC
(300) show
GR
/Font60 FFSF
0.0988 0.8406 m
GS
[0.0280 0.0000 0.0000 0.0280 0 0] CC
(350) show
GR
/Font60 FFSF
0.0837 0.4339 m
GS
[0.0000 0.0280 -0.0280 0.0000 0 0] CC
(Stress\(GPa\)) show
GR
n
0.1500 0.1500 m
0.1500 0.8500 l
1.1500 0.8500 l
1.1500 0.1500 l
0.1500 0.1500 l
c
s
n
0.8500 0.8000 m
0.8500 0.7249 l
1.0386 0.7249 l
1.0386 0.8000 l
c
[/DeviceRGB] SCS
Color0 SC
fill
[/DeviceRGB] SCS
Color1 SC
n
0.8500 0.8000 m
0.8500 0.7249 l
1.0386 0.7249 l
1.0386 0.8000 l
0.8500 0.8000 l
c
s
/Font60 FFSF
0.9211 0.7708 m
GS
[0.0280 0.0000 0.0000 0.0280 0 0] CC
(Armchair) show
GR
[] 0 SD
0.0023 SLW
n
0.8611 0.7802 m
0.9011 0.7802 l
s
/Font60 FFSF
0.9211 0.7412 m
GS
[0.0280 0.0000 0.0000 0.0280 0 0] CC
(Zigzag) show
GR
[/DeviceRGB] SCS
Color2 SC
n
0.8611 0.7476 m
0.9011 0.7476 l
s
showpage
%%PageTrailer
%%Trailer
%%DocumentNeededResources: font Times-Roman
%%EOF
