%!PS-Adobe-3.0 EPSF-3.0
%%BoundingBox: (atend)
%%LanguageLevel: 2
%%Creator: Grace-5.1.25
%%CreationDate: Thu Jan  4 11:17:20 2024
%%DocumentData: Clean8Bit
%%Orientation: Portrait
%%Title: Untitled
%%For: amrita
%%DocumentNeededResources: (atend)
%%EndComments
%%BeginProlog
/m {moveto} def
/l {lineto} def
/s {stroke} def
/n {newpath} def
/c {closepath} def
/RL {rlineto} def
/SLW {setlinewidth} def
/GS {gsave} def
/GR {grestore} def
/SC {setcolor} def
/SGRY {setgray} def
/SRGB {setrgbcolor} def
/SD {setdash} def
/SLC {setlinecap} def
/SLJ {setlinejoin} def
/SCS {setcolorspace} def
/FFSF {findfont setfont} def
/CC {concat} def
/PXL {n m 0 0 RL s} def
/Color0 {1.0000 1.0000 1.0000} def
/Color1 {0.0000 0.0000 0.0000} def
/Color2 {1.0000 0.0000 0.0000} def
/Color3 {0.0000 1.0000 0.0000} def
/Color4 {0.0000 0.0000 1.0000} def
/Color5 {1.0000 1.0000 0.0000} def
/Color6 {0.7373 0.5608 0.5608} def
/Color7 {0.8627 0.8627 0.8627} def
/Color8 {0.5804 0.0000 0.8275} def
/Color9 {0.0000 1.0000 1.0000} def
/Color10 {1.0000 0.0000 1.0000} def
/Color11 {1.0000 0.6471 0.0000} def
/Color12 {0.4471 0.1294 0.7373} def
/Color13 {0.4039 0.0275 0.2824} def
/Color14 {0.2510 0.8784 0.8157} def
/Color15 {0.0000 0.5451 0.0000} def
/Color16 {0.7529 0.7529 0.7529} def
/Color17 {0.5059 0.5059 0.5059} def
/Color18 {0.2588 0.2588 0.2588} def
/PTRN {
 /pat_bits exch def 
 <<
  /PaintType 2
  /PatternType 1 /TilingType 1
  /BBox[0 0 16 16]
  /XStep 16 /YStep 16
  /PaintProc {
   pop
   16 16 true [-1 0 0 -1 16 16] pat_bits imagemask
  }
 >>
 [0.0016 0 0 0.0016 0 0]
 makepattern
} def
/Pattern0 {<0000000000000000000000000000000000000000000000000000000000000000> PTRN} bind def
/Pattern1 {<ffffffffffffffffffffffffffffffffffffffffffffffffffffffffffffffff> PTRN} bind def
/Pattern2 {<eeeeffffbbbbffffeeeeffffbbbbffffeeeeffffbbbbffffeeeeffffbbbbffff> PTRN} bind def
/Pattern3 {<eeeebbbbeeeebbbbeeeebbbbeeeebbbbeeeebbbbeeeebbbbeeeebbbbeeeebbbb> PTRN} bind def
/Pattern4 {<5555aaaa5555aaaa5555aaaa5555aaaa5555aaaa5555aaaa5555aaaa5555aaaa> PTRN} bind def
/Pattern5 {<1111444411114444111144441111444411114444111144441111444411114444> PTRN} bind def
/Pattern6 {<1111000044440000111100004444000011110000444400001111000044440000> PTRN} bind def
/Pattern7 {<1010000000000000010100000000000010100000000000000101000000000000> PTRN} bind def
/Pattern8 {<0000000000000000000000000000000000000000000000000000000000000000> PTRN} bind def
/Pattern9 {<1e1e0f0f8787c3c3e1e1f0f078783c3c1e1e0f0f8787c3c3e1e1f0f078783c3c> PTRN} bind def
/Pattern10 {<7878f0f0e1e1c3c387870f0f1e1e3c3c7878f0f0e1e1c3c387870f0f1e1e3c3c> PTRN} bind def
/Pattern11 {<3333333333333333333333333333333333333333333333333333333333333333> PTRN} bind def
/Pattern12 {<ffffffff00000000ffffffff00000000ffffffff00000000ffffffff00000000> PTRN} bind def
/Pattern13 {<8181424224241818181824244242818181814242242418181818242442428181> PTRN} bind def
/Pattern14 {<8080404020201010080804040202010180804040202010100808040402020101> PTRN} bind def
/Pattern15 {<0101020204040808101020204040808001010202040408081010202040408080> PTRN} bind def
/Pattern16 {<2222222222222222222222222222222222222222222222222222222222222222> PTRN} bind def
/Pattern17 {<0000ffff000000000000ffff000000000000ffff000000000000ffff00000000> PTRN} bind def
/Pattern18 {<2222ffff222222222222ffff222222222222ffff222222222222ffff22222222> PTRN} bind def
/Pattern19 {<ffffffff33333333ffffffff33333333ffffffff33333333ffffffff33333333> PTRN} bind def
/Pattern20 {<0f0f0f0f0f0f0f0ff0f0f0f0f0f0f0f00f0f0f0f0f0f0f0ff0f0f0f0f0f0f0f0> PTRN} bind def
/Pattern21 {<ff00ff00ff00ff00ff00ff00ff00ff0000ff00ff00ff00ff00ff00ff00ff00ff> PTRN} bind def
/Pattern22 {<8001800180018001800180018001ffffffff8001800180018001800180018001> PTRN} bind def
/Pattern23 {<c003c003c003c003c003c003ffffffffffffffffc003c003c003c003c003c003> PTRN} bind def
/Pattern24 {<040404040404ffff404040404040ffff040404040404ffff404040404040ffff> PTRN} bind def
/Pattern25 {<180018001800180018001800ffffffff001800180018001800180018ffffffff> PTRN} bind def
/Pattern26 {<1111b8b87c7c3a3a1111a3a3c7c78b8b1111b8b87c7c3a3a1111a3a3c7c78b8b> PTRN} bind def
/Pattern27 {<101010102828c7c70101010182827c7c101010102828c7c70101010182827c7c> PTRN} bind def
/Pattern28 {<1c1c121211112121c1c12121111112121c1c121211112121c1c1212111111212> PTRN} bind def
/Pattern29 {<3e3e414180808080e3e31414080808083e3e414180808080e3e3141408080808> PTRN} bind def
/Pattern30 {<4848888884848383848488884848383848488888848483838484888848483838> PTRN} bind def
/Pattern31 {<03030404080808080c0c12122121c0c003030404080808080c0c12122121c0c0> PTRN} bind def
/ellipsedict 8 dict def
ellipsedict /mtrx matrix put
/EARC {
 ellipsedict begin
  /endangle exch def
  /startangle exch def
  /yrad exch def
  /xrad exch def
  /y exch def
  /x exch def
  /savematrix mtrx currentmatrix def
  x y translate
  xrad yrad scale
  0 0 1 startangle endangle arc
  savematrix setmatrix
 end
} def
/TL {
  /kcomp exch def
  /linewidth exch def
  /offset exch def
  GS
  0 offset rmoveto
  linewidth SLW
  dup stringwidth exch kcomp add exch RL s
  GR
} def
/KINIT
{
 /kvector exch def
 /kid 0 def
} def
/KPROC
{
 pop pop
 kvector kid get
 0 rmoveto
 /kid 1 kid add def
} def
/DefEncoding [
 /.notdef
 /.notdef
 /.notdef
 /.notdef
 /.notdef
 /.notdef
 /.notdef
 /.notdef
 /.notdef
 /.notdef
 /.notdef
 /.notdef
 /.notdef
 /.notdef
 /.notdef
 /.notdef
 /.notdef
 /.notdef
 /.notdef
 /.notdef
 /.notdef
 /.notdef
 /.notdef
 /.notdef
 /.notdef
 /.notdef
 /.notdef
 /.notdef
 /.notdef
 /.notdef
 /.notdef
 /.notdef
 /space
 /exclam
 /quotedbl
 /numbersign
 /dollar
 /percent
 /ampersand
 /quoteright
 /parenleft
 /parenright
 /asterisk
 /plus
 /comma
 /hyphen
 /period
 /slash
 /zero
 /one
 /two
 /three
 /four
 /five
 /six
 /seven
 /eight
 /nine
 /colon
 /semicolon
 /less
 /equal
 /greater
 /question
 /at
 /A
 /B
 /C
 /D
 /E
 /F
 /G
 /H
 /I
 /J
 /K
 /L
 /M
 /N
 /O
 /P
 /Q
 /R
 /S
 /T
 /U
 /V
 /W
 /X
 /Y
 /Z
 /bracketleft
 /backslash
 /bracketright
 /asciicircum
 /underscore
 /grave
 /a
 /b
 /c
 /d
 /e
 /f
 /g
 /h
 /i
 /j
 /k
 /l
 /m
 /n
 /o
 /p
 /q
 /r
 /s
 /t
 /u
 /v
 /w
 /x
 /y
 /z
 /braceleft
 /bar
 /braceright
 /asciitilde
 /.notdef
 /.notdef
 /.notdef
 /.notdef
 /.notdef
 /.notdef
 /.notdef
 /.notdef
 /.notdef
 /.notdef
 /.notdef
 /.notdef
 /.notdef
 /.notdef
 /.notdef
 /.notdef
 /.notdef
 /.notdef
 /.notdef
 /.notdef
 /.notdef
 /.notdef
 /.notdef
 /.notdef
 /.notdef
 /.notdef
 /.notdef
 /.notdef
 /.notdef
 /.notdef
 /.notdef
 /.notdef
 /.notdef
 /space
 /exclamdown
 /cent
 /sterling
 /currency
 /yen
 /brokenbar
 /section
 /dieresis
 /copyright
 /ordfeminine
 /guillemotleft
 /logicalnot
 /hyphen
 /registered
 /macron
 /degree
 /plusminus
 /twosuperior
 /threesuperior
 /acute
 /mu
 /paragraph
 /periodcentered
 /cedilla
 /onesuperior
 /ordmasculine
 /guillemotright
 /onequarter
 /onehalf
 /threequarters
 /questiondown
 /Agrave
 /Aacute
 /Acircumflex
 /Atilde
 /Adieresis
 /Aring
 /AE
 /Ccedilla
 /Egrave
 /Eacute
 /Ecircumflex
 /Edieresis
 /Igrave
 /Iacute
 /Icircumflex
 /Idieresis
 /Eth
 /Ntilde
 /Ograve
 /Oacute
 /Ocircumflex
 /Otilde
 /Odieresis
 /multiply
 /Oslash
 /Ugrave
 /Uacute
 /Ucircumflex
 /Udieresis
 /Yacute
 /Thorn
 /germandbls
 /agrave
 /aacute
 /acircumflex
 /atilde
 /adieresis
 /aring
 /ae
 /ccedilla
 /egrave
 /eacute
 /ecircumflex
 /edieresis
 /igrave
 /iacute
 /icircumflex
 /idieresis
 /eth
 /ntilde
 /ograve
 /oacute
 /ocircumflex
 /otilde
 /odieresis
 /divide
 /oslash
 /ugrave
 /uacute
 /ucircumflex
 /udieresis
 /yacute
 /thorn
 /ydieresis
] def
%%EndProlog
%%BeginSetup
%%EndSetup
612.00 612.00 scale
n
0.0000 0.0000 m
0.0000 1.0000 l
1.2941 1.0000 l
1.2941 0.0000 l
c
[/DeviceRGB] SCS
Color0 SC
fill
[/DeviceRGB] SCS
Color1 SC
[] 0 SD
0.0023 SLW
0 SLC
0 SLJ
n
0.1519 0.1512 m
0.1528 0.1525 l
0.1537 0.1536 l
0.1547 0.1552 l
0.1556 0.1564 l
0.1566 0.1579 l
0.1575 0.1592 l
0.1584 0.1603 l
0.1594 0.1616 l
0.1603 0.1629 l
0.1613 0.1640 l
0.1622 0.1650 l
0.1631 0.1665 l
0.1641 0.1678 l
0.1650 0.1690 l
0.1659 0.1704 l
0.1669 0.1716 l
0.1678 0.1730 l
0.1688 0.1741 l
0.1697 0.1752 l
0.1706 0.1765 l
0.1716 0.1779 l
0.1725 0.1794 l
0.1734 0.1805 l
0.1744 0.1817 l
0.1753 0.1831 l
0.1763 0.1841 l
0.1772 0.1854 l
0.1781 0.1866 l
0.1791 0.1879 l
0.1800 0.1893 l
0.1809 0.1904 l
0.1819 0.1916 l
0.1828 0.1929 l
0.1837 0.1942 l
0.1847 0.1952 l
0.1856 0.1965 l
0.1866 0.1976 l
0.1875 0.1987 l
0.1884 0.2000 l
0.1894 0.2011 l
0.1903 0.2026 l
0.1912 0.2036 l
0.1922 0.2049 l
0.1931 0.2061 l
0.1941 0.2073 l
0.1950 0.2082 l
0.1959 0.2096 l
0.1969 0.2105 l
0.1978 0.2119 l
0.1987 0.2129 l
0.1997 0.2141 l
0.2006 0.2152 l
0.2016 0.2162 l
0.2025 0.2176 l
0.2034 0.2184 l
0.2044 0.2197 l
0.2053 0.2207 l
0.2062 0.2219 l
0.2072 0.2228 l
0.2081 0.2240 l
0.2091 0.2250 l
0.2100 0.2259 l
0.2109 0.2273 l
0.2119 0.2282 l
0.2128 0.2295 l
0.2137 0.2303 l
0.2147 0.2316 l
0.2156 0.2325 l
0.2166 0.2336 l
0.2175 0.2347 l
0.2184 0.2356 l
0.2194 0.2367 l
0.2203 0.2378 l
0.2212 0.2386 l
0.2222 0.2396 l
0.2231 0.2402 l
0.2241 0.2416 l
0.2250 0.2426 l
0.2259 0.2435 l
0.2269 0.2444 l
0.2278 0.2454 l
0.2287 0.2462 l
0.2297 0.2474 l
0.2306 0.2482 l
0.2316 0.2492 l
0.2325 0.2498 l
0.2334 0.2510 l
0.2344 0.2517 l
0.2353 0.2529 l
0.2362 0.2537 l
0.2372 0.2545 l
0.2381 0.2554 l
0.2391 0.2562 l
0.2400 0.2571 l
0.2409 0.2581 l
0.2419 0.2589 l
0.2428 0.2599 l
0.2437 0.2604 l
0.2447 0.2613 l
0.2456 0.2619 l
0.2466 0.2630 l
0.2475 0.2639 l
0.2484 0.2646 l
0.2494 0.2657 l
0.2503 0.2664 l
0.2512 0.2669 l
0.2522 0.2678 l
0.2531 0.2686 l
0.2541 0.2694 l
0.2550 0.2702 l
0.2559 0.2709 l
0.2569 0.2716 l
0.2578 0.2724 l
0.2587 0.2731 l
0.2597 0.2739 l
0.2606 0.2747 l
0.2616 0.2753 l
0.2625 0.2761 l
0.2634 0.2769 l
0.2644 0.2775 l
0.2653 0.2783 l
0.2662 0.2789 l
0.2672 0.2794 l
0.2681 0.2803 l
0.2691 0.2809 l
0.2700 0.2815 l
0.2709 0.2820 l
0.2719 0.2827 l
0.2728 0.2833 l
0.2737 0.2838 l
0.2747 0.2845 l
0.2756 0.2852 l
0.2766 0.2858 l
0.2775 0.2863 l
0.2784 0.2871 l
0.2794 0.2873 l
0.2803 0.2882 l
0.2812 0.2885 l
0.2822 0.2893 l
0.2831 0.2897 l
0.2841 0.2904 l
0.2850 0.2909 l
0.2859 0.2915 l
0.2869 0.2922 l
0.2878 0.2925 l
0.2887 0.2931 l
0.2897 0.2938 l
0.2906 0.2939 l
0.2916 0.2945 l
0.2925 0.2953 l
0.2934 0.2954 l
0.2944 0.2960 l
0.2953 0.2965 l
0.2962 0.2969 l
0.2972 0.2978 l
0.2981 0.2983 l
0.2991 0.2986 l
0.3000 0.2990 l
0.3009 0.2993 l
0.3019 0.3001 l
0.3028 0.3005 l
0.3037 0.3006 l
0.3047 0.3014 l
0.3056 0.3020 l
0.3066 0.3021 l
0.3075 0.3025 l
0.3084 0.3030 l
0.3094 0.3034 l
0.3103 0.3039 l
0.3112 0.3045 l
0.3122 0.3047 l
0.3131 0.3052 l
0.3141 0.3056 l
0.3150 0.3060 l
0.3159 0.3064 l
0.3169 0.3067 l
0.3178 0.3072 l
0.3187 0.3077 l
0.3197 0.3080 l
0.3206 0.3086 l
0.3216 0.3088 l
0.3225 0.3095 l
0.3234 0.3094 l
0.3244 0.3098 l
0.3253 0.3105 l
0.3262 0.3109 l
0.3272 0.3113 l
0.3281 0.3115 l
0.3291 0.3122 l
0.3300 0.3125 l
0.3309 0.3129 l
0.3319 0.3134 l
0.3328 0.3137 l
0.3337 0.3141 l
0.3347 0.3145 l
0.3356 0.3147 l
0.3366 0.3154 l
0.3375 0.3157 l
0.3384 0.3161 l
0.3394 0.3165 l
0.3403 0.3172 l
0.3412 0.3174 l
0.3422 0.3176 l
0.3431 0.3178 l
0.3441 0.3186 l
0.3450 0.3192 l
0.3459 0.3196 l
0.3469 0.3199 l
0.3478 0.3201 l
0.3487 0.3205 l
0.3497 0.3211 l
0.3506 0.3214 l
0.3516 0.3216 l
0.3525 0.3227 l
0.3534 0.3229 l
0.3544 0.3234 l
0.3553 0.3238 l
0.3562 0.3243 l
0.3572 0.3247 l
0.3581 0.3256 l
0.3591 0.3258 l
0.3600 0.3262 l
0.3609 0.3270 l
0.3619 0.3275 l
0.3628 0.3277 l
0.3637 0.3281 l
0.3647 0.3292 l
0.3656 0.3296 l
0.3666 0.3294 l
0.3675 0.3300 l
0.3684 0.3310 l
0.3694 0.3318 l
0.3703 0.3318 l
0.3712 0.3330 l
0.3722 0.3330 l
0.3731 0.3343 l
0.3741 0.3344 l
0.3750 0.3354 l
0.3759 0.3357 l
0.3769 0.3367 l
0.3778 0.3365 l
0.3787 0.3377 l
0.3797 0.3380 l
0.3806 0.3391 l
0.3816 0.3393 l
0.3825 0.3400 l
0.3834 0.3408 l
0.3844 0.3412 l
0.3853 0.3422 l
0.3862 0.3434 l
0.3872 0.3431 l
0.3881 0.3448 l
0.3891 0.3445 l
0.3900 0.3463 l
0.3909 0.3469 l
0.3919 0.3481 l
0.3928 0.3490 l
0.3937 0.3499 l
0.3947 0.3511 l
0.3956 0.3514 l
0.3966 0.3519 l
0.3975 0.3527 l
0.3984 0.3542 l
0.3994 0.3549 l
0.4003 0.3554 l
0.4012 0.3565 l
0.4022 0.3575 l
0.4031 0.3586 l
0.4041 0.3593 l
0.4050 0.3593 l
0.4059 0.3610 l
0.4069 0.3619 l
0.4078 0.3631 l
0.4087 0.3637 l
0.4097 0.3644 l
0.4106 0.3654 l
0.4116 0.3667 l
0.4125 0.3673 l
0.4134 0.3688 l
0.4144 0.3697 l
0.4153 0.3702 l
0.4162 0.3712 l
0.4172 0.3721 l
0.4181 0.3733 l
0.4191 0.3739 l
0.4200 0.3750 l
0.4209 0.3757 l
0.4219 0.3774 l
0.4228 0.3780 l
0.4237 0.3786 l
0.4247 0.3794 l
0.4256 0.3795 l
0.4266 0.3809 l
0.4275 0.3817 l
0.4284 0.3826 l
0.4294 0.3837 l
0.4303 0.3847 l
0.4312 0.3855 l
0.4322 0.3867 l
0.4331 0.3865 l
0.4341 0.3873 l
0.4350 0.3886 l
0.4359 0.3894 l
0.4369 0.3897 l
0.4378 0.3913 l
0.4387 0.3915 l
0.4397 0.3925 l
0.4406 0.3930 l
0.4416 0.3936 l
0.4425 0.3934 l
0.4434 0.3897 l
0.4444 0.3938 l
0.4453 0.3927 l
0.4462 0.3925 l
0.4472 0.3962 l
0.4481 0.3917 l
0.4491 0.3920 l
0.4500 0.3943 l
0.4509 0.3923 l
0.4519 0.3917 l
0.4528 0.3853 l
0.4537 0.3775 l
0.4547 0.3642 l
0.4556 0.3636 l
0.4566 0.3614 l
0.4575 0.3628 l
0.4584 0.3640 l
0.4594 0.3627 l
0.4603 0.3611 l
0.4612 0.3619 l
0.4622 0.3641 l
0.4631 0.3637 l
0.4641 0.3611 l
0.4650 0.3626 l
0.4659 0.3642 l
0.4669 0.3626 l
0.4678 0.3628 l
0.4687 0.3616 l
0.4697 0.3614 l
0.4706 0.3629 l
0.4716 0.3618 l
0.4725 0.3641 l
0.4734 0.3637 l
0.4744 0.3609 l
0.4753 0.3623 l
0.4762 0.3632 l
0.4772 0.3612 l
0.4781 0.3625 l
0.4791 0.3642 l
0.4800 0.3632 l
0.4809 0.3619 l
0.4819 0.3626 l
0.4828 0.3637 l
0.4837 0.3626 l
0.4847 0.3639 l
0.4856 0.3629 l
0.4866 0.3645 l
0.4875 0.3624 l
0.4884 0.3652 l
0.4894 0.3648 l
0.4903 0.3613 l
0.4912 0.3627 l
0.4922 0.3639 l
0.4931 0.3633 l
0.4941 0.3616 l
0.4950 0.3627 l
0.4959 0.3635 l
0.4969 0.3616 l
0.4978 0.3633 l
0.4987 0.3635 l
0.4997 0.3622 l
0.5006 0.3608 l
0.5016 0.3622 l
0.5025 0.3640 l
0.5034 0.3642 l
0.5044 0.3622 l
0.5053 0.3632 l
0.5062 0.3625 l
0.5072 0.3643 l
0.5081 0.3647 l
0.5091 0.3648 l
0.5100 0.3634 l
0.5109 0.3631 l
0.5119 0.3641 l
0.5128 0.3629 l
0.5137 0.3653 l
0.5147 0.3628 l
0.5156 0.3652 l
0.5166 0.3647 l
0.5175 0.3631 l
0.5184 0.3629 l
0.5194 0.3636 l
0.5203 0.3641 l
0.5212 0.3644 l
0.5222 0.3643 l
0.5231 0.3648 l
0.5241 0.3633 l
0.5250 0.3642 l
0.5259 0.3647 l
0.5269 0.3643 l
0.5278 0.3643 l
0.5287 0.3659 l
0.5297 0.3641 l
0.5306 0.3651 l
0.5316 0.3646 l
0.5325 0.3644 l
0.5334 0.3641 l
0.5344 0.3631 l
0.5353 0.3652 l
0.5362 0.3634 l
0.5372 0.3641 l
0.5381 0.3650 l
0.5391 0.3647 l
0.5400 0.3642 l
0.5409 0.3644 l
0.5419 0.3644 l
0.5428 0.3655 l
0.5437 0.3652 l
0.5447 0.3657 l
0.5456 0.3641 l
0.5466 0.3649 l
0.5475 0.3654 l
0.5484 0.3658 l
0.5494 0.3646 l
0.5503 0.3656 l
0.5512 0.3657 l
0.5522 0.3656 l
0.5531 0.3671 l
0.5541 0.3649 l
0.5550 0.3658 l
0.5559 0.3673 l
0.5569 0.3668 l
0.5578 0.3650 l
0.5587 0.3637 l
0.5597 0.3657 l
0.5606 0.3667 l
0.5616 0.3663 l
0.5625 0.3676 l
0.5634 0.3656 l
0.5644 0.3682 l
0.5653 0.3675 l
0.5662 0.3670 l
0.5672 0.3654 l
0.5681 0.3650 l
0.5691 0.3658 l
0.5700 0.3669 l
0.5709 0.3663 l
0.5719 0.3670 l
0.5728 0.3672 l
0.5737 0.3673 l
0.5747 0.3674 l
0.5756 0.3675 l
0.5766 0.3690 l
0.5775 0.3692 l
0.5784 0.3693 l
0.5794 0.3696 l
0.5803 0.3693 l
0.5812 0.3651 l
0.5822 0.3665 l
0.5831 0.3651 l
0.5841 0.3590 l
0.5850 0.3600 l
0.5859 0.3614 l
0.5869 0.3612 l
0.5878 0.3624 l
0.5887 0.3629 l
0.5897 0.3637 l
0.5906 0.3644 l
0.5916 0.3646 l
0.5925 0.3662 l
0.5934 0.3663 l
0.5944 0.3671 l
0.5953 0.3679 l
0.5962 0.3689 l
0.5972 0.3692 l
0.5981 0.3695 l
0.5991 0.3703 l
0.6000 0.3704 l
0.6009 0.3710 l
0.6019 0.3714 l
0.6028 0.3721 l
0.6037 0.3732 l
0.6047 0.3734 l
0.6056 0.3739 l
0.6066 0.3745 l
0.6075 0.3747 l
0.6084 0.3759 l
0.6094 0.3760 l
0.6103 0.3767 l
0.6112 0.3773 l
0.6122 0.3775 l
0.6131 0.3786 l
0.6141 0.3787 l
0.6150 0.3787 l
0.6159 0.3792 l
0.6169 0.3791 l
0.6178 0.3802 l
0.6187 0.3801 l
0.6197 0.3803 l
0.6206 0.3814 l
0.6216 0.3816 l
0.6225 0.3819 l
0.6234 0.3819 l
0.6244 0.3824 l
0.6253 0.3825 l
0.6262 0.3829 l
0.6272 0.3842 l
0.6281 0.3837 l
0.6291 0.3842 l
0.6300 0.3846 l
0.6309 0.3853 l
0.6319 0.3849 l
0.6328 0.3858 l
0.6337 0.3856 l
0.6347 0.3860 l
0.6356 0.3860 l
0.6366 0.3865 l
0.6375 0.3868 l
0.6384 0.3869 l
0.6394 0.3870 l
0.6403 0.3872 l
0.6412 0.3875 l
0.6422 0.3884 l
0.6431 0.3882 l
0.6441 0.3886 l
0.6450 0.3889 l
0.6459 0.3894 l
0.6469 0.3896 l
0.6478 0.3897 l
0.6487 0.3899 l
0.6497 0.3898 l
0.6506 0.3908 l
0.6516 0.3911 l
0.6525 0.3909 l
0.6534 0.3913 l
0.6544 0.3918 l
0.6553 0.3920 l
0.6562 0.3926 l
0.6572 0.3922 l
0.6581 0.3930 l
0.6591 0.3932 l
0.6600 0.3935 l
0.6609 0.3937 l
0.6619 0.3937 l
0.6628 0.3941 l
0.6637 0.3945 l
0.6647 0.3942 l
0.6656 0.3949 l
0.6666 0.3947 l
0.6675 0.3953 l
0.6684 0.3962 l
0.6694 0.3965 l
0.6703 0.3962 l
0.6712 0.3961 l
0.6722 0.3969 l
0.6731 0.3974 l
0.6741 0.3972 l
0.6750 0.3976 l
0.6759 0.3981 l
0.6769 0.3981 l
0.6778 0.3983 l
0.6787 0.3986 l
0.6797 0.4001 l
0.6806 0.4004 l
0.6816 0.3998 l
0.6825 0.4002 l
0.6834 0.4002 l
0.6844 0.4013 l
0.6853 0.4007 l
0.6862 0.4017 l
0.6872 0.4024 l
0.6881 0.4019 l
0.6891 0.4019 l
0.6900 0.4026 l
0.6909 0.4022 l
0.6919 0.4038 l
0.6928 0.4039 l
0.6937 0.4040 l
0.6947 0.4041 l
0.6956 0.4056 l
0.6966 0.4060 l
0.6975 0.4058 l
0.6984 0.4061 l
0.6994 0.4076 l
0.7003 0.4085 l
0.7012 0.4100 l
0.7022 0.4090 l
0.7031 0.4093 l
0.7041 0.4099 l
0.7050 0.4105 l
0.7059 0.4121 l
0.7069 0.4138 l
0.7078 0.4134 l
0.7087 0.4124 l
0.7097 0.4148 l
0.7106 0.4147 l
0.7116 0.4169 l
0.7125 0.4187 l
0.7134 0.4189 l
0.7144 0.4226 l
0.7153 0.4205 l
0.7162 0.4226 l
0.7172 0.4259 l
0.7181 0.4257 l
0.7191 0.4276 l
0.7200 0.4289 l
0.7209 0.4282 l
0.7219 0.4331 l
0.7228 0.4346 l
0.7237 0.4362 l
0.7247 0.4386 l
0.7256 0.4391 l
0.7266 0.4432 l
0.7275 0.4458 l
0.7284 0.4475 l
0.7294 0.4529 l
0.7303 0.4540 l
0.7312 0.4573 l
0.7322 0.4604 l
0.7331 0.4645 l
0.7341 0.4675 l
0.7350 0.4712 l
0.7359 0.4768 l
0.7369 0.4807 l
0.7378 0.4858 l
0.7387 0.4895 l
0.7397 0.4944 l
0.7406 0.5002 l
0.7416 0.5039 l
0.7425 0.5109 l
0.7434 0.5141 l
0.7444 0.5196 l
0.7453 0.5261 l
0.7462 0.5311 l
0.7472 0.5372 l
0.7481 0.5430 l
0.7491 0.5479 l
0.7500 0.5527 l
0.7509 0.5590 l
0.7519 0.5641 l
0.7528 0.5701 l
0.7537 0.5752 l
0.7547 0.5816 l
0.7556 0.5874 l
0.7566 0.5933 l
0.7575 0.5978 l
0.7584 0.6032 l
0.7594 0.6077 l
0.7603 0.6146 l
0.7612 0.6197 l
0.7622 0.6254 l
0.7631 0.6288 l
0.7641 0.6356 l
0.7650 0.6405 l
0.7659 0.6466 l
0.7669 0.6501 l
0.7678 0.6549 l
0.7687 0.6597 l
0.7697 0.6653 l
0.7706 0.6700 l
0.7716 0.6746 l
0.7725 0.3064 l
0.7734 0.2828 l
0.7744 0.2825 l
0.7753 0.2815 l
0.7762 0.2815 l
0.7772 0.2821 l
0.7781 0.2813 l
0.7791 0.2817 l
0.7800 0.2840 l
0.7809 0.2836 l
0.7819 0.2835 l
0.7828 0.2836 l
0.7837 0.2832 l
0.7847 0.2838 l
0.7856 0.2854 l
0.7866 0.2845 l
0.7875 0.2854 l
0.7884 0.2866 l
0.7894 0.2857 l
0.7903 0.2860 l
0.7912 0.2861 l
0.7922 0.2862 l
0.7931 0.2882 l
0.7941 0.2880 l
0.7950 0.2885 l
0.7959 0.2881 l
0.7969 0.2874 l
0.7978 0.2884 l
0.7987 0.2893 l
0.7997 0.2890 l
0.8006 0.2900 l
0.8016 0.2911 l
0.8025 0.2909 l
0.8034 0.2915 l
0.8044 0.2921 l
0.8053 0.2918 l
0.8062 0.2926 l
0.8072 0.2931 l
0.8081 0.2930 l
0.8091 0.2940 l
0.8100 0.2925 l
0.8109 0.2945 l
0.8119 0.2946 l
0.8128 0.2951 l
0.8137 0.2956 l
0.8147 0.2957 l
0.8156 0.2962 l
0.8166 0.2963 l
0.8175 0.2945 l
0.8184 0.2954 l
0.8194 0.2958 l
0.8203 0.2959 l
0.8212 0.2964 l
0.8222 0.2969 l
0.8231 0.2972 l
0.8241 0.2976 l
0.8250 0.2972 l
0.8259 0.2988 l
0.8269 0.2979 l
0.8278 0.2988 l
0.8287 0.2994 l
0.8297 0.2989 l
0.8306 0.2995 l
0.8316 0.2997 l
0.8325 0.3000 l
0.8334 0.3014 l
0.8344 0.3016 l
0.8353 0.3023 l
0.8362 0.3022 l
0.8372 0.3015 l
0.8381 0.3034 l
0.8391 0.3036 l
0.8400 0.3031 l
0.8409 0.3035 l
0.8419 0.3048 l
0.8428 0.3049 l
0.8437 0.3042 l
0.8447 0.3051 l
0.8456 0.3027 l
0.8466 0.3020 l
0.8475 0.3021 l
0.8484 0.3011 l
0.8494 0.3024 l
0.8503 0.3030 l
0.8512 0.3019 l
0.8522 0.3032 l
0.8531 0.3030 l
0.8541 0.3027 l
0.8550 0.3047 l
0.8559 0.3047 l
0.8569 0.3043 l
0.8578 0.3044 l
0.8587 0.2701 l
0.8597 0.2718 l
0.8606 0.2736 l
0.8616 0.2727 l
0.8625 0.2713 l
0.8634 0.2708 l
0.8644 0.2728 l
0.8653 0.2734 l
0.8662 0.2738 l
0.8672 0.2738 l
0.8681 0.2746 l
0.8691 0.2746 l
0.8700 0.2746 l
0.8709 0.2744 l
0.8719 0.2757 l
0.8728 0.2761 l
0.8737 0.2762 l
0.8747 0.2767 l
0.8756 0.2763 l
0.8766 0.2768 l
0.8775 0.2767 l
0.8784 0.2781 l
0.8794 0.2782 l
0.8803 0.2786 l
0.8812 0.2799 l
0.8822 0.2803 l
0.8831 0.2793 l
0.8841 0.2795 l
0.8850 0.2805 l
0.8859 0.2813 l
0.8869 0.2813 l
0.8878 0.2818 l
0.8887 0.2820 l
0.8897 0.2829 l
0.8906 0.2830 l
0.8916 0.2828 l
0.8925 0.2825 l
0.8934 0.2836 l
0.8944 0.2764 l
0.8953 0.2759 l
0.8962 0.2758 l
0.8972 0.2665 l
0.8981 0.2662 l
0.8991 0.2666 l
0.9000 0.2669 l
0.9009 0.2683 l
0.9019 0.2679 l
0.9028 0.2687 l
0.9037 0.2696 l
0.9047 0.2692 l
0.9056 0.2693 l
0.9066 0.2697 l
0.9075 0.2697 l
0.9084 0.2707 l
0.9094 0.2711 l
0.9103 0.2705 l
0.9112 0.2714 l
0.9122 0.2716 l
0.9131 0.2724 l
0.9141 0.2725 l
0.9150 0.2730 l
0.9159 0.2725 l
0.9169 0.2740 l
0.9178 0.2743 l
0.9187 0.2740 l
0.9197 0.2748 l
0.9206 0.2757 l
0.9216 0.2754 l
0.9225 0.2770 l
0.9234 0.2753 l
0.9244 0.2765 l
0.9253 0.2767 l
0.9262 0.2772 l
0.9272 0.2777 l
0.9281 0.2782 l
0.9291 0.2788 l
0.9300 0.2784 l
0.9309 0.2796 l
0.9319 0.2796 l
0.9328 0.2801 l
0.9337 0.2803 l
0.9347 0.2801 l
0.9356 0.2813 l
0.9366 0.2811 l
0.9375 0.2814 l
0.9384 0.2818 l
0.9394 0.2830 l
0.9403 0.2824 l
0.9412 0.2836 l
0.9422 0.2830 l
0.9431 0.2838 l
0.9441 0.2846 l
0.9450 0.2852 l
0.9459 0.2855 l
0.9469 0.2853 l
0.9478 0.2865 l
0.9487 0.2853 l
0.9497 0.2862 l
0.9506 0.2871 l
0.9516 0.2871 l
0.9525 0.2871 l
0.9534 0.2886 l
0.9544 0.2881 l
0.9553 0.2881 l
0.9562 0.2869 l
0.9572 0.2876 l
0.9581 0.2886 l
0.9591 0.2873 l
0.9600 0.2890 l
0.9609 0.2884 l
0.9619 0.2894 l
0.9628 0.2889 l
0.9637 0.2890 l
0.9647 0.2900 l
0.9656 0.2904 l
0.9666 0.2902 l
0.9675 0.2910 l
0.9684 0.2908 l
0.9694 0.2923 l
0.9703 0.2912 l
0.9712 0.2905 l
0.9722 0.2911 l
0.9731 0.2911 l
0.9741 0.2917 l
0.9750 0.2918 l
0.9759 0.2916 l
0.9769 0.2915 l
0.9778 0.2920 l
0.9787 0.2928 l
0.9797 0.2932 l
0.9806 0.2930 l
0.9816 0.2944 l
0.9825 0.2946 l
0.9834 0.2944 l
0.9844 0.2938 l
0.9853 0.2901 l
0.9862 0.2893 l
0.9872 0.2892 l
0.9881 0.2883 l
0.9891 0.2873 l
0.9900 0.2873 l
0.9909 0.2870 l
0.9919 0.2851 l
0.9928 0.2860 l
0.9937 0.2870 l
0.9947 0.2860 l
0.9956 0.2880 l
0.9966 0.2879 l
0.9975 0.2875 l
0.9984 0.2883 l
0.9994 0.2889 l
1.0003 0.2893 l
1.0012 0.2905 l
1.0022 0.2899 l
1.0031 0.2887 l
1.0041 0.2887 l
1.0050 0.2894 l
1.0059 0.2899 l
1.0069 0.2906 l
1.0078 0.2901 l
1.0087 0.2917 l
1.0097 0.2920 l
1.0106 0.2912 l
1.0116 0.2915 l
1.0125 0.2925 l
1.0134 0.2870 l
1.0144 0.2877 l
1.0153 0.2876 l
1.0162 0.2884 l
1.0172 0.2886 l
1.0181 0.2888 l
1.0191 0.2896 l
1.0200 0.2892 l
1.0209 0.2898 l
1.0219 0.2898 l
1.0228 0.2875 l
1.0237 0.2890 l
1.0247 0.2892 l
1.0256 0.2883 l
1.0266 0.2902 l
1.0275 0.2904 l
1.0284 0.2915 l
1.0294 0.2914 l
1.0303 0.2912 l
1.0312 0.2925 l
1.0322 0.2927 l
1.0331 0.2921 l
1.0341 0.2934 l
1.0350 0.2934 l
1.0359 0.2938 l
1.0369 0.2935 l
1.0378 0.2950 l
1.0387 0.2963 l
1.0397 0.2951 l
1.0406 0.2956 l
1.0416 0.2959 l
1.0425 0.2952 l
1.0434 0.2963 l
1.0444 0.2978 l
1.0453 0.2966 l
1.0462 0.2970 l
1.0472 0.2981 l
1.0481 0.2972 l
1.0491 0.2953 l
1.0500 0.2539 l
1.0509 0.2110 l
1.0519 0.2027 l
1.0528 0.2025 l
1.0537 0.2038 l
1.0547 0.2012 l
1.0556 0.2023 l
1.0566 0.2012 l
1.0575 0.2016 l
1.0584 0.2026 l
1.0594 0.2016 l
1.0603 0.2036 l
1.0612 0.2043 l
1.0622 0.2041 l
1.0631 0.2054 l
1.0641 0.2057 l
1.0650 0.2058 l
1.0659 0.2051 l
1.0669 0.2047 l
1.0678 0.2059 l
1.0687 0.2052 l
1.0697 0.2052 l
1.0706 0.2052 l
1.0716 0.2056 l
1.0725 0.2055 l
1.0734 0.2059 l
1.0744 0.2068 l
1.0753 0.2058 l
1.0762 0.2066 l
1.0772 0.2075 l
1.0781 0.2075 l
1.0791 0.2082 l
1.0800 0.2073 l
1.0809 0.2074 l
1.0819 0.2073 l
1.0828 0.2094 l
1.0837 0.2083 l
1.0847 0.2101 l
1.0856 0.2093 l
1.0866 0.2087 l
1.0875 0.2084 l
1.0881 0.2093 l
s
[/DeviceRGB] SCS
Color2 SC
n
0.1506 0.1520 m
0.1509 0.1525 l
0.1519 0.1539 l
0.1528 0.1551 l
0.1537 0.1558 l
0.1547 0.1573 l
0.1556 0.1588 l
0.1566 0.1601 l
0.1575 0.1613 l
0.1584 0.1627 l
0.1594 0.1638 l
0.1603 0.1651 l
0.1613 0.1665 l
0.1622 0.1673 l
0.1631 0.1689 l
0.1641 0.1703 l
0.1650 0.1713 l
0.1659 0.1727 l
0.1669 0.1743 l
0.1678 0.1751 l
0.1688 0.1768 l
0.1697 0.1775 l
0.1706 0.1790 l
0.1716 0.1802 l
0.1725 0.1815 l
0.1734 0.1826 l
0.1744 0.1840 l
0.1753 0.1852 l
0.1763 0.1863 l
0.1772 0.1875 l
0.1781 0.1885 l
0.1791 0.1900 l
0.1800 0.1914 l
0.1809 0.1927 l
0.1819 0.1937 l
0.1828 0.1947 l
0.1837 0.1960 l
0.1847 0.1971 l
0.1856 0.1987 l
0.1866 0.1997 l
0.1875 0.2008 l
0.1884 0.2022 l
0.1894 0.2031 l
0.1903 0.2045 l
0.1912 0.2057 l
0.1922 0.2067 l
0.1931 0.2079 l
0.1941 0.2092 l
0.1950 0.2101 l
0.1959 0.2115 l
0.1969 0.2125 l
0.1978 0.2135 l
0.1987 0.2147 l
0.1997 0.2158 l
0.2006 0.2169 l
0.2016 0.2180 l
0.2025 0.2192 l
0.2034 0.2201 l
0.2044 0.2213 l
0.2053 0.2223 l
0.2062 0.2236 l
0.2072 0.2247 l
0.2081 0.2256 l
0.2091 0.2268 l
0.2100 0.2276 l
0.2109 0.2288 l
0.2119 0.2300 l
0.2128 0.2309 l
0.2137 0.2320 l
0.2147 0.2331 l
0.2156 0.2337 l
0.2166 0.2347 l
0.2175 0.2359 l
0.2184 0.2371 l
0.2194 0.2383 l
0.2203 0.2391 l
0.2212 0.2398 l
0.2222 0.2411 l
0.2231 0.2420 l
0.2241 0.2430 l
0.2250 0.2438 l
0.2259 0.2448 l
0.2269 0.2459 l
0.2278 0.2470 l
0.2287 0.2476 l
0.2297 0.2484 l
0.2306 0.2496 l
0.2316 0.2502 l
0.2325 0.2510 l
0.2334 0.2522 l
0.2344 0.2527 l
0.2353 0.2539 l
0.2362 0.2548 l
0.2372 0.2559 l
0.2381 0.2565 l
0.2391 0.2575 l
0.2400 0.2584 l
0.2409 0.2590 l
0.2419 0.2601 l
0.2428 0.2608 l
0.2437 0.2617 l
0.2447 0.2625 l
0.2456 0.2632 l
0.2466 0.2641 l
0.2475 0.2651 l
0.2484 0.2658 l
0.2494 0.2665 l
0.2503 0.2674 l
0.2512 0.2683 l
0.2522 0.2687 l
0.2531 0.2695 l
0.2541 0.2703 l
0.2550 0.2711 l
0.2559 0.2714 l
0.2569 0.2727 l
0.2578 0.2731 l
0.2587 0.2738 l
0.2597 0.2748 l
0.2606 0.2755 l
0.2616 0.2760 l
0.2625 0.2766 l
0.2634 0.2777 l
0.2644 0.2781 l
0.2653 0.2791 l
0.2662 0.2797 l
0.2672 0.2802 l
0.2681 0.2810 l
0.2691 0.2815 l
0.2700 0.2822 l
0.2709 0.2830 l
0.2719 0.2833 l
0.2728 0.2840 l
0.2737 0.2847 l
0.2747 0.2854 l
0.2756 0.2856 l
0.2766 0.2866 l
0.2775 0.2872 l
0.2784 0.2878 l
0.2794 0.2882 l
0.2803 0.2890 l
0.2812 0.2893 l
0.2822 0.2900 l
0.2831 0.2906 l
0.2841 0.2913 l
0.2850 0.2917 l
0.2859 0.2924 l
0.2869 0.2929 l
0.2878 0.2932 l
0.2887 0.2938 l
0.2897 0.2943 l
0.2906 0.2946 l
0.2916 0.2955 l
0.2925 0.2959 l
0.2934 0.2963 l
0.2944 0.2968 l
0.2953 0.2974 l
0.2962 0.2977 l
0.2972 0.2981 l
0.2981 0.2989 l
0.2991 0.2991 l
0.3000 0.2994 l
0.3009 0.3001 l
0.3019 0.3003 l
0.3028 0.3009 l
0.3037 0.3015 l
0.3047 0.3018 l
0.3056 0.3023 l
0.3066 0.3029 l
0.3075 0.3032 l
0.3084 0.3037 l
0.3094 0.3040 l
0.3103 0.3044 l
0.3112 0.3049 l
0.3122 0.3050 l
0.3131 0.3058 l
0.3141 0.3061 l
0.3150 0.3064 l
0.3159 0.3071 l
0.3169 0.3074 l
0.3178 0.3077 l
0.3187 0.3081 l
0.3197 0.3087 l
0.3206 0.3089 l
0.3216 0.3094 l
0.3225 0.3098 l
0.3234 0.3103 l
0.3244 0.3106 l
0.3253 0.3112 l
0.3262 0.3112 l
0.3272 0.3118 l
0.3281 0.3122 l
0.3291 0.3125 l
0.3300 0.3131 l
0.3309 0.3138 l
0.3319 0.3136 l
0.3328 0.3146 l
0.3337 0.3148 l
0.3347 0.3152 l
0.3356 0.3155 l
0.3366 0.3158 l
0.3375 0.3162 l
0.3384 0.3164 l
0.3394 0.3167 l
0.3403 0.3177 l
0.3412 0.3181 l
0.3422 0.3184 l
0.3431 0.3190 l
0.3441 0.3195 l
0.3450 0.3194 l
0.3459 0.3200 l
0.3469 0.3205 l
0.3478 0.3210 l
0.3487 0.3213 l
0.3497 0.3215 l
0.3506 0.3227 l
0.3516 0.3227 l
0.3525 0.3230 l
0.3534 0.3234 l
0.3544 0.3243 l
0.3553 0.3245 l
0.3562 0.3249 l
0.3572 0.3257 l
0.3581 0.3261 l
0.3591 0.3267 l
0.3600 0.3269 l
0.3609 0.3272 l
0.3619 0.3276 l
0.3628 0.3282 l
0.3637 0.3291 l
0.3647 0.3292 l
0.3656 0.3298 l
0.3666 0.3306 l
0.3675 0.3315 l
0.3684 0.3313 l
0.3694 0.3323 l
0.3703 0.3328 l
0.3712 0.3336 l
0.3722 0.3336 l
0.3731 0.3346 l
0.3741 0.3350 l
0.3750 0.3361 l
0.3759 0.3364 l
0.3769 0.3373 l
0.3778 0.3378 l
0.3787 0.3386 l
0.3797 0.3396 l
0.3806 0.3405 l
0.3816 0.3408 l
0.3825 0.3419 l
0.3834 0.3419 l
0.3844 0.3428 l
0.3853 0.3440 l
0.3862 0.3446 l
0.3872 0.3453 l
0.3881 0.3461 l
0.3891 0.3468 l
0.3900 0.3472 l
0.3909 0.3480 l
0.3919 0.3491 l
0.3928 0.3495 l
0.3937 0.3506 l
0.3947 0.3513 l
0.3956 0.3521 l
0.3966 0.3533 l
0.3975 0.3535 l
0.3984 0.3554 l
0.3994 0.3562 l
0.4003 0.3568 l
0.4012 0.3581 l
0.4022 0.3588 l
0.4031 0.3599 l
0.4041 0.3606 l
0.4050 0.3612 l
0.4059 0.3626 l
0.4069 0.3629 l
0.4078 0.3637 l
0.4087 0.3654 l
0.4097 0.3663 l
0.4106 0.3673 l
0.4116 0.3682 l
0.4125 0.3690 l
0.4134 0.3692 l
0.4144 0.3709 l
0.4153 0.3716 l
0.4162 0.3723 l
0.4172 0.3731 l
0.4181 0.3744 l
0.4191 0.3759 l
0.4200 0.3761 l
0.4209 0.3775 l
0.4219 0.3780 l
0.4228 0.3794 l
0.4237 0.3801 l
0.4247 0.3808 l
0.4256 0.3812 l
0.4266 0.3826 l
0.4275 0.3833 l
0.4284 0.3838 l
0.4294 0.3847 l
0.4303 0.3862 l
0.4312 0.3862 l
0.4322 0.3872 l
0.4331 0.3873 l
0.4341 0.3886 l
0.4350 0.3899 l
0.4359 0.3902 l
0.4369 0.3900 l
0.4378 0.3911 l
0.4387 0.3920 l
0.4397 0.3916 l
0.4406 0.3932 l
0.4416 0.3935 l
0.4425 0.3936 l
0.4434 0.3938 l
0.4444 0.3920 l
0.4453 0.3930 l
0.4462 0.3919 l
0.4472 0.3929 l
0.4481 0.3896 l
0.4491 0.3781 l
0.4500 0.3636 l
0.4509 0.3618 l
0.4519 0.3624 l
0.4528 0.3640 l
0.4537 0.3626 l
0.4547 0.3622 l
0.4556 0.3625 l
0.4566 0.3606 l
0.4575 0.3612 l
0.4584 0.3621 l
0.4594 0.3619 l
0.4603 0.3619 l
0.4612 0.3632 l
0.4622 0.3632 l
0.4631 0.3632 l
0.4641 0.3619 l
0.4650 0.3643 l
0.4659 0.3634 l
0.4669 0.3640 l
0.4678 0.3636 l
0.4687 0.3625 l
0.4697 0.3636 l
0.4706 0.3605 l
0.4716 0.3616 l
0.4725 0.3622 l
0.4734 0.3627 l
0.4744 0.3623 l
0.4753 0.3637 l
0.4762 0.3636 l
0.4772 0.3623 l
0.4781 0.3647 l
0.4791 0.3618 l
0.4800 0.3635 l
0.4809 0.3630 l
0.4819 0.3609 l
0.4828 0.3621 l
0.4837 0.3630 l
0.4847 0.3614 l
0.4856 0.3639 l
0.4866 0.3645 l
0.4875 0.3629 l
0.4884 0.3636 l
0.4894 0.3620 l
0.4903 0.3627 l
0.4912 0.3611 l
0.4922 0.3623 l
0.4931 0.3634 l
0.4941 0.3637 l
0.4950 0.3640 l
0.4959 0.3635 l
0.4969 0.3624 l
0.4978 0.3621 l
0.4987 0.3648 l
0.4997 0.3629 l
0.5006 0.3622 l
0.5016 0.3632 l
0.5025 0.3621 l
0.5034 0.3643 l
0.5044 0.3639 l
0.5053 0.3626 l
0.5062 0.3618 l
0.5072 0.3635 l
0.5081 0.3624 l
0.5091 0.3617 l
0.5100 0.3643 l
0.5109 0.3641 l
0.5119 0.3652 l
0.5128 0.3650 l
0.5137 0.3644 l
0.5147 0.3646 l
0.5156 0.3649 l
0.5166 0.3623 l
0.5175 0.3631 l
0.5184 0.3633 l
0.5194 0.3632 l
0.5203 0.3648 l
0.5212 0.3657 l
0.5222 0.3643 l
0.5231 0.3644 l
0.5241 0.3640 l
0.5250 0.3638 l
0.5259 0.3641 l
0.5269 0.3634 l
0.5278 0.3632 l
0.5287 0.3635 l
0.5297 0.3622 l
0.5306 0.3637 l
0.5316 0.3667 l
0.5325 0.3646 l
0.5334 0.3647 l
0.5344 0.3630 l
0.5353 0.3639 l
0.5362 0.3653 l
0.5372 0.3660 l
0.5381 0.3639 l
0.5391 0.3633 l
0.5400 0.3662 l
0.5409 0.3646 l
0.5419 0.3649 l
0.5428 0.3650 l
0.5437 0.3649 l
0.5447 0.3645 l
0.5456 0.3658 l
0.5466 0.3651 l
0.5475 0.3671 l
0.5484 0.3650 l
0.5494 0.3647 l
0.5503 0.3655 l
0.5512 0.3660 l
0.5522 0.3654 l
0.5531 0.3672 l
0.5541 0.3653 l
0.5550 0.3646 l
0.5559 0.3641 l
0.5569 0.3649 l
0.5578 0.3643 l
0.5587 0.3658 l
0.5597 0.3653 l
0.5606 0.3649 l
0.5616 0.3664 l
0.5625 0.3652 l
0.5634 0.3634 l
0.5644 0.3647 l
0.5653 0.3661 l
0.5662 0.3655 l
0.5672 0.3648 l
0.5681 0.3640 l
0.5691 0.3659 l
0.5700 0.3664 l
0.5709 0.3671 l
0.5719 0.3681 l
0.5728 0.3671 l
0.5737 0.3671 l
0.5747 0.3687 l
0.5756 0.3679 l
0.5766 0.3700 l
0.5775 0.3704 l
0.5784 0.3706 l
0.5794 0.3703 l
0.5803 0.3713 l
0.5812 0.3701 l
0.5822 0.3684 l
0.5831 0.3681 l
0.5841 0.3685 l
0.5850 0.3693 l
0.5859 0.3693 l
0.5869 0.3701 l
0.5878 0.3708 l
0.5887 0.3708 l
0.5897 0.3711 l
0.5906 0.3719 l
0.5916 0.3706 l
0.5925 0.3669 l
0.5934 0.3477 l
0.5944 0.3512 l
0.5953 0.3557 l
0.5962 0.3563 l
0.5972 0.3574 l
0.5981 0.3561 l
0.5991 0.3563 l
0.6000 0.3580 l
0.6009 0.3591 l
0.6019 0.3590 l
0.6028 0.3599 l
0.6037 0.3607 l
0.6047 0.3607 l
0.6056 0.3613 l
0.6066 0.3613 l
0.6075 0.3617 l
0.6084 0.3610 l
0.6094 0.3623 l
0.6103 0.3642 l
0.6112 0.3633 l
0.6122 0.3641 l
0.6131 0.3643 l
0.6141 0.3650 l
0.6150 0.3585 l
0.6159 0.3467 l
0.6169 0.3480 l
0.6178 0.3475 l
0.6187 0.3478 l
0.6197 0.3477 l
0.6206 0.3486 l
0.6216 0.3497 l
0.6225 0.3509 l
0.6234 0.3512 l
0.6244 0.3518 l
0.6253 0.3518 l
0.6262 0.3518 l
0.6272 0.3525 l
0.6281 0.3520 l
0.6291 0.3510 l
0.6300 0.3518 l
0.6309 0.3525 l
0.6319 0.3530 l
0.6328 0.3536 l
0.6337 0.3538 l
0.6347 0.3544 l
0.6356 0.3541 l
0.6366 0.3557 l
0.6375 0.3560 l
0.6384 0.3574 l
0.6394 0.3567 l
0.6403 0.3579 l
0.6412 0.3574 l
0.6422 0.3588 l
0.6431 0.3582 l
0.6441 0.3596 l
0.6450 0.3597 l
0.6459 0.3600 l
0.6469 0.3616 l
0.6478 0.3616 l
0.6487 0.3604 l
0.6497 0.3597 l
0.6506 0.3606 l
0.6516 0.3603 l
0.6525 0.3612 l
0.6534 0.3635 l
0.6544 0.3622 l
0.6553 0.3627 l
0.6562 0.3628 l
0.6572 0.3622 l
0.6581 0.3638 l
0.6591 0.3639 l
0.6600 0.3636 l
0.6609 0.3637 l
0.6619 0.3660 l
0.6628 0.3663 l
0.6637 0.3652 l
0.6647 0.3654 l
0.6656 0.3661 l
0.6666 0.3675 l
0.6675 0.3671 l
0.6684 0.3670 l
0.6694 0.3692 l
0.6703 0.3685 l
0.6712 0.3692 l
0.6722 0.3706 l
0.6731 0.3708 l
0.6741 0.3705 l
0.6750 0.3715 l
0.6759 0.3720 l
0.6769 0.3715 l
0.6778 0.3733 l
0.6787 0.3712 l
0.6797 0.2182 l
0.6806 0.1499 l
s
n
0.6817 0.1499 m
0.6825 0.1554 l
0.6834 0.1507 l
0.6844 0.1533 l
0.6848 0.1499 l
s
n
0.6859 0.1499 m
0.6862 0.1525 l
0.6869 0.1499 l
s
n
0.6874 0.1499 m
0.6881 0.1537 l
0.6889 0.1499 l
s
n
0.6913 0.1499 m
0.6919 0.1526 l
0.6925 0.1499 l
s
n
0.6934 0.1499 m
0.6937 0.1507 l
0.6941 0.1499 l
s
n
0.6957 0.1499 m
0.6966 0.1520 l
0.6975 0.1520 l
0.6980 0.1499 l
s
n
0.6993 0.1499 m
0.6994 0.1501 l
0.7003 0.1505 l
0.7012 0.1506 l
0.7022 0.1502 l
0.7031 0.1500 l
0.7033 0.1499 l
s
n
0.7044 0.1499 m
0.7050 0.1507 l
0.7059 0.1515 l
0.7069 0.1512 l
0.7078 0.1506 l
0.7082 0.1499 l
s
n
0.7092 0.1499 m
0.7097 0.1512 l
0.7106 0.1503 l
0.7116 0.1499 l
0.7116 0.1499 l
s
n
0.7131 0.1499 m
0.7134 0.1502 l
0.7140 0.1499 l
s
n
0.7156 0.1499 m
0.7162 0.1517 l
0.7171 0.1499 l
s
n
0.7187 0.1499 m
0.7191 0.1504 l
0.7200 0.1502 l
0.7201 0.1499 l
s
n
0.7219 0.1499 m
0.7219 0.1499 l
0.7228 0.1503 l
0.7236 0.1499 l
s
n
0.7239 0.1499 m
0.7247 0.1502 l
0.7256 0.1502 l
0.7266 0.1514 l
0.7275 0.1511 l
0.7280 0.1499 l
s
n
0.7293 0.1499 m
0.7294 0.1500 l
0.7295 0.1499 l
s
n
0.7325 0.1499 m
0.7331 0.1514 l
0.7338 0.1499 l
s
n
0.7361 0.1499 m
0.7369 0.1516 l
0.7377 0.1499 l
s
n
0.7380 0.1499 m
0.7387 0.1516 l
0.7397 0.1503 l
0.7406 0.1502 l
0.7408 0.1499 l
s
n
0.7419 0.1499 m
0.7425 0.1518 l
0.7434 0.1499 l
s
n
0.7436 0.1499 m
0.7444 0.1503 l
0.7453 0.1506 l
0.7462 0.1504 l
0.7468 0.1499 l
s
n
0.7475 0.1499 m
0.7481 0.1505 l
0.7491 0.1501 l
0.7500 0.1505 l
0.7503 0.1499 l
s
n
0.7514 0.1499 m
0.7519 0.1513 l
0.7528 0.1517 l
0.7537 0.1499 l
s
n
0.7561 0.1499 m
0.7566 0.1505 l
0.7575 0.1504 l
0.7584 0.1501 l
0.7594 0.1501 l
0.7595 0.1499 l
s
n
0.7609 0.1499 m
0.7612 0.1512 l
0.7619 0.1499 l
s
n
0.7627 0.1499 m
0.7631 0.1504 l
0.7636 0.1499 l
s
n
0.7642 0.1499 m
0.7650 0.1516 l
0.7656 0.1499 l
s
n
0.7681 0.1499 m
0.7687 0.1517 l
0.7693 0.1499 l
s
n
0.7702 0.1499 m
0.7706 0.1508 l
0.7716 0.1508 l
0.7719 0.1499 l
s
n
0.7741 0.1499 m
0.7744 0.1501 l
0.7746 0.1499 l
s
n
0.7765 0.1499 m
0.7772 0.1510 l
0.7781 0.1505 l
0.7791 0.1500 l
0.7793 0.1499 l
s
n
0.7818 0.1499 m
0.7819 0.1499 l
0.7828 0.1523 l
0.7837 0.1509 l
0.7841 0.1499 l
s
n
0.7872 0.1499 m
0.7875 0.1503 l
0.7884 0.1504 l
0.7890 0.1499 l
s
n
0.7906 0.1499 m
0.7912 0.1515 l
0.7922 0.1505 l
0.7931 0.1499 l
s
n
0.7947 0.1499 m
0.7950 0.1501 l
0.7959 0.1510 l
0.7969 0.1510 l
0.7974 0.1499 l
s
n
0.7986 0.1499 m
0.7987 0.1501 l
0.7997 0.1516 l
0.8006 0.1510 l
0.8011 0.1499 l
s
n
0.8026 0.1499 m
0.8034 0.1514 l
0.8040 0.1499 l
s
n
0.8047 0.1499 m
0.8053 0.1515 l
0.8062 0.1512 l
0.8068 0.1499 l
s
n
0.8077 0.1499 m
0.8081 0.1505 l
0.8091 0.1507 l
0.8099 0.1499 l
s
n
0.8120 0.1499 m
0.8128 0.1522 l
0.8133 0.1499 l
s
n
0.8157 0.1499 m
0.8166 0.1521 l
0.8172 0.1499 l
s
n
0.8189 0.1499 m
0.8194 0.1509 l
0.8203 0.1502 l
0.8212 0.1503 l
0.8222 0.1508 l
0.8227 0.1499 l
s
n
0.8266 0.1499 m
0.8269 0.1501 l
0.8278 0.1504 l
0.8287 0.1501 l
0.8297 0.1505 l
0.8306 0.1504 l
0.8316 0.1506 l
0.8325 0.1507 l
0.8330 0.1499 l
s
n
0.8341 0.1499 m
0.8344 0.1503 l
0.8353 0.1514 l
0.8360 0.1499 l
s
n
0.8378 0.1499 m
0.8381 0.1501 l
0.8391 0.1499 l
0.8392 0.1499 l
s
n
0.8422 0.1499 m
0.8428 0.1513 l
0.8437 0.1508 l
0.8441 0.1499 l
s
n
0.8460 0.1499 m
0.8466 0.1512 l
0.8475 0.1503 l
0.8484 0.1500 l
0.8494 0.1502 l
0.8496 0.1499 l
s
n
0.8517 0.1499 m
0.8522 0.1504 l
0.8531 0.1502 l
0.8541 0.1503 l
0.8546 0.1499 l
s
n
0.8553 0.1499 m
0.8559 0.1505 l
0.8563 0.1499 l
s
n
0.8575 0.1499 m
0.8578 0.1503 l
0.8580 0.1499 l
s
n
0.8597 0.1499 m
0.8606 0.1517 l
0.8616 0.1514 l
0.8620 0.1499 l
s
n
0.8649 0.1499 m
0.8653 0.1505 l
0.8662 0.1500 l
0.8672 0.1505 l
0.8676 0.1499 l
s
n
0.8684 0.1499 m
0.8691 0.1519 l
0.8696 0.1499 l
s
n
0.8726 0.1499 m
0.8728 0.1500 l
0.8729 0.1499 l
s
n
0.8747 0.1499 m
0.8756 0.1502 l
0.8766 0.1511 l
0.8775 0.1501 l
0.8784 0.1500 l
0.8792 0.1499 l
s
n
0.8794 0.1499 m
0.8803 0.1511 l
0.8811 0.1499 l
s
n
0.8859 0.1499 m
0.8859 0.1499 l
0.8860 0.1499 l
s
n
0.8892 0.1499 m
0.8897 0.1508 l
0.8900 0.1499 l
s
n
0.8924 0.1499 m
0.8925 0.1500 l
0.8934 0.1506 l
0.8944 0.1505 l
0.8947 0.1499 l
s
n
0.8962 0.1499 m
0.8962 0.1499 l
0.8972 0.1510 l
0.8981 0.1502 l
0.8983 0.1499 l
s
n
0.9008 0.1499 m
0.9009 0.1500 l
0.9019 0.1506 l
0.9028 0.1516 l
0.9032 0.1499 l
s
n
0.9057 0.1499 m
0.9066 0.1520 l
0.9075 0.1505 l
0.9084 0.1513 l
0.9088 0.1499 l
s
n
0.9122 0.1499 m
0.9122 0.1499 l
0.9122 0.1499 l
s
n
0.9137 0.1499 m
0.9141 0.1508 l
0.9150 0.1512 l
0.9157 0.1499 l
s
n
0.9174 0.1499 m
0.9178 0.1504 l
0.9187 0.1503 l
0.9197 0.1513 l
0.9206 0.1503 l
0.9216 0.1504 l
0.9217 0.1499 l
s
n
0.9231 0.1499 m
0.9234 0.1511 l
0.9244 0.1507 l
0.9250 0.1499 l
s
n
0.9266 0.1499 m
0.9272 0.1520 l
0.9281 0.1515 l
0.9291 0.1503 l
0.9293 0.1499 l
s
n
0.9304 0.1499 m
0.9309 0.1509 l
0.9319 0.1505 l
0.9323 0.1499 l
s
n
0.9343 0.1499 m
0.9347 0.1509 l
0.9356 0.1505 l
0.9366 0.1499 l
0.9366 0.1499 l
s
n
0.9381 0.1499 m
0.9384 0.1502 l
0.9387 0.1499 l
s
n
0.9397 0.1499 m
0.9403 0.1516 l
0.9412 0.1508 l
0.9419 0.1499 l
s
n
0.9442 0.1499 m
0.9450 0.1513 l
0.9458 0.1499 l
s
n
0.9475 0.1499 m
0.9478 0.1508 l
0.9487 0.1504 l
0.9497 0.1501 l
0.9499 0.1499 l
s
n
0.9515 0.1499 m
0.9516 0.1499 l
0.9518 0.1499 l
s
n
0.9528 0.1499 m
0.9534 0.1502 l
0.9538 0.1499 l
s
n
0.9577 0.1499 m
0.9581 0.1507 l
0.9591 0.1510 l
0.9595 0.1499 l
s
n
0.9607 0.1499 m
0.9609 0.1504 l
0.9612 0.1499 l
s
n
0.9627 0.1499 m
0.9628 0.1500 l
0.9637 0.1501 l
0.9647 0.1500 l
0.9656 0.1501 l
0.9666 0.1511 l
0.9675 0.1504 l
0.9678 0.1499 l
s
n
0.9699 0.1499 m
0.9703 0.1507 l
0.9709 0.1499 l
s
n
0.9720 0.1499 m
0.9722 0.1501 l
0.9731 0.1502 l
0.9734 0.1499 l
s
n
0.9748 0.1499 m
0.9750 0.1502 l
0.9759 0.1504 l
0.9769 0.1504 l
0.9778 0.1501 l
0.9780 0.1499 l
s
n
0.9796 0.1499 m
0.9797 0.1499 l
0.9799 0.1499 l
s
n
0.9822 0.1499 m
0.9825 0.1507 l
0.9834 0.1509 l
0.9844 0.1502 l
0.9846 0.1499 l
s
n
0.9858 0.1499 m
0.9862 0.1506 l
0.9868 0.1499 l
s
n
0.9876 0.1499 m
0.9881 0.1508 l
0.9888 0.1499 l
s
n
0.9899 0.1499 m
0.9900 0.1499 l
0.9900 0.1499 l
s
n
0.9916 0.1499 m
0.9919 0.1502 l
0.9928 0.1501 l
0.9937 0.1502 l
0.9941 0.1499 l
s
n
0.9952 0.1499 m
0.9956 0.1502 l
0.9966 0.1514 l
0.9971 0.1499 l
s
n
0.9980 0.1499 m
0.9984 0.1508 l
0.9994 0.1499 l
1.0003 0.1499 l
1.0003 0.1499 l
s
n
1.0019 0.1499 m
1.0022 0.1507 l
1.0031 0.1505 l
1.0035 0.1499 l
s
n
1.0048 0.1499 m
1.0050 0.1501 l
1.0059 0.1510 l
1.0065 0.1499 l
s
n
1.0072 0.1499 m
1.0078 0.1514 l
1.0087 0.1500 l
1.0091 0.1499 l
s
n
1.0111 0.1499 m
1.0116 0.1505 l
1.0125 0.1499 l
s
n
1.0126 0.1499 m
1.0134 0.1500 l
1.0138 0.1499 l
s
n
1.0149 0.1499 m
1.0153 0.1501 l
1.0162 0.1506 l
1.0172 0.1500 l
1.0172 0.1499 l
s
n
1.0185 0.1499 m
1.0191 0.1512 l
1.0200 0.1512 l
1.0209 0.1499 l
s
n
1.0226 0.1499 m
1.0228 0.1503 l
1.0237 0.1503 l
1.0247 0.1505 l
1.0256 0.1500 l
1.0266 0.1505 l
1.0271 0.1499 l
s
n
1.0279 0.1499 m
1.0284 0.1506 l
1.0294 0.1505 l
1.0303 0.1500 l
1.0304 0.1499 l
s
n
1.0320 0.1499 m
1.0322 0.1502 l
1.0331 0.1514 l
1.0338 0.1499 l
s
n
1.0356 0.1499 m
1.0359 0.1502 l
1.0369 0.1500 l
1.0378 0.1500 l
1.0387 0.1511 l
1.0395 0.1499 l
s
n
1.0423 0.1499 m
1.0425 0.1500 l
1.0434 0.1502 l
1.0440 0.1499 l
s
n
1.0454 0.1499 m
1.0462 0.1515 l
1.0469 0.1499 l
s
n
1.0476 0.1499 m
1.0481 0.1505 l
1.0491 0.1510 l
1.0497 0.1499 l
s
n
1.0508 0.1499 m
1.0509 0.1500 l
1.0519 0.1517 l
1.0527 0.1499 l
s
n
1.0530 0.1499 m
1.0537 0.1506 l
1.0547 0.1501 l
1.0550 0.1499 l
s
n
1.0561 0.1499 m
1.0566 0.1503 l
1.0575 0.1500 l
1.0582 0.1499 l
s
n
1.0597 0.1499 m
1.0603 0.1509 l
1.0607 0.1499 l
s
n
1.0622 0.1499 m
1.0622 0.1500 l
1.0631 0.1509 l
1.0639 0.1499 l
s
n
1.0663 0.1499 m
1.0669 0.1507 l
1.0672 0.1499 l
s
n
1.0700 0.1499 m
1.0706 0.1506 l
1.0710 0.1499 l
s
n
1.0718 0.1499 m
1.0725 0.1522 l
1.0734 0.1499 l
1.0744 0.1506 l
1.0750 0.1499 l
s
n
1.0757 0.1499 m
1.0762 0.1503 l
1.0772 0.1501 l
1.0781 0.1499 l
s
n
1.0794 0.1499 m
1.0800 0.1505 l
1.0809 0.1503 l
1.0811 0.1499 l
s
n
1.0824 0.1499 m
1.0828 0.1513 l
1.0837 0.1510 l
1.0844 0.1499 l
s
n
1.0861 0.1499 m
1.0866 0.1509 l
1.0875 0.1501 l
1.0878 0.1499 l
s
[/DeviceRGB] SCS
Color4 SC
n
0.1519 0.1507 m
0.1528 0.1524 l
0.1537 0.1538 l
0.1547 0.1551 l
0.1556 0.1561 l
0.1566 0.1575 l
0.1575 0.1586 l
0.1584 0.1601 l
0.1594 0.1615 l
0.1603 0.1626 l
0.1613 0.1639 l
0.1622 0.1651 l
0.1631 0.1666 l
0.1641 0.1676 l
0.1650 0.1690 l
0.1659 0.1701 l
0.1669 0.1711 l
0.1678 0.1726 l
0.1688 0.1739 l
0.1697 0.1753 l
0.1706 0.1766 l
0.1716 0.1777 l
0.1725 0.1789 l
0.1734 0.1800 l
0.1744 0.1815 l
0.1753 0.1828 l
0.1763 0.1842 l
0.1772 0.1851 l
0.1781 0.1866 l
0.1791 0.1878 l
0.1800 0.1889 l
0.1809 0.1899 l
0.1819 0.1914 l
0.1828 0.1924 l
0.1837 0.1935 l
0.1847 0.1950 l
0.1856 0.1964 l
0.1866 0.1975 l
0.1875 0.1987 l
0.1884 0.1997 l
0.1894 0.2008 l
0.1903 0.2020 l
0.1912 0.2034 l
0.1922 0.2045 l
0.1931 0.2055 l
0.1941 0.2067 l
0.1950 0.2080 l
0.1959 0.2090 l
0.1969 0.2102 l
0.1978 0.2111 l
0.1987 0.2126 l
0.1997 0.2134 l
0.2006 0.2146 l
0.2016 0.2158 l
0.2025 0.2169 l
0.2034 0.2179 l
0.2044 0.2193 l
0.2053 0.2202 l
0.2062 0.2212 l
0.2072 0.2223 l
0.2081 0.2235 l
0.2091 0.2245 l
0.2100 0.2255 l
0.2109 0.2268 l
0.2119 0.2277 l
0.2128 0.2289 l
0.2137 0.2297 l
0.2147 0.2309 l
0.2156 0.2316 l
0.2166 0.2326 l
0.2175 0.2340 l
0.2184 0.2349 l
0.2194 0.2359 l
0.2203 0.2371 l
0.2212 0.2378 l
0.2222 0.2391 l
0.2231 0.2398 l
0.2241 0.2409 l
0.2250 0.2417 l
0.2259 0.2427 l
0.2269 0.2436 l
0.2278 0.2447 l
0.2287 0.2455 l
0.2297 0.2465 l
0.2306 0.2476 l
0.2316 0.2485 l
0.2325 0.2494 l
0.2334 0.2504 l
0.2344 0.2511 l
0.2353 0.2519 l
0.2362 0.2528 l
0.2372 0.2536 l
0.2381 0.2546 l
0.2391 0.2556 l
0.2400 0.2564 l
0.2409 0.2573 l
0.2419 0.2581 l
0.2428 0.2588 l
0.2437 0.2597 l
0.2447 0.2607 l
0.2456 0.2613 l
0.2466 0.2623 l
0.2475 0.2632 l
0.2484 0.2639 l
0.2494 0.2646 l
0.2503 0.2653 l
0.2512 0.2662 l
0.2522 0.2669 l
0.2531 0.2676 l
0.2541 0.2686 l
0.2550 0.2694 l
0.2559 0.2701 l
0.2569 0.2710 l
0.2578 0.2712 l
0.2587 0.2723 l
0.2597 0.2731 l
0.2606 0.2737 l
0.2616 0.2744 l
0.2625 0.2750 l
0.2634 0.2758 l
0.2644 0.2764 l
0.2653 0.2770 l
0.2662 0.2776 l
0.2672 0.2784 l
0.2681 0.2792 l
0.2691 0.2799 l
0.2700 0.2802 l
0.2709 0.2809 l
0.2719 0.2816 l
0.2728 0.2824 l
0.2737 0.2829 l
0.2747 0.2835 l
0.2756 0.2844 l
0.2766 0.2851 l
0.2775 0.2858 l
0.2784 0.2860 l
0.2794 0.2864 l
0.2803 0.2872 l
0.2812 0.2879 l
0.2822 0.2879 l
0.2831 0.2889 l
0.2841 0.2890 l
0.2850 0.2898 l
0.2859 0.2903 l
0.2869 0.2913 l
0.2878 0.2916 l
0.2887 0.2921 l
0.2897 0.2926 l
0.2906 0.2931 l
0.2916 0.2935 l
0.2925 0.2942 l
0.2934 0.2946 l
0.2944 0.2949 l
0.2953 0.2956 l
0.2962 0.2962 l
0.2972 0.2967 l
0.2981 0.2970 l
0.2991 0.2975 l
0.3000 0.2982 l
0.3009 0.2982 l
0.3019 0.2991 l
0.3028 0.2994 l
0.3037 0.2999 l
0.3047 0.3004 l
0.3056 0.3008 l
0.3066 0.3012 l
0.3075 0.3017 l
0.3084 0.3018 l
0.3094 0.3027 l
0.3103 0.3031 l
0.3112 0.3036 l
0.3122 0.3037 l
0.3131 0.3042 l
0.3141 0.3047 l
0.3150 0.3050 l
0.3159 0.3053 l
0.3169 0.3058 l
0.3178 0.3063 l
0.3187 0.3065 l
0.3197 0.3070 l
0.3206 0.3075 l
0.3216 0.3078 l
0.3225 0.3081 l
0.3234 0.3086 l
0.3244 0.3089 l
0.3253 0.3096 l
0.3262 0.3099 l
0.3272 0.3104 l
0.3281 0.3112 l
0.3291 0.3113 l
0.3300 0.3113 l
0.3309 0.3120 l
0.3319 0.3122 l
0.3328 0.3124 l
0.3337 0.3130 l
0.3347 0.3137 l
0.3356 0.3138 l
0.3366 0.3137 l
0.3375 0.3147 l
0.3384 0.3151 l
0.3394 0.3151 l
0.3403 0.3161 l
0.3412 0.3160 l
0.3422 0.3165 l
0.3431 0.3170 l
0.3441 0.3171 l
0.3450 0.3178 l
0.3459 0.3183 l
0.3469 0.3188 l
0.3478 0.3193 l
0.3487 0.3194 l
0.3497 0.3199 l
0.3506 0.3205 l
0.3516 0.3208 l
0.3525 0.3214 l
0.3534 0.3217 l
0.3544 0.3223 l
0.3553 0.3233 l
0.3562 0.3238 l
0.3572 0.3235 l
0.3581 0.3241 l
0.3591 0.3245 l
0.3600 0.3246 l
0.3609 0.3257 l
0.3619 0.3261 l
0.3628 0.3264 l
0.3637 0.3270 l
0.3647 0.3275 l
0.3656 0.3280 l
0.3666 0.3285 l
0.3675 0.3298 l
0.3684 0.3302 l
0.3694 0.3302 l
0.3703 0.3315 l
0.3712 0.3314 l
0.3722 0.3318 l
0.3731 0.3320 l
0.3741 0.3335 l
0.3750 0.3336 l
0.3759 0.3338 l
0.3769 0.3347 l
0.3778 0.3361 l
0.3787 0.3357 l
0.3797 0.3369 l
0.3806 0.3370 l
0.3816 0.3379 l
0.3825 0.3391 l
0.3834 0.3398 l
0.3844 0.3398 l
0.3853 0.3406 l
0.3862 0.3401 l
0.3872 0.3421 l
0.3881 0.3422 l
0.3891 0.3431 l
0.3900 0.3446 l
0.3909 0.3455 l
0.3919 0.3456 l
0.3928 0.3460 l
0.3937 0.3465 l
0.3947 0.3485 l
0.3956 0.3489 l
0.3966 0.3494 l
0.3975 0.3499 l
0.3984 0.3509 l
0.3994 0.3515 l
0.4003 0.3531 l
0.4012 0.3540 l
0.4022 0.3544 l
0.4031 0.3554 l
0.4041 0.3560 l
0.4050 0.3569 l
0.4059 0.3575 l
0.4069 0.3587 l
0.4078 0.3594 l
0.4087 0.3604 l
0.4097 0.3608 l
0.4106 0.3616 l
0.4116 0.3630 l
0.4125 0.3645 l
0.4134 0.3645 l
0.4144 0.3649 l
0.4153 0.3657 l
0.4162 0.3666 l
0.4172 0.3677 l
0.4181 0.3682 l
0.4191 0.3691 l
0.4200 0.3704 l
0.4209 0.3707 l
0.4219 0.3716 l
0.4228 0.3721 l
0.4237 0.3734 l
0.4247 0.3737 l
0.4256 0.3752 l
0.4266 0.3762 l
0.4275 0.3772 l
0.4284 0.3768 l
0.4294 0.3786 l
0.4303 0.3784 l
0.4312 0.3795 l
0.4322 0.3798 l
0.4331 0.3809 l
0.4341 0.3817 l
0.4350 0.3824 l
0.4359 0.3819 l
0.4369 0.3824 l
0.4378 0.3830 l
0.4387 0.3831 l
0.4397 0.3848 l
0.4406 0.3843 l
0.4416 0.3848 l
0.4425 0.3830 l
0.4434 0.3841 l
0.4444 0.3847 l
0.4453 0.3832 l
0.4462 0.3853 l
0.4472 0.3839 l
0.4481 0.3870 l
0.4491 0.3846 l
0.4500 0.3802 l
0.4509 0.3770 l
0.4519 0.3690 l
0.4528 0.3629 l
0.4537 0.3631 l
0.4547 0.3643 l
0.4556 0.3632 l
0.4566 0.3626 l
0.4575 0.3582 l
0.4584 0.3575 l
0.4594 0.3580 l
0.4603 0.3592 l
0.4612 0.3589 l
0.4622 0.3605 l
0.4631 0.3599 l
0.4641 0.3605 l
0.4650 0.3599 l
0.4659 0.3617 l
0.4669 0.3611 l
0.4678 0.3605 l
0.4687 0.3608 l
0.4697 0.3605 l
0.4706 0.3611 l
0.4716 0.3603 l
0.4725 0.3614 l
0.4734 0.3620 l
0.4744 0.3632 l
0.4753 0.3614 l
0.4762 0.3614 l
0.4772 0.3629 l
0.4781 0.3620 l
0.4791 0.3619 l
0.4800 0.3621 l
0.4809 0.3627 l
0.4819 0.3633 l
0.4828 0.3649 l
0.4837 0.3636 l
0.4847 0.3632 l
0.4856 0.3646 l
0.4866 0.3643 l
0.4875 0.3658 l
0.4884 0.3643 l
0.4894 0.3627 l
0.4903 0.3635 l
0.4912 0.3637 l
0.4922 0.3642 l
0.4931 0.3645 l
0.4941 0.3643 l
0.4950 0.3640 l
0.4959 0.3646 l
0.4969 0.3646 l
0.4978 0.3659 l
0.4987 0.3645 l
0.4997 0.3640 l
0.5006 0.3666 l
0.5016 0.3661 l
0.5025 0.3637 l
0.5034 0.3658 l
0.5044 0.3645 l
0.5053 0.3655 l
0.5062 0.3678 l
0.5072 0.3692 l
0.5081 0.3686 l
0.5091 0.3702 l
0.5100 0.3657 l
0.5109 0.3676 l
0.5119 0.3679 l
0.5128 0.3653 l
0.5137 0.3660 l
0.5147 0.3684 l
0.5156 0.3644 l
0.5166 0.3642 l
0.5175 0.3645 l
0.5184 0.3653 l
0.5194 0.3643 l
0.5203 0.3653 l
0.5212 0.3662 l
0.5222 0.3664 l
0.5231 0.3664 l
0.5241 0.3679 l
0.5250 0.3672 l
0.5259 0.3690 l
0.5269 0.3687 l
0.5278 0.3661 l
0.5287 0.3674 l
0.5297 0.3675 l
0.5306 0.3666 l
0.5316 0.3675 l
0.5325 0.3672 l
0.5334 0.3681 l
0.5344 0.3696 l
0.5353 0.3665 l
0.5362 0.3664 l
0.5372 0.3661 l
0.5381 0.3651 l
0.5391 0.3667 l
0.5400 0.3672 l
0.5409 0.3661 l
0.5419 0.3671 l
0.5428 0.3660 l
0.5437 0.3661 l
0.5447 0.3659 l
0.5456 0.3668 l
0.5466 0.3643 l
0.5475 0.3639 l
0.5484 0.3649 l
0.5494 0.3655 l
0.5503 0.3635 l
0.5512 0.3629 l
0.5522 0.3637 l
0.5531 0.3664 l
0.5541 0.3636 l
0.5550 0.3636 l
0.5559 0.3634 l
0.5569 0.3636 l
0.5578 0.3641 l
0.5587 0.3653 l
0.5597 0.3654 l
0.5606 0.3654 l
0.5616 0.3660 l
0.5625 0.3658 l
0.5634 0.3657 l
0.5644 0.3644 l
0.5653 0.3642 l
0.5662 0.3643 l
0.5672 0.3634 l
0.5681 0.3650 l
0.5691 0.3643 l
0.5700 0.3646 l
0.5709 0.3646 l
0.5719 0.3644 l
0.5728 0.3658 l
0.5737 0.3651 l
0.5747 0.3658 l
0.5756 0.3631 l
0.5766 0.3643 l
0.5775 0.3642 l
0.5784 0.3650 l
0.5794 0.3652 l
0.5803 0.3644 l
0.5812 0.3649 l
0.5822 0.3652 l
0.5831 0.3650 l
0.5841 0.3660 l
0.5850 0.3666 l
0.5859 0.3671 l
0.5869 0.3677 l
0.5878 0.3626 l
0.5887 0.3598 l
0.5897 0.3550 l
0.5906 0.3558 l
0.5916 0.3575 l
0.5925 0.3579 l
0.5934 0.3582 l
0.5944 0.3590 l
0.5953 0.3596 l
0.5962 0.3606 l
0.5972 0.3610 l
0.5981 0.3615 l
0.5991 0.3623 l
0.6000 0.3626 l
0.6009 0.3638 l
0.6019 0.3639 l
0.6028 0.3641 l
0.6037 0.3645 l
0.6047 0.3653 l
0.6056 0.3669 l
0.6066 0.3662 l
0.6075 0.3663 l
0.6084 0.3670 l
0.6094 0.3679 l
0.6103 0.3684 l
0.6112 0.3697 l
0.6122 0.3695 l
0.6131 0.3704 l
0.6141 0.3707 l
0.6150 0.3708 l
0.6159 0.3714 l
0.6169 0.3722 l
0.6178 0.3719 l
0.6187 0.3724 l
0.6197 0.3744 l
0.6206 0.3733 l
0.6216 0.3743 l
0.6225 0.3736 l
0.6234 0.3753 l
0.6244 0.3757 l
0.6253 0.3759 l
0.6262 0.3763 l
0.6272 0.3763 l
0.6281 0.3774 l
0.6291 0.3774 l
0.6300 0.3782 l
0.6309 0.3776 l
0.6319 0.3789 l
0.6328 0.3795 l
0.6337 0.3793 l
0.6347 0.3792 l
0.6356 0.3800 l
0.6366 0.3804 l
0.6375 0.3810 l
0.6384 0.3808 l
0.6394 0.3818 l
0.6403 0.3823 l
0.6412 0.3831 l
0.6422 0.3829 l
0.6431 0.3835 l
0.6441 0.3835 l
0.6450 0.3837 l
0.6459 0.3842 l
0.6469 0.3845 l
0.6478 0.3847 l
0.6487 0.3854 l
0.6497 0.3855 l
0.6506 0.3855 l
0.6516 0.3866 l
0.6525 0.3869 l
0.6534 0.3872 l
0.6544 0.3870 l
0.6553 0.3877 l
0.6562 0.3881 l
0.6572 0.3884 l
0.6581 0.3888 l
0.6591 0.3892 l
0.6600 0.3889 l
0.6609 0.3896 l
0.6619 0.3900 l
0.6628 0.3915 l
0.6637 0.3898 l
0.6647 0.3896 l
0.6656 0.3906 l
0.6666 0.3918 l
0.6675 0.3911 l
0.6684 0.3910 l
0.6694 0.3876 l
0.6703 0.3155 l
0.6712 0.2809 l
0.6722 0.1902 l
0.6731 0.1964 l
0.6741 0.1920 l
0.6750 0.1898 l
0.6759 0.1937 l
0.6769 0.1922 l
0.6778 0.1926 l
0.6787 0.1951 l
0.6797 0.1919 l
0.6806 0.1939 l
0.6816 0.1948 l
0.6825 0.1925 l
0.6834 0.1944 l
0.6844 0.1962 l
0.6853 0.1946 l
0.6862 0.1952 l
0.6872 0.1960 l
0.6881 0.1949 l
0.6891 0.1962 l
0.6900 0.1965 l
0.6909 0.1955 l
0.6919 0.1965 l
0.6928 0.1984 l
0.6937 0.1979 l
0.6947 0.1981 l
0.6956 0.1983 l
0.6966 0.1995 l
0.6975 0.1986 l
0.6984 0.2002 l
0.6994 0.2001 l
0.7003 0.2000 l
0.7012 0.2001 l
0.7022 0.2004 l
0.7031 0.2011 l
0.7041 0.2014 l
0.7050 0.2016 l
0.7059 0.2027 l
0.7069 0.2030 l
0.7078 0.1976 l
0.7087 0.1992 l
0.7097 0.1990 l
0.7106 0.1979 l
0.7116 0.1991 l
0.7125 0.2003 l
0.7134 0.1995 l
0.7144 0.2004 l
0.7153 0.2002 l
0.7162 0.2006 l
0.7172 0.2015 l
0.7181 0.2014 l
0.7191 0.2023 l
0.7200 0.2026 l
0.7209 0.2022 l
0.7219 0.2033 l
0.7228 0.2028 l
0.7237 0.2059 l
0.7247 0.2048 l
0.7256 0.2046 l
0.7266 0.2035 l
0.7275 0.2049 l
0.7284 0.2066 l
0.7294 0.2064 l
0.7303 0.2055 l
0.7312 0.2063 l
0.7322 0.2082 l
0.7331 0.2094 l
0.7341 0.2075 l
0.7350 0.2081 l
0.7359 0.2078 l
0.7369 0.2084 l
0.7378 0.2104 l
0.7387 0.2101 l
0.7397 0.2104 l
0.7406 0.2096 l
0.7416 0.2106 l
0.7425 0.2108 l
0.7434 0.2127 l
0.7444 0.2127 l
0.7453 0.2136 l
0.7462 0.2132 l
0.7472 0.2141 l
0.7481 0.2131 l
0.7491 0.2156 l
0.7500 0.2153 l
0.7509 0.2162 l
0.7519 0.2169 l
0.7528 0.2140 l
0.7537 0.2148 l
0.7547 0.2154 l
0.7556 0.2167 l
0.7566 0.2174 l
0.7575 0.2174 l
0.7584 0.2165 l
0.7594 0.2167 l
0.7603 0.2178 l
0.7612 0.2199 l
0.7622 0.2201 l
0.7631 0.2208 l
0.7641 0.2202 l
0.7650 0.2199 l
0.7659 0.2216 l
0.7669 0.2221 l
0.7678 0.2229 l
0.7687 0.2231 l
0.7697 0.2240 l
0.7706 0.2240 l
0.7716 0.2175 l
0.7725 0.2124 l
0.7734 0.2066 l
0.7744 0.2063 l
0.7753 0.2063 l
0.7762 0.2080 l
0.7772 0.2077 l
0.7781 0.2077 l
0.7791 0.2079 l
0.7800 0.2085 l
0.7809 0.2081 l
0.7819 0.2096 l
0.7828 0.2091 l
0.7837 0.2107 l
0.7847 0.2108 l
0.7856 0.2118 l
0.7866 0.2116 l
0.7875 0.2129 l
0.7884 0.2126 l
0.7894 0.2134 l
0.7903 0.2136 l
0.7912 0.2140 l
0.7922 0.2132 l
0.7931 0.2151 l
0.7941 0.2144 l
0.7950 0.2153 l
0.7959 0.2158 l
0.7969 0.2147 l
0.7978 0.2170 l
0.7987 0.2182 l
0.7997 0.2177 l
0.8006 0.2186 l
0.8016 0.2180 l
0.8025 0.2192 l
0.8034 0.2194 l
0.8044 0.2206 l
0.8053 0.2212 l
0.8062 0.2214 l
0.8072 0.2216 l
0.8081 0.2219 l
0.8091 0.2230 l
0.8100 0.2230 l
0.8109 0.2228 l
0.8119 0.2052 l
0.8128 0.1991 l
0.8137 0.1982 l
0.8147 0.1983 l
0.8156 0.1999 l
0.8166 0.1988 l
0.8175 0.1996 l
0.8184 0.2006 l
0.8194 0.2009 l
0.8203 0.2004 l
0.8212 0.2013 l
0.8222 0.2010 l
0.8231 0.2017 l
0.8241 0.2020 l
0.8250 0.2026 l
0.8259 0.2032 l
0.8269 0.2033 l
0.8278 0.2032 l
0.8287 0.2039 l
0.8297 0.2040 l
0.8306 0.2050 l
0.8316 0.2047 l
0.8325 0.2053 l
0.8334 0.1793 l
0.8344 0.1813 l
0.8353 0.1743 l
0.8362 0.1799 l
0.8372 0.1734 l
0.8381 0.1800 l
0.8391 0.1750 l
0.8400 0.1781 l
0.8409 0.1755 l
0.8419 0.1782 l
0.8428 0.1773 l
0.8437 0.1754 l
0.8447 0.1794 l
0.8456 0.1774 l
0.8466 0.1783 l
0.8475 0.1788 l
0.8484 0.1767 l
0.8494 0.1785 l
0.8503 0.1784 l
0.8512 0.1791 l
0.8522 0.1782 l
0.8531 0.1800 l
0.8541 0.1777 l
0.8550 0.1787 l
0.8559 0.1792 l
0.8569 0.1798 l
0.8578 0.1802 l
0.8587 0.1795 l
0.8597 0.1795 l
0.8606 0.1795 l
0.8616 0.1797 l
0.8625 0.1800 l
0.8634 0.1802 l
0.8644 0.1811 l
0.8653 0.1811 l
0.8662 0.1805 l
0.8672 0.1808 l
0.8681 0.1807 l
0.8691 0.1823 l
0.8700 0.1814 l
0.8709 0.1806 l
0.8719 0.1818 l
0.8728 0.1830 l
0.8737 0.1828 l
0.8747 0.1823 l
0.8756 0.1826 l
0.8766 0.1834 l
0.8775 0.1836 l
0.8784 0.1819 l
0.8794 0.1844 l
0.8803 0.1844 l
0.8812 0.1837 l
0.8822 0.1837 l
0.8831 0.1846 l
0.8841 0.1858 l
0.8850 0.1840 l
0.8859 0.1859 l
0.8869 0.1853 l
0.8878 0.1846 l
0.8887 0.1851 l
0.8897 0.1851 l
0.8906 0.1862 l
0.8916 0.1859 l
0.8925 0.1863 l
0.8934 0.1870 l
0.8944 0.1872 l
0.8953 0.1878 l
0.8962 0.1883 l
0.8972 0.1878 l
0.8981 0.1874 l
0.8991 0.1891 l
0.9000 0.1900 l
0.9009 0.1885 l
0.9019 0.1901 l
0.9028 0.1901 l
0.9037 0.1896 l
0.9047 0.1884 l
0.9056 0.1898 l
0.9066 0.1898 l
0.9075 0.1912 l
0.9084 0.1907 l
0.9094 0.1903 l
0.9103 0.1908 l
0.9112 0.1918 l
0.9122 0.1917 l
0.9131 0.1915 l
0.9141 0.1922 l
0.9150 0.1918 l
0.9159 0.1921 l
0.9169 0.1926 l
0.9178 0.1925 l
0.9187 0.1928 l
0.9197 0.1945 l
0.9206 0.1944 l
0.9216 0.1940 l
0.9225 0.1947 l
0.9234 0.1957 l
0.9244 0.1952 l
0.9253 0.1960 l
0.9262 0.1964 l
0.9272 0.1960 l
0.9281 0.1958 l
0.9291 0.1970 l
0.9300 0.1975 l
0.9309 0.1967 l
0.9319 0.1981 l
0.9328 0.1991 l
0.9337 0.1992 l
0.9347 0.1993 l
0.9356 0.1976 l
0.9366 0.2003 l
0.9375 0.1992 l
0.9384 0.1996 l
0.9394 0.2006 l
0.9403 0.2010 l
0.9412 0.2006 l
0.9422 0.2015 l
0.9431 0.2025 l
0.9441 0.2019 l
0.9450 0.2034 l
0.9459 0.2026 l
0.9469 0.2033 l
0.9478 0.2042 l
0.9487 0.2037 l
0.9497 0.2005 l
0.9506 0.2004 l
0.9516 0.1990 l
0.9525 0.1990 l
0.9534 0.1878 l
0.9544 0.1892 l
0.9553 0.1891 l
0.9562 0.1882 l
0.9572 0.1897 l
0.9581 0.1886 l
0.9591 0.1897 l
0.9600 0.1898 l
0.9609 0.1898 l
0.9619 0.1888 l
0.9628 0.1916 l
0.9637 0.1907 l
0.9647 0.1912 l
0.9656 0.1917 l
0.9666 0.1938 l
0.9675 0.1914 l
0.9684 0.1925 l
0.9694 0.1937 l
0.9703 0.1925 l
0.9712 0.1929 l
0.9722 0.1946 l
0.9731 0.1931 l
0.9741 0.1940 l
0.9750 0.1958 l
0.9759 0.1947 l
0.9769 0.1951 l
0.9778 0.1958 l
0.9787 0.1952 l
0.9797 0.1945 l
0.9806 0.1963 l
0.9816 0.1975 l
0.9825 0.1972 l
0.9834 0.1976 l
0.9844 0.1970 l
0.9853 0.1987 l
0.9862 0.1982 l
0.9872 0.1984 l
0.9881 0.1994 l
0.9891 0.1993 l
0.9900 0.1978 l
0.9909 0.1989 l
0.9919 0.1991 l
0.9928 0.1985 l
0.9937 0.2002 l
0.9947 0.1995 l
0.9956 0.2004 l
0.9966 0.2003 l
0.9975 0.2013 l
0.9984 0.1963 l
0.9994 0.1933 l
1.0003 0.1922 l
1.0012 0.1947 l
1.0022 0.1937 l
1.0031 0.1937 l
1.0041 0.1950 l
1.0050 0.1950 l
1.0059 0.1958 l
1.0069 0.1971 l
1.0078 0.1976 l
1.0087 0.1956 l
1.0097 0.1970 l
1.0106 0.1978 l
1.0116 0.1980 l
1.0125 0.1961 l
1.0134 0.1966 l
1.0144 0.1959 l
1.0153 0.1960 l
1.0162 0.1971 l
1.0172 0.1975 l
1.0181 0.1975 l
1.0191 0.1985 l
1.0200 0.1967 l
1.0209 0.1968 l
1.0219 0.1984 l
1.0228 0.1973 l
1.0237 0.1969 l
1.0247 0.1986 l
1.0256 0.1991 l
1.0266 0.1984 l
1.0275 0.2001 l
1.0284 0.2003 l
1.0294 0.2004 l
1.0303 0.2007 l
1.0312 0.2014 l
1.0322 0.2020 l
1.0331 0.2018 l
1.0341 0.2013 l
1.0350 0.2025 l
1.0359 0.2034 l
1.0369 0.2032 l
1.0378 0.2044 l
1.0387 0.2064 l
1.0397 0.2052 l
1.0406 0.2045 l
1.0416 0.2054 l
1.0425 0.2061 l
1.0434 0.2064 l
1.0444 0.2060 l
1.0453 0.2066 l
1.0462 0.2064 l
1.0472 0.2075 l
1.0481 0.2083 l
1.0491 0.2087 l
1.0500 0.1983 l
1.0509 0.2014 l
1.0519 0.2030 l
1.0528 0.1966 l
1.0537 0.1984 l
1.0547 0.1997 l
1.0556 0.1972 l
1.0566 0.1988 l
1.0575 0.2005 l
1.0584 0.1996 l
1.0594 0.1988 l
1.0603 0.2010 l
1.0612 0.2010 l
1.0622 0.2014 l
1.0631 0.2019 l
1.0641 0.2028 l
1.0650 0.2024 l
1.0659 0.2023 l
1.0669 0.2036 l
1.0678 0.2024 l
1.0687 0.2038 l
1.0697 0.2053 l
1.0706 0.2045 l
1.0716 0.2055 l
1.0725 0.2055 l
1.0734 0.2053 l
1.0744 0.2056 l
1.0753 0.2070 l
1.0762 0.2065 l
1.0772 0.1976 l
1.0781 0.2013 l
1.0791 0.1960 l
1.0800 0.1981 l
1.0809 0.1939 l
1.0819 0.1925 l
1.0828 0.1937 l
1.0837 0.1941 l
1.0847 0.1944 l
1.0856 0.1963 l
1.0866 0.1949 l
1.0875 0.1949 l
1.0881 0.1940 l
s
[/DeviceRGB] SCS
Color1 SC
n
0.1500 0.1500 m
1.1500 0.1500 l
s
n
0.1500 0.8500 m
1.1500 0.8500 l
s
[] 0 SD
0.0015 SLW
n
0.2125 0.1500 m
0.2125 0.1600 l
s
n
0.2125 0.8500 m
0.2125 0.8400 l
s
n
0.3375 0.1500 m
0.3375 0.1600 l
s
n
0.3375 0.8500 m
0.3375 0.8400 l
s
n
0.4625 0.1500 m
0.4625 0.1600 l
s
n
0.4625 0.8500 m
0.4625 0.8400 l
s
n
0.5875 0.1500 m
0.5875 0.1600 l
s
n
0.5875 0.8500 m
0.5875 0.8400 l
s
n
0.7125 0.1500 m
0.7125 0.1600 l
s
n
0.7125 0.8500 m
0.7125 0.8400 l
s
n
0.8375 0.1500 m
0.8375 0.1600 l
s
n
0.8375 0.8500 m
0.8375 0.8400 l
s
n
0.9625 0.1500 m
0.9625 0.1600 l
s
n
0.9625 0.8500 m
0.9625 0.8400 l
s
n
1.0875 0.1500 m
1.0875 0.1600 l
s
n
1.0875 0.8500 m
1.0875 0.8400 l
s
n
0.1500 0.1500 m
0.1500 0.1700 l
s
n
0.1500 0.8500 m
0.1500 0.8300 l
s
n
0.2750 0.1500 m
0.2750 0.1700 l
s
n
0.2750 0.8500 m
0.2750 0.8300 l
s
n
0.4000 0.1500 m
0.4000 0.1700 l
s
n
0.4000 0.8500 m
0.4000 0.8300 l
s
n
0.5250 0.1500 m
0.5250 0.1700 l
s
n
0.5250 0.8500 m
0.5250 0.8300 l
s
n
0.6500 0.1500 m
0.6500 0.1700 l
s
n
0.6500 0.8500 m
0.6500 0.8300 l
s
n
0.7750 0.1500 m
0.7750 0.1700 l
s
n
0.7750 0.8500 m
0.7750 0.8300 l
s
n
0.9000 0.1500 m
0.9000 0.1700 l
s
n
0.9000 0.8500 m
0.9000 0.8300 l
s
n
1.0250 0.1500 m
1.0250 0.1700 l
s
n
1.0250 0.8500 m
1.0250 0.8300 l
s
n
1.1500 0.1500 m
1.1500 0.1700 l
s
n
1.1500 0.8500 m
1.1500 0.8300 l
s
/Times-Roman findfont
dup length dict begin
 {1 index /FID ne {def} {pop pop} ifelse} forall
 /Encoding DefEncoding def
 currentdict
end
/Font60 exch definefont pop
/Font60 FFSF
0.1433 0.1212 m
GS
[0.0280 0.0000 0.0000 0.0280 0 0] CC
(0) show
GR
/Font60 FFSF
0.2589 0.1212 m
GS
[0.0280 0.0000 0.0000 0.0280 0 0] CC
(0.1) show
GR
/Font60 FFSF
0.3827 0.1212 m
GS
[0.0280 0.0000 0.0000 0.0280 0 0] CC
(0.2) show
GR
/Font60 FFSF
0.5083 0.1212 m
GS
[0.0280 0.0000 0.0000 0.0280 0 0] CC
(0.3) show
GR
/Font60 FFSF
0.6327 0.1212 m
GS
[0.0280 0.0000 0.0000 0.0280 0 0] CC
(0.4) show
GR
/Font60 FFSF
0.7583 0.1208 m
GS
[0.0280 0.0000 0.0000 0.0280 0 0] CC
(0.5) show
GR
/Font60 FFSF
0.8829 0.1208 m
GS
[0.0280 0.0000 0.0000 0.0280 0 0] CC
(0.6) show
GR
/Font60 FFSF
1.0081 0.1212 m
GS
[0.0280 0.0000 0.0000 0.0280 0 0] CC
(0.7) show
GR
/Font60 FFSF
1.1331 0.1212 m
GS
[0.0280 0.0000 0.0000 0.0280 0 0] CC
(0.8) show
GR
/Font60 FFSF
0.6167 0.0912 m
GS
[0.0280 0.0000 0.0000 0.0280 0 0] CC
(Strain) show
GR
[] 0 SD
0.0023 SLW
n
0.1500 0.1500 m
0.1500 0.8500 l
s
n
1.1500 0.1500 m
1.1500 0.8500 l
s
[] 0 SD
0.0015 SLW
n
0.1500 0.1938 m
0.1600 0.1938 l
s
n
1.1500 0.1938 m
1.1400 0.1938 l
s
n
0.1500 0.2812 m
0.1600 0.2812 l
s
n
1.1500 0.2812 m
1.1400 0.2812 l
s
n
0.1500 0.3688 m
0.1600 0.3688 l
s
n
1.1500 0.3688 m
1.1400 0.3688 l
s
n
0.1500 0.4562 m
0.1600 0.4562 l
s
n
1.1500 0.4562 m
1.1400 0.4562 l
s
n
0.1500 0.5437 m
0.1600 0.5437 l
s
n
1.1500 0.5437 m
1.1400 0.5437 l
s
n
0.1500 0.6312 m
0.1600 0.6312 l
s
n
1.1500 0.6312 m
1.1400 0.6312 l
s
n
0.1500 0.7188 m
0.1600 0.7188 l
s
n
1.1500 0.7188 m
1.1400 0.7188 l
s
n
0.1500 0.8062 m
0.1600 0.8062 l
s
n
1.1500 0.8062 m
1.1400 0.8062 l
s
n
0.1500 0.1500 m
0.1700 0.1500 l
s
n
1.1500 0.1500 m
1.1300 0.1500 l
s
n
0.1500 0.2375 m
0.1700 0.2375 l
s
n
1.1500 0.2375 m
1.1300 0.2375 l
s
n
0.1500 0.3250 m
0.1700 0.3250 l
s
n
1.1500 0.3250 m
1.1300 0.3250 l
s
n
0.1500 0.4125 m
0.1700 0.4125 l
s
n
1.1500 0.4125 m
1.1300 0.4125 l
s
n
0.1500 0.5000 m
0.1700 0.5000 l
s
n
1.1500 0.5000 m
1.1300 0.5000 l
s
n
0.1500 0.5875 m
0.1700 0.5875 l
s
n
1.1500 0.5875 m
1.1300 0.5875 l
s
n
0.1500 0.6750 m
0.1700 0.6750 l
s
n
1.1500 0.6750 m
1.1300 0.6750 l
s
n
0.1500 0.7625 m
0.1700 0.7625 l
s
n
1.1500 0.7625 m
1.1300 0.7625 l
s
n
0.1500 0.8500 m
0.1700 0.8500 l
s
n
1.1500 0.8500 m
1.1300 0.8500 l
s
/Font60 FFSF
0.1267 0.1408 m
GS
[0.0280 0.0000 0.0000 0.0280 0 0] CC
(0) show
GR
/Font60 FFSF
0.1125 0.2281 m
GS
[0.0280 0.0000 0.0000 0.0280 0 0] CC
(50) show
GR
/Font60 FFSF
0.0988 0.3158 m
GS
[0.0280 0.0000 0.0000 0.0280 0 0] CC
(100) show
GR
/Font60 FFSF
0.0988 0.4031 m
GS
[0.0280 0.0000 0.0000 0.0280 0 0] CC
(150) show
GR
/Font60 FFSF
0.0988 0.4908 m
GS
[0.0280 0.0000 0.0000 0.0280 0 0] CC
(200) show
GR
/Font60 FFSF
0.0988 0.5781 m
GS
[0.0280 0.0000 0.0000 0.0280 0 0] CC
(250) show
GR
/Font60 FFSF
0.0988 0.6658 m
GS
[0.0280 0.0000 0.0000 0.0280 0 0] CC
(300) show
GR
/Font60 FFSF
0.0988 0.7531 m
GS
[0.0280 0.0000 0.0000 0.0280 0 0] CC
(350) show
GR
/Font60 FFSF
0.0988 0.8408 m
GS
[0.0280 0.0000 0.0000 0.0280 0 0] CC
(400) show
GR
/Font60 FFSF
0.0837 0.4339 m
GS
[0.0000 0.0280 -0.0280 0.0000 0 0] CC
(Stress\(GPa\)) show
GR
n
0.1500 0.1500 m
0.1500 0.8500 l
1.1500 0.8500 l
1.1500 0.1500 l
0.1500 0.1500 l
c
s
n
0.7500 0.8000 m
0.7500 0.6957 l
1.1307 0.6957 l
1.1307 0.8000 l
c
[/DeviceRGB] SCS
Color0 SC
fill
[/DeviceRGB] SCS
Color1 SC
n
0.7500 0.8000 m
0.7500 0.6957 l
1.1307 0.6957 l
1.1307 0.8000 l
0.7500 0.8000 l
c
s
/Font60 FFSF
0.8211 0.7708 m
GS
[0.0280 0.0000 0.0000 0.0280 0 0] CC
(Pristine SLGS) show
GR
[] 0 SD
0.0023 SLW
n
0.7611 0.7802 m
0.8011 0.7802 l
s
/Font60 FFSF
0.8211 0.7412 m
GS
[0.0280 0.0000 0.0000 0.0280 0 0] CC
(SLGS with vacancy defect) show
GR
[/DeviceRGB] SCS
Color2 SC
n
0.7611 0.7478 m
0.8011 0.7478 l
s
/Font60 FFSF
[/DeviceRGB] SCS
Color1 SC
0.8211 0.7061 m
GS
[0.0280 0.0000 0.0000 0.0280 0 0] CC
(SLGS with SW defect) show
GR
[/DeviceRGB] SCS
Color4 SC
n
0.7611 0.7155 m
0.8011 0.7155 l
s
%%Trailer
%%BoundingBox: 38 54 716 528
%%DocumentNeededResources: font Times-Roman
%%EOF
