%!PS-Adobe-3.0 EPSF-3.0
%%BoundingBox: (atend)
%%LanguageLevel: 2
%%Creator: Grace-5.1.25
%%CreationDate: Fri Dec 22 14:51:57 2023
%%DocumentData: Clean8Bit
%%Orientation: Portrait
%%Title: Untitled
%%For: amrita
%%DocumentNeededResources: (atend)
%%EndComments
%%BeginProlog
/m {moveto} def
/l {lineto} def
/s {stroke} def
/n {newpath} def
/c {closepath} def
/RL {rlineto} def
/SLW {setlinewidth} def
/GS {gsave} def
/GR {grestore} def
/SC {setcolor} def
/SGRY {setgray} def
/SRGB {setrgbcolor} def
/SD {setdash} def
/SLC {setlinecap} def
/SLJ {setlinejoin} def
/SCS {setcolorspace} def
/FFSF {findfont setfont} def
/CC {concat} def
/PXL {n m 0 0 RL s} def
/Color0 {1.0000 1.0000 1.0000} def
/Color1 {0.0000 0.0000 0.0000} def
/Color2 {1.0000 0.0000 0.0000} def
/Color3 {0.0000 1.0000 0.0000} def
/Color4 {0.0000 0.0000 1.0000} def
/Color5 {1.0000 1.0000 0.0000} def
/Color6 {0.7373 0.5608 0.5608} def
/Color7 {0.8627 0.8627 0.8627} def
/Color8 {0.5804 0.0000 0.8275} def
/Color9 {0.0000 1.0000 1.0000} def
/Color10 {1.0000 0.0000 1.0000} def
/Color11 {1.0000 0.6471 0.0000} def
/Color12 {0.4471 0.1294 0.7373} def
/Color13 {0.4039 0.0275 0.2824} def
/Color14 {0.2510 0.8784 0.8157} def
/Color15 {0.0000 0.5451 0.0000} def
/Color16 {0.7529 0.7529 0.7529} def
/Color17 {0.5059 0.5059 0.5059} def
/Color18 {0.2588 0.2588 0.2588} def
/PTRN {
 /pat_bits exch def 
 <<
  /PaintType 2
  /PatternType 1 /TilingType 1
  /BBox[0 0 16 16]
  /XStep 16 /YStep 16
  /PaintProc {
   pop
   16 16 true [-1 0 0 -1 16 16] pat_bits imagemask
  }
 >>
 [0.0016 0 0 0.0016 0 0]
 makepattern
} def
/Pattern0 {<0000000000000000000000000000000000000000000000000000000000000000> PTRN} bind def
/Pattern1 {<ffffffffffffffffffffffffffffffffffffffffffffffffffffffffffffffff> PTRN} bind def
/Pattern2 {<eeeeffffbbbbffffeeeeffffbbbbffffeeeeffffbbbbffffeeeeffffbbbbffff> PTRN} bind def
/Pattern3 {<eeeebbbbeeeebbbbeeeebbbbeeeebbbbeeeebbbbeeeebbbbeeeebbbbeeeebbbb> PTRN} bind def
/Pattern4 {<5555aaaa5555aaaa5555aaaa5555aaaa5555aaaa5555aaaa5555aaaa5555aaaa> PTRN} bind def
/Pattern5 {<1111444411114444111144441111444411114444111144441111444411114444> PTRN} bind def
/Pattern6 {<1111000044440000111100004444000011110000444400001111000044440000> PTRN} bind def
/Pattern7 {<1010000000000000010100000000000010100000000000000101000000000000> PTRN} bind def
/Pattern8 {<0000000000000000000000000000000000000000000000000000000000000000> PTRN} bind def
/Pattern9 {<1e1e0f0f8787c3c3e1e1f0f078783c3c1e1e0f0f8787c3c3e1e1f0f078783c3c> PTRN} bind def
/Pattern10 {<7878f0f0e1e1c3c387870f0f1e1e3c3c7878f0f0e1e1c3c387870f0f1e1e3c3c> PTRN} bind def
/Pattern11 {<3333333333333333333333333333333333333333333333333333333333333333> PTRN} bind def
/Pattern12 {<ffffffff00000000ffffffff00000000ffffffff00000000ffffffff00000000> PTRN} bind def
/Pattern13 {<8181424224241818181824244242818181814242242418181818242442428181> PTRN} bind def
/Pattern14 {<8080404020201010080804040202010180804040202010100808040402020101> PTRN} bind def
/Pattern15 {<0101020204040808101020204040808001010202040408081010202040408080> PTRN} bind def
/Pattern16 {<2222222222222222222222222222222222222222222222222222222222222222> PTRN} bind def
/Pattern17 {<0000ffff000000000000ffff000000000000ffff000000000000ffff00000000> PTRN} bind def
/Pattern18 {<2222ffff222222222222ffff222222222222ffff222222222222ffff22222222> PTRN} bind def
/Pattern19 {<ffffffff33333333ffffffff33333333ffffffff33333333ffffffff33333333> PTRN} bind def
/Pattern20 {<0f0f0f0f0f0f0f0ff0f0f0f0f0f0f0f00f0f0f0f0f0f0f0ff0f0f0f0f0f0f0f0> PTRN} bind def
/Pattern21 {<ff00ff00ff00ff00ff00ff00ff00ff0000ff00ff00ff00ff00ff00ff00ff00ff> PTRN} bind def
/Pattern22 {<8001800180018001800180018001ffffffff8001800180018001800180018001> PTRN} bind def
/Pattern23 {<c003c003c003c003c003c003ffffffffffffffffc003c003c003c003c003c003> PTRN} bind def
/Pattern24 {<040404040404ffff404040404040ffff040404040404ffff404040404040ffff> PTRN} bind def
/Pattern25 {<180018001800180018001800ffffffff001800180018001800180018ffffffff> PTRN} bind def
/Pattern26 {<1111b8b87c7c3a3a1111a3a3c7c78b8b1111b8b87c7c3a3a1111a3a3c7c78b8b> PTRN} bind def
/Pattern27 {<101010102828c7c70101010182827c7c101010102828c7c70101010182827c7c> PTRN} bind def
/Pattern28 {<1c1c121211112121c1c12121111112121c1c121211112121c1c1212111111212> PTRN} bind def
/Pattern29 {<3e3e414180808080e3e31414080808083e3e414180808080e3e3141408080808> PTRN} bind def
/Pattern30 {<4848888884848383848488884848383848488888848483838484888848483838> PTRN} bind def
/Pattern31 {<03030404080808080c0c12122121c0c003030404080808080c0c12122121c0c0> PTRN} bind def
/ellipsedict 8 dict def
ellipsedict /mtrx matrix put
/EARC {
 ellipsedict begin
  /endangle exch def
  /startangle exch def
  /yrad exch def
  /xrad exch def
  /y exch def
  /x exch def
  /savematrix mtrx currentmatrix def
  x y translate
  xrad yrad scale
  0 0 1 startangle endangle arc
  savematrix setmatrix
 end
} def
/TL {
  /kcomp exch def
  /linewidth exch def
  /offset exch def
  GS
  0 offset rmoveto
  linewidth SLW
  dup stringwidth exch kcomp add exch RL s
  GR
} def
/KINIT
{
 /kvector exch def
 /kid 0 def
} def
/KPROC
{
 pop pop
 kvector kid get
 0 rmoveto
 /kid 1 kid add def
} def
/DefEncoding [
 /.notdef
 /.notdef
 /.notdef
 /.notdef
 /.notdef
 /.notdef
 /.notdef
 /.notdef
 /.notdef
 /.notdef
 /.notdef
 /.notdef
 /.notdef
 /.notdef
 /.notdef
 /.notdef
 /.notdef
 /.notdef
 /.notdef
 /.notdef
 /.notdef
 /.notdef
 /.notdef
 /.notdef
 /.notdef
 /.notdef
 /.notdef
 /.notdef
 /.notdef
 /.notdef
 /.notdef
 /.notdef
 /space
 /exclam
 /quotedbl
 /numbersign
 /dollar
 /percent
 /ampersand
 /quoteright
 /parenleft
 /parenright
 /asterisk
 /plus
 /comma
 /hyphen
 /period
 /slash
 /zero
 /one
 /two
 /three
 /four
 /five
 /six
 /seven
 /eight
 /nine
 /colon
 /semicolon
 /less
 /equal
 /greater
 /question
 /at
 /A
 /B
 /C
 /D
 /E
 /F
 /G
 /H
 /I
 /J
 /K
 /L
 /M
 /N
 /O
 /P
 /Q
 /R
 /S
 /T
 /U
 /V
 /W
 /X
 /Y
 /Z
 /bracketleft
 /backslash
 /bracketright
 /asciicircum
 /underscore
 /grave
 /a
 /b
 /c
 /d
 /e
 /f
 /g
 /h
 /i
 /j
 /k
 /l
 /m
 /n
 /o
 /p
 /q
 /r
 /s
 /t
 /u
 /v
 /w
 /x
 /y
 /z
 /braceleft
 /bar
 /braceright
 /asciitilde
 /.notdef
 /.notdef
 /.notdef
 /.notdef
 /.notdef
 /.notdef
 /.notdef
 /.notdef
 /.notdef
 /.notdef
 /.notdef
 /.notdef
 /.notdef
 /.notdef
 /.notdef
 /.notdef
 /.notdef
 /.notdef
 /.notdef
 /.notdef
 /.notdef
 /.notdef
 /.notdef
 /.notdef
 /.notdef
 /.notdef
 /.notdef
 /.notdef
 /.notdef
 /.notdef
 /.notdef
 /.notdef
 /.notdef
 /space
 /exclamdown
 /cent
 /sterling
 /currency
 /yen
 /brokenbar
 /section
 /dieresis
 /copyright
 /ordfeminine
 /guillemotleft
 /logicalnot
 /hyphen
 /registered
 /macron
 /degree
 /plusminus
 /twosuperior
 /threesuperior
 /acute
 /mu
 /paragraph
 /periodcentered
 /cedilla
 /onesuperior
 /ordmasculine
 /guillemotright
 /onequarter
 /onehalf
 /threequarters
 /questiondown
 /Agrave
 /Aacute
 /Acircumflex
 /Atilde
 /Adieresis
 /Aring
 /AE
 /Ccedilla
 /Egrave
 /Eacute
 /Ecircumflex
 /Edieresis
 /Igrave
 /Iacute
 /Icircumflex
 /Idieresis
 /Eth
 /Ntilde
 /Ograve
 /Oacute
 /Ocircumflex
 /Otilde
 /Odieresis
 /multiply
 /Oslash
 /Ugrave
 /Uacute
 /Ucircumflex
 /Udieresis
 /Yacute
 /Thorn
 /germandbls
 /agrave
 /aacute
 /acircumflex
 /atilde
 /adieresis
 /aring
 /ae
 /ccedilla
 /egrave
 /eacute
 /ecircumflex
 /edieresis
 /igrave
 /iacute
 /icircumflex
 /idieresis
 /eth
 /ntilde
 /ograve
 /oacute
 /ocircumflex
 /otilde
 /odieresis
 /divide
 /oslash
 /ugrave
 /uacute
 /ucircumflex
 /udieresis
 /yacute
 /thorn
 /ydieresis
] def
%%EndProlog
%%BeginSetup
%%EndSetup
612.00 612.00 scale
n
0.0000 0.0000 m
0.0000 1.0000 l
1.2941 1.0000 l
1.2941 0.0000 l
c
[/DeviceRGB] SCS
Color0 SC
fill
[/DeviceRGB] SCS
Color4 SC
[] 0 SD
0.0023 SLW
0 SLC
0 SLJ
n
0.1499 0.3576 m
0.1500 0.2149 l
0.1527 0.2296 l
0.1553 0.1798 l
0.1579 0.2202 l
0.1606 0.1608 l
0.1632 0.1961 l
0.1659 0.2387 l
0.1685 0.2211 l
0.1712 0.1968 l
0.1738 0.2142 l
0.1765 0.2044 l
0.1791 0.1640 l
0.1818 0.1977 l
0.1844 0.1800 l
0.1871 0.2190 l
0.1897 0.1988 l
0.1924 0.1896 l
0.1950 0.2087 l
0.1977 0.2509 l
0.2003 0.1851 l
0.2030 0.1636 l
0.2056 0.2009 l
0.2083 0.2218 l
0.2109 0.1849 l
0.2136 0.1710 l
0.2162 0.1913 l
0.2188 0.1964 l
0.2215 0.2286 l
0.2241 0.2010 l
0.2268 0.1973 l
0.2294 0.1801 l
0.2321 0.1755 l
0.2347 0.1559 l
0.2374 0.2354 l
0.2400 0.2027 l
0.2427 0.1862 l
0.2453 0.1960 l
0.2480 0.1904 l
0.2506 0.1789 l
0.2533 0.1791 l
0.2559 0.1862 l
0.2586 0.1635 l
0.2612 0.1966 l
0.2639 0.2009 l
0.2665 0.1851 l
0.2692 0.2031 l
0.2718 0.1874 l
0.2745 0.2057 l
0.2771 0.1650 l
0.2797 0.2125 l
0.2824 0.1738 l
0.2850 0.1724 l
0.2877 0.1681 l
0.2903 0.1939 l
0.2930 0.1661 l
0.2956 0.1588 l
0.2983 0.1934 l
0.3009 0.2160 l
0.3036 0.1758 l
0.3062 0.1741 l
0.3089 0.1791 l
0.3115 0.2106 l
0.3142 0.2067 l
0.3168 0.2029 l
0.3195 0.1914 l
0.3221 0.2303 l
0.3248 0.1758 l
0.3274 0.2366 l
0.3301 0.1961 l
0.3327 0.1658 l
0.3354 0.1939 l
0.3380 0.2152 l
0.3406 0.1804 l
0.3433 0.2040 l
0.3459 0.1892 l
0.3486 0.2180 l
0.3512 0.2426 l
0.3539 0.2357 l
0.3565 0.2340 l
0.3592 0.2058 l
0.3618 0.1869 l
0.3645 0.1914 l
0.3671 0.1747 l
0.3698 0.2230 l
0.3724 0.2097 l
0.3751 0.2987 l
0.3777 0.1890 l
0.3804 0.2367 l
0.3830 0.1699 l
0.3857 0.1841 l
0.3883 0.2224 l
0.3910 0.2138 l
0.3936 0.2887 l
0.3963 0.2514 l
0.3989 0.2212 l
0.4015 0.2591 l
0.4042 0.2596 l
0.4068 0.1925 l
0.4095 0.2035 l
0.4121 0.2677 l
0.4148 0.1659 l
0.4174 0.2821 l
0.4201 0.1976 l
0.4227 0.2172 l
0.4254 0.2203 l
0.4280 0.1972 l
0.4307 0.2218 l
0.4333 0.2064 l
0.4360 0.2394 l
0.4386 0.3536 l
0.4413 0.2936 l
0.4439 0.2738 l
0.4466 0.2874 l
0.4492 0.2567 l
0.4519 0.2394 l
0.4545 0.1910 l
0.4572 0.3075 l
0.4598 0.3167 l
0.4624 0.2623 l
0.4651 0.1844 l
0.4677 0.2325 l
0.4704 0.2670 l
0.4730 0.1908 l
0.4757 0.2363 l
0.4783 0.2245 l
0.4810 0.2585 l
0.4836 0.1935 l
0.4863 0.2407 l
0.4889 0.3365 l
0.4916 0.2857 l
0.4942 0.1862 l
0.4969 0.2178 l
0.4995 0.1795 l
0.5022 0.2353 l
0.5048 0.2621 l
0.5075 0.3816 l
0.5101 0.3172 l
0.5128 0.1757 l
0.5154 0.2210 l
0.5181 0.2779 l
0.5207 0.2975 l
0.5233 0.2410 l
0.5260 0.3130 l
0.5286 0.1914 l
0.5313 0.3881 l
0.5339 0.1836 l
0.5366 0.3459 l
0.5392 0.2312 l
0.5419 0.3527 l
0.5445 0.1815 l
0.5472 0.2345 l
0.5498 0.1787 l
0.5525 0.2554 l
0.5551 0.3177 l
0.5578 0.3566 l
0.5604 0.3758 l
0.5631 0.2792 l
0.5657 0.3399 l
0.5684 0.3076 l
0.5710 0.1942 l
0.5737 0.2280 l
0.5763 0.3291 l
0.5790 0.2648 l
0.5816 0.2946 l
0.5842 0.2240 l
0.5869 0.3029 l
0.5895 0.1817 l
0.5922 0.3402 l
0.5948 0.2088 l
0.5975 0.3835 l
0.6001 0.3061 l
0.6028 0.2016 l
0.6054 0.2704 l
0.6081 0.2549 l
0.6107 0.3307 l
0.6134 0.2678 l
0.6160 0.3221 l
0.6187 0.3149 l
0.6213 0.2710 l
0.6240 0.3199 l
0.6266 0.1614 l
0.6293 0.3137 l
0.6319 0.3726 l
0.6346 0.3910 l
0.6372 0.4215 l
0.6399 0.2474 l
0.6425 0.3483 l
0.6451 0.3857 l
0.6478 0.3612 l
0.6504 0.2177 l
0.6531 0.4124 l
0.6557 0.2742 l
0.6584 0.2757 l
0.6610 0.2450 l
0.6637 0.2648 l
0.6663 0.2382 l
0.6690 0.3355 l
0.6716 0.2098 l
0.6743 0.2185 l
0.6769 0.3350 l
0.6796 0.2543 l
0.6822 0.2227 l
0.6849 0.2794 l
0.6875 0.3471 l
0.6902 0.3655 l
0.6928 0.2514 l
0.6955 0.1674 l
0.6981 0.1947 l
0.7008 0.2400 l
0.7034 0.2014 l
0.7060 0.2292 l
0.7087 0.2722 l
0.7113 0.1761 l
0.7140 0.2114 l
0.7166 0.2826 l
0.7193 0.1589 l
0.7219 0.3059 l
0.7246 0.2149 l
0.7272 0.2117 l
0.7299 0.2245 l
0.7325 0.2219 l
0.7352 0.1696 l
0.7378 0.2338 l
0.7405 0.2066 l
0.7431 0.2193 l
0.7458 0.2466 l
0.7484 0.2011 l
0.7511 0.2235 l
0.7537 0.2480 l
0.7564 0.1734 l
0.7590 0.2338 l
0.7617 0.2256 l
0.7643 0.1791 l
0.7669 0.2491 l
0.7696 0.3254 l
0.7722 0.1947 l
0.7749 0.2442 l
0.7775 0.1838 l
0.7802 0.1843 l
0.7828 0.1938 l
0.7855 0.2293 l
0.7881 0.2205 l
0.7908 0.2443 l
0.7934 0.2361 l
0.7961 0.1945 l
0.7987 0.1940 l
0.8014 0.1803 l
0.8040 0.2086 l
0.8067 0.1820 l
0.8093 0.2295 l
0.8120 0.2448 l
0.8146 0.1794 l
0.8173 0.2281 l
0.8199 0.1797 l
0.8226 0.1710 l
0.8252 0.2644 l
0.8279 0.2562 l
0.8305 0.2705 l
0.8331 0.1755 l
0.8358 0.2103 l
0.8384 0.1726 l
0.8411 0.1809 l
0.8437 0.1953 l
0.8464 0.1931 l
0.8490 0.1815 l
0.8517 0.2012 l
0.8543 0.2047 l
0.8570 0.1792 l
0.8596 0.1903 l
0.8623 0.1811 l
0.8649 0.1725 l
0.8676 0.1727 l
0.8702 0.2502 l
0.8729 0.1862 l
0.8755 0.1786 l
0.8782 0.1974 l
0.8808 0.1805 l
0.8835 0.1841 l
0.8861 0.2489 l
0.8888 0.2421 l
0.8914 0.2375 l
0.8940 0.1850 l
0.8967 0.1719 l
0.8993 0.2124 l
0.9020 0.2459 l
0.9046 0.2373 l
0.9073 0.3152 l
0.9099 0.1942 l
0.9126 0.1927 l
0.9152 0.2266 l
0.9179 0.3253 l
0.9205 0.1920 l
0.9232 0.2020 l
0.9258 0.1820 l
0.9285 0.2377 l
0.9311 0.2905 l
0.9338 0.2317 l
0.9364 0.2317 l
0.9391 0.1983 l
0.9417 0.2536 l
0.9444 0.2706 l
0.9470 0.1940 l
0.9497 0.2090 l
0.9523 0.2074 l
0.9549 0.2115 l
0.9576 0.1971 l
0.9602 0.2266 l
0.9629 0.1722 l
0.9655 0.1723 l
0.9682 0.2342 l
0.9708 0.2237 l
0.9735 0.2457 l
0.9761 0.1755 l
0.9788 0.2479 l
0.9814 0.2058 l
0.9841 0.2534 l
0.9867 0.2139 l
0.9894 0.2290 l
0.9920 0.2075 l
0.9947 0.2086 l
0.9973 0.1841 l
1.0000 0.2417 l
1.0026 0.2667 l
1.0053 0.1732 l
1.0079 0.1902 l
1.0106 0.1868 l
1.0132 0.2878 l
1.0158 0.2061 l
1.0185 0.1929 l
1.0211 0.2251 l
1.0238 0.2383 l
1.0264 0.2107 l
1.0291 0.1822 l
1.0317 0.2250 l
1.0344 0.2513 l
1.0370 0.2071 l
1.0397 0.1834 l
1.0423 0.1776 l
1.0450 0.2592 l
1.0476 0.1719 l
1.0503 0.2324 l
1.0529 0.1998 l
1.0556 0.1716 l
1.0582 0.2287 l
1.0609 0.2139 l
1.0635 0.1924 l
1.0662 0.1955 l
1.0688 0.1853 l
1.0715 0.2343 l
1.0741 0.1626 l
1.0767 0.1706 l
1.0794 0.1891 l
1.0820 0.1937 l
1.0847 0.1807 l
1.0873 0.1795 l
1.0900 0.1538 l
1.0926 0.1980 l
1.0953 0.2200 l
1.0979 0.1839 l
1.1006 0.1625 l
1.1032 0.2145 l
1.1059 0.1978 l
1.1085 0.1887 l
1.1112 0.2160 l
1.1138 0.2657 l
1.1165 0.1803 l
1.1191 0.1747 l
1.1218 0.1881 l
1.1244 0.1979 l
1.1271 0.2047 l
1.1297 0.1725 l
1.1324 0.1861 l
1.1350 0.2064 l
1.1376 0.1726 l
1.1403 0.1728 l
1.1429 0.1859 l
1.1456 0.1808 l
1.1482 0.1789 l
1.1501 0.1892 l
s
[/DeviceRGB] SCS
Color2 SC
n
0.1499 0.2457 m
0.1500 0.2138 l
0.1527 0.2335 l
0.1553 0.2407 l
0.1579 0.1978 l
0.1606 0.2293 l
0.1632 0.1611 l
0.1659 0.2717 l
0.1685 0.2230 l
0.1712 0.2372 l
0.1738 0.1700 l
0.1765 0.1603 l
0.1791 0.1780 l
0.1818 0.2359 l
0.1844 0.1815 l
0.1871 0.2030 l
0.1897 0.2410 l
0.1924 0.1584 l
0.1950 0.1756 l
0.1977 0.2171 l
0.2003 0.1771 l
0.2030 0.2039 l
0.2056 0.1566 l
0.2083 0.1620 l
0.2109 0.2003 l
0.2136 0.1874 l
0.2162 0.1706 l
0.2188 0.1723 l
0.2215 0.1783 l
0.2241 0.1752 l
0.2268 0.2124 l
0.2294 0.1846 l
0.2321 0.1780 l
0.2347 0.1888 l
0.2374 0.2007 l
0.2400 0.2101 l
0.2427 0.2192 l
0.2453 0.2267 l
0.2480 0.1559 l
0.2506 0.1982 l
0.2533 0.2540 l
0.2559 0.1861 l
0.2586 0.1669 l
0.2612 0.1625 l
0.2639 0.1879 l
0.2665 0.2256 l
0.2692 0.2140 l
0.2718 0.2433 l
0.2745 0.2945 l
0.2771 0.2346 l
0.2797 0.1860 l
0.2824 0.3152 l
0.2850 0.2046 l
0.2877 0.1875 l
0.2903 0.2257 l
0.2930 0.2742 l
0.2956 0.3194 l
0.2983 0.3735 l
0.3009 0.3765 l
0.3036 0.3997 l
0.3062 0.3635 l
0.3089 0.3237 l
0.3115 0.2867 l
0.3142 0.3334 l
0.3168 0.2143 l
0.3195 0.2995 l
0.3221 0.2696 l
0.3248 0.1783 l
0.3274 0.3176 l
0.3301 0.1804 l
0.3327 0.2505 l
0.3354 0.3710 l
0.3380 0.2522 l
0.3406 0.2235 l
0.3433 0.2468 l
0.3459 0.2980 l
0.3486 0.3064 l
0.3512 0.2787 l
0.3539 0.2616 l
0.3565 0.2517 l
0.3592 0.1915 l
0.3618 0.2336 l
0.3645 0.2400 l
0.3671 0.2054 l
0.3698 0.2366 l
0.3724 0.2850 l
0.3751 0.2299 l
0.3777 0.2464 l
0.3804 0.1795 l
0.3830 0.2686 l
0.3857 0.1956 l
0.3883 0.2856 l
0.3910 0.2817 l
0.3936 0.1684 l
0.3963 0.2317 l
0.3989 0.1999 l
0.4015 0.2440 l
0.4042 0.2244 l
0.4068 0.1669 l
0.4095 0.2502 l
0.4121 0.1804 l
0.4148 0.2551 l
0.4174 0.3237 l
0.4201 0.2772 l
0.4227 0.2302 l
0.4254 0.1911 l
0.4280 0.2498 l
0.4307 0.3283 l
0.4333 0.3483 l
0.4360 0.1847 l
0.4386 0.2364 l
0.4413 0.1533 l
0.4439 0.3453 l
0.4466 0.2159 l
0.4492 0.2366 l
0.4519 0.2430 l
0.4545 0.3140 l
0.4572 0.3327 l
0.4598 0.1770 l
0.4624 0.2446 l
0.4651 0.2339 l
0.4677 0.2576 l
0.4704 0.2574 l
0.4730 0.2632 l
0.4757 0.3028 l
0.4783 0.2434 l
0.4810 0.1665 l
0.4836 0.1980 l
0.4863 0.3960 l
0.4889 0.3466 l
0.4916 0.2622 l
0.4942 0.1963 l
0.4969 0.2386 l
0.4995 0.2743 l
0.5022 0.2523 l
0.5048 0.1509 l
0.5075 0.1899 l
0.5101 0.2004 l
0.5128 0.2560 l
0.5154 0.1957 l
0.5181 0.3160 l
0.5207 0.2023 l
0.5233 0.1665 l
0.5260 0.2754 l
0.5286 0.2175 l
0.5313 0.3139 l
0.5339 0.2529 l
0.5366 0.1974 l
0.5392 0.1849 l
0.5419 0.2139 l
0.5445 0.1618 l
0.5472 0.1904 l
0.5498 0.2379 l
0.5525 0.1700 l
0.5551 0.2732 l
0.5578 0.2793 l
0.5604 0.2149 l
0.5631 0.2187 l
0.5657 0.1726 l
0.5684 0.2334 l
0.5710 0.2214 l
0.5737 0.1719 l
0.5763 0.1959 l
0.5790 0.1800 l
0.5816 0.1813 l
0.5842 0.2194 l
0.5869 0.2160 l
0.5895 0.1774 l
0.5922 0.1655 l
0.5948 0.1573 l
0.5975 0.1745 l
0.6001 0.1915 l
0.6028 0.1921 l
0.6054 0.2046 l
0.6081 0.1654 l
0.6107 0.1612 l
0.6134 0.2121 l
0.6160 0.1645 l
0.6187 0.1857 l
0.6213 0.1904 l
0.6240 0.1632 l
0.6266 0.1773 l
0.6293 0.1900 l
0.6319 0.1985 l
0.6346 0.1799 l
0.6372 0.1742 l
0.6399 0.1839 l
0.6425 0.1813 l
0.6451 0.1619 l
0.6478 0.1692 l
0.6504 0.2008 l
0.6531 0.2051 l
0.6557 0.1732 l
0.6584 0.1982 l
0.6610 0.1784 l
0.6637 0.2003 l
0.6663 0.1634 l
0.6690 0.1749 l
0.6716 0.1590 l
0.6743 0.1739 l
0.6769 0.1819 l
0.6796 0.1862 l
0.6822 0.1835 l
0.6849 0.1686 l
0.6875 0.1669 l
0.6902 0.1571 l
0.6928 0.1663 l
0.6955 0.1780 l
0.6981 0.1791 l
0.7008 0.1523 l
0.7034 0.1727 l
0.7060 0.1667 l
0.7087 0.1675 l
0.7113 0.1699 l
0.7140 0.1856 l
0.7166 0.1670 l
0.7193 0.1624 l
0.7219 0.1971 l
0.7246 0.1613 l
0.7272 0.1591 l
0.7299 0.1689 l
0.7325 0.1673 l
0.7352 0.1525 l
0.7378 0.1786 l
0.7405 0.1714 l
0.7431 0.1936 l
0.7458 0.1745 l
0.7484 0.1668 l
0.7511 0.1644 l
0.7537 0.1573 l
0.7564 0.1748 l
0.7590 0.1667 l
0.7617 0.1698 l
0.7643 0.1558 l
0.7669 0.1845 l
0.7696 0.1689 l
0.7722 0.1620 l
0.7749 0.1588 l
0.7775 0.1633 l
0.7802 0.1997 l
0.7828 0.1705 l
0.7855 0.1571 l
0.7881 0.1503 l
0.7908 0.1668 l
0.7934 0.1776 l
0.7961 0.1757 l
0.7987 0.1753 l
0.8014 0.1562 l
0.8040 0.1689 l
0.8067 0.1978 l
0.8093 0.1763 l
0.8120 0.1869 l
0.8146 0.1746 l
0.8173 0.1599 l
0.8199 0.1723 l
0.8226 0.1976 l
0.8252 0.1599 l
0.8279 0.1729 l
0.8305 0.1674 l
0.8331 0.2050 l
0.8358 0.1741 l
0.8384 0.1933 l
0.8411 0.1945 l
0.8437 0.1918 l
0.8464 0.1616 l
0.8490 0.1735 l
0.8517 0.1841 l
0.8543 0.1695 l
0.8570 0.1631 l
0.8596 0.1700 l
0.8623 0.2014 l
0.8649 0.2045 l
0.8676 0.2158 l
0.8702 0.1663 l
0.8729 0.1748 l
0.8755 0.2268 l
0.8782 0.2016 l
0.8808 0.1589 l
0.8835 0.1985 l
0.8861 0.2121 l
0.8888 0.1606 l
0.8914 0.1918 l
0.8940 0.1802 l
0.8967 0.1865 l
0.8993 0.2124 l
0.9020 0.1826 l
0.9046 0.1930 l
0.9073 0.1617 l
0.9099 0.1567 l
0.9126 0.1841 l
0.9152 0.2225 l
0.9179 0.1786 l
0.9205 0.1940 l
0.9232 0.1552 l
0.9258 0.1827 l
0.9285 0.1736 l
0.9311 0.1590 l
0.9338 0.2068 l
0.9364 0.1673 l
0.9391 0.1729 l
0.9417 0.1917 l
0.9444 0.1646 l
0.9470 0.1558 l
0.9497 0.1882 l
0.9523 0.1638 l
0.9549 0.1760 l
0.9576 0.1750 l
0.9602 0.1756 l
0.9629 0.1688 l
0.9655 0.1820 l
0.9682 0.1637 l
0.9708 0.1807 l
0.9735 0.1621 l
0.9761 0.1668 l
0.9788 0.1575 l
0.9814 0.1663 l
0.9841 0.1689 l
0.9867 0.1801 l
0.9894 0.1775 l
0.9920 0.1772 l
0.9947 0.1695 l
0.9973 0.1797 l
1.0000 0.1711 l
1.0026 0.1614 l
1.0053 0.1701 l
1.0079 0.1715 l
1.0106 0.1744 l
1.0132 0.1741 l
1.0158 0.1735 l
1.0185 0.1549 l
1.0211 0.1576 l
1.0238 0.1608 l
1.0264 0.1904 l
1.0291 0.1649 l
1.0317 0.1729 l
1.0344 0.1801 l
1.0370 0.1534 l
1.0397 0.1765 l
1.0423 0.1795 l
1.0450 0.1735 l
1.0476 0.1706 l
1.0503 0.1715 l
1.0529 0.1589 l
1.0556 0.1626 l
1.0582 0.1546 l
1.0609 0.1600 l
1.0635 0.1674 l
1.0662 0.1736 l
1.0688 0.1613 l
1.0715 0.1610 l
1.0741 0.1556 l
1.0767 0.1720 l
1.0794 0.1798 l
1.0820 0.1718 l
1.0847 0.1673 l
1.0873 0.1615 l
1.0900 0.1682 l
1.0926 0.1644 l
1.0953 0.1641 l
1.0979 0.1658 l
1.1006 0.1655 l
1.1032 0.1827 l
1.1059 0.1652 l
1.1085 0.1565 l
1.1112 0.1831 l
1.1138 0.1750 l
1.1165 0.1671 l
1.1191 0.1669 l
1.1218 0.1652 l
1.1244 0.1575 l
1.1271 0.1751 l
1.1297 0.1571 l
1.1324 0.1618 l
1.1350 0.1710 l
1.1376 0.1757 l
1.1403 0.1570 l
1.1429 0.1815 l
1.1456 0.1745 l
1.1482 0.1905 l
1.1501 0.1698 l
s
[/DeviceRGB] SCS
Color1 SC
n
0.1499 0.3023 m
0.1500 0.1705 l
0.1527 0.1611 l
0.1553 0.1686 l
0.1579 0.1829 l
0.1606 0.1818 l
0.1632 0.1575 l
0.1659 0.1696 l
0.1685 0.1788 l
0.1712 0.1861 l
0.1738 0.1780 l
0.1765 0.1717 l
0.1791 0.1556 l
0.1818 0.1691 l
0.1844 0.1835 l
0.1871 0.1798 l
0.1897 0.1850 l
0.1924 0.1747 l
0.1950 0.1646 l
0.1977 0.1701 l
0.2003 0.1565 l
0.2030 0.1788 l
0.2056 0.1534 l
0.2083 0.1886 l
0.2109 0.1770 l
0.2136 0.1908 l
0.2162 0.1712 l
0.2188 0.1531 l
0.2215 0.1643 l
0.2241 0.1544 l
0.2268 0.1651 l
0.2294 0.1758 l
0.2321 0.1615 l
0.2347 0.1933 l
0.2374 0.1744 l
0.2400 0.1667 l
0.2427 0.1611 l
0.2453 0.1646 l
0.2480 0.1730 l
0.2506 0.1637 l
0.2533 0.1667 l
0.2559 0.1740 l
0.2586 0.1604 l
0.2612 0.1627 l
0.2639 0.1531 l
0.2665 0.1669 l
0.2692 0.1692 l
0.2718 0.1735 l
0.2745 0.1657 l
0.2771 0.1650 l
0.2797 0.1970 l
0.2824 0.1693 l
0.2850 0.1685 l
0.2877 0.1690 l
0.2903 0.1724 l
0.2930 0.1754 l
0.2956 0.1663 l
0.2983 0.1626 l
0.3009 0.1529 l
0.3036 0.1894 l
0.3062 0.1600 l
0.3089 0.1680 l
0.3115 0.1809 l
0.3142 0.1808 l
0.3168 0.1629 l
0.3195 0.1864 l
0.3221 0.1803 l
0.3248 0.1644 l
0.3274 0.1556 l
0.3301 0.1586 l
0.3327 0.1863 l
0.3354 0.1600 l
0.3380 0.1701 l
0.3406 0.1976 l
0.3433 0.1587 l
0.3459 0.1641 l
0.3486 0.1673 l
0.3512 0.1858 l
0.3539 0.1730 l
0.3565 0.2018 l
0.3592 0.1712 l
0.3618 0.1670 l
0.3645 0.1699 l
0.3671 0.1673 l
0.3698 0.1845 l
0.3724 0.1730 l
0.3751 0.1592 l
0.3777 0.1924 l
0.3804 0.1747 l
0.3830 0.1659 l
0.3857 0.1744 l
0.3883 0.1617 l
0.3910 0.1641 l
0.3936 0.1686 l
0.3963 0.1555 l
0.3989 0.1628 l
0.4015 0.1966 l
0.4042 0.1631 l
0.4068 0.2112 l
0.4095 0.1744 l
0.4121 0.1926 l
0.4148 0.1565 l
0.4174 0.1776 l
0.4201 0.1791 l
0.4227 0.1650 l
0.4254 0.1647 l
0.4280 0.1668 l
0.4307 0.1661 l
0.4333 0.1681 l
0.4360 0.1569 l
0.4386 0.1566 l
0.4413 0.1718 l
0.4439 0.1762 l
0.4466 0.1693 l
0.4492 0.1854 l
0.4519 0.1722 l
0.4545 0.1614 l
0.4572 0.1789 l
0.4598 0.1882 l
0.4624 0.1744 l
0.4651 0.1744 l
0.4677 0.1702 l
0.4704 0.1556 l
0.4730 0.1594 l
0.4757 0.1551 l
0.4783 0.1587 l
0.4810 0.1762 l
0.4836 0.1804 l
0.4863 0.1583 l
0.4889 0.1612 l
0.4916 0.1657 l
0.4942 0.1832 l
0.4969 0.1710 l
0.4995 0.1835 l
0.5022 0.1582 l
0.5048 0.2071 l
0.5075 0.1797 l
0.5101 0.1829 l
0.5128 0.1693 l
0.5154 0.1890 l
0.5181 0.1601 l
0.5207 0.1942 l
0.5233 0.1835 l
0.5260 0.1816 l
0.5286 0.1854 l
0.5313 0.1878 l
0.5339 0.1697 l
0.5366 0.2015 l
0.5392 0.1680 l
0.5419 0.1752 l
0.5445 0.1810 l
0.5472 0.1929 l
0.5498 0.1896 l
0.5525 0.1854 l
0.5551 0.1864 l
0.5578 0.2009 l
0.5604 0.1940 l
0.5631 0.1632 l
0.5657 0.1776 l
0.5684 0.1681 l
0.5710 0.1814 l
0.5737 0.1757 l
0.5763 0.1922 l
0.5790 0.1720 l
0.5816 0.1885 l
0.5842 0.1788 l
0.5869 0.1674 l
0.5895 0.2244 l
0.5922 0.1775 l
0.5948 0.2259 l
0.5975 0.1727 l
0.6001 0.2400 l
0.6028 0.1971 l
0.6054 0.1849 l
0.6081 0.1675 l
0.6107 0.1736 l
0.6134 0.2400 l
0.6160 0.2503 l
0.6187 0.1769 l
0.6213 0.1574 l
0.6240 0.1939 l
0.6266 0.1773 l
0.6293 0.1697 l
0.6319 0.1731 l
0.6346 0.1846 l
0.6372 0.2218 l
0.6399 0.2099 l
0.6425 0.2472 l
0.6451 0.2094 l
0.6478 0.2425 l
0.6504 0.2383 l
0.6531 0.2154 l
0.6557 0.1964 l
0.6584 0.2723 l
0.6610 0.1946 l
0.6637 0.2747 l
0.6663 0.1935 l
0.6690 0.2047 l
0.6716 0.2630 l
0.6743 0.1833 l
0.6769 0.2357 l
0.6796 0.1720 l
0.6822 0.2209 l
0.6849 0.1690 l
0.6875 0.2037 l
0.6902 0.1722 l
0.6928 0.2902 l
0.6955 0.2761 l
0.6981 0.3214 l
0.7008 0.3121 l
0.7034 0.3414 l
0.7060 0.2884 l
0.7087 0.4716 l
0.7113 0.3866 l
0.7140 0.4270 l
0.7166 0.2004 l
0.7193 0.3432 l
0.7219 0.3032 l
0.7246 0.3198 l
0.7272 0.5246 l
0.7299 0.2313 l
0.7325 0.4315 l
0.7352 0.2488 l
0.7378 0.3322 l
0.7405 0.3885 l
0.7431 0.3410 l
0.7458 0.2555 l
0.7484 0.2337 l
0.7511 0.2885 l
0.7537 0.2165 l
0.7564 0.3247 l
0.7590 0.3081 l
0.7617 0.3927 l
0.7643 0.2320 l
0.7669 0.3580 l
0.7696 0.2340 l
0.7722 0.3248 l
0.7749 0.3703 l
0.7775 0.3155 l
0.7802 0.3676 l
0.7828 0.1956 l
0.7855 0.3467 l
0.7881 0.4342 l
0.7908 0.2382 l
0.7934 0.2581 l
0.7961 0.2944 l
0.7987 0.2730 l
0.8014 0.2551 l
0.8040 0.1934 l
0.8067 0.2196 l
0.8093 0.1927 l
0.8120 0.2469 l
0.8146 0.2176 l
0.8173 0.2094 l
0.8199 0.2796 l
0.8226 0.2697 l
0.8252 0.2514 l
0.8279 0.3564 l
0.8305 0.2551 l
0.8331 0.1867 l
0.8358 0.2624 l
0.8384 0.2253 l
0.8411 0.2328 l
0.8437 0.2217 l
0.8464 0.2030 l
0.8490 0.1974 l
0.8517 0.2263 l
0.8543 0.1624 l
0.8570 0.2188 l
0.8596 0.1893 l
0.8623 0.1635 l
0.8649 0.1716 l
0.8676 0.1802 l
0.8702 0.1736 l
0.8729 0.1905 l
0.8755 0.1939 l
0.8782 0.1794 l
0.8808 0.1958 l
0.8835 0.1769 l
0.8861 0.1551 l
0.8888 0.1838 l
0.8914 0.1594 l
0.8940 0.1767 l
0.8967 0.2071 l
0.8993 0.1866 l
0.9020 0.1814 l
0.9046 0.1757 l
0.9073 0.1815 l
0.9099 0.1768 l
0.9126 0.1697 l
0.9152 0.1663 l
0.9179 0.1675 l
0.9205 0.1898 l
0.9232 0.2024 l
0.9258 0.1640 l
0.9285 0.1751 l
0.9311 0.1894 l
0.9338 0.2123 l
0.9364 0.1729 l
0.9391 0.2034 l
0.9417 0.1632 l
0.9444 0.1930 l
0.9470 0.1896 l
0.9497 0.1513 l
0.9523 0.2058 l
0.9549 0.1793 l
0.9576 0.1539 l
0.9602 0.1545 l
0.9629 0.1703 l
0.9655 0.1589 l
0.9682 0.1766 l
0.9708 0.1748 l
0.9735 0.1715 l
0.9761 0.1583 l
0.9788 0.1638 l
0.9814 0.1699 l
0.9841 0.1743 l
0.9867 0.1987 l
0.9894 0.1798 l
0.9920 0.2103 l
0.9947 0.1663 l
0.9973 0.1632 l
1.0000 0.1568 l
1.0026 0.1895 l
1.0053 0.1784 l
1.0079 0.1787 l
1.0106 0.2154 l
1.0132 0.1824 l
1.0158 0.1641 l
1.0185 0.1639 l
1.0211 0.1727 l
1.0238 0.1599 l
1.0264 0.1844 l
1.0291 0.1851 l
1.0317 0.2209 l
1.0344 0.1863 l
1.0370 0.1949 l
1.0397 0.1902 l
1.0423 0.1813 l
1.0450 0.1689 l
1.0476 0.2059 l
1.0503 0.2063 l
1.0529 0.1605 l
1.0556 0.2098 l
1.0582 0.1705 l
1.0609 0.2136 l
1.0635 0.1926 l
1.0662 0.2177 l
1.0688 0.1905 l
1.0715 0.1913 l
1.0741 0.1946 l
1.0767 0.1767 l
1.0794 0.1812 l
1.0820 0.1784 l
1.0847 0.1537 l
1.0873 0.1868 l
1.0900 0.1838 l
1.0926 0.1812 l
1.0953 0.2172 l
1.0979 0.2090 l
1.1006 0.1563 l
1.1032 0.1634 l
1.1059 0.1872 l
1.1085 0.1715 l
1.1112 0.1766 l
1.1138 0.1783 l
1.1165 0.1838 l
1.1191 0.1918 l
1.1218 0.1706 l
1.1244 0.1868 l
1.1271 0.1855 l
1.1297 0.1919 l
1.1324 0.2012 l
1.1350 0.1837 l
1.1376 0.1858 l
1.1403 0.1746 l
1.1429 0.1956 l
1.1456 0.1711 l
1.1482 0.2097 l
1.1501 0.1715 l
s
n
0.1500 0.1500 m
1.1500 0.1500 l
s
n
0.1500 0.8500 m
1.1500 0.8500 l
s
[] 0 SD
0.0015 SLW
n
0.2796 0.1500 m
0.2796 0.1600 l
s
n
0.2796 0.8500 m
0.2796 0.8400 l
s
n
0.5441 0.1500 m
0.5441 0.1600 l
s
n
0.5441 0.8500 m
0.5441 0.8400 l
s
n
0.8087 0.1500 m
0.8087 0.1600 l
s
n
0.8087 0.8500 m
0.8087 0.8400 l
s
n
1.0732 0.1500 m
1.0732 0.1600 l
s
n
1.0732 0.8500 m
1.0732 0.8400 l
s
n
0.4119 0.1500 m
0.4119 0.1700 l
s
n
0.4119 0.8500 m
0.4119 0.8300 l
s
n
0.6764 0.1500 m
0.6764 0.1700 l
s
n
0.6764 0.8500 m
0.6764 0.8300 l
s
n
0.9409 0.1500 m
0.9409 0.1700 l
s
n
0.9409 0.8500 m
0.9409 0.8300 l
s
/Times-Roman findfont
dup length dict begin
 {1 index /FID ne {def} {pop pop} ifelse} forall
 /Encoding DefEncoding def
 currentdict
end
/Font60 exch definefont pop
/Font60 FFSF
0.3958 0.1212 m
GS
[0.0280 0.0000 0.0000 0.0280 0 0] CC
(0.1) show
GR
/Font60 FFSF
0.6591 0.1212 m
GS
[0.0280 0.0000 0.0000 0.0280 0 0] CC
(0.2) show
GR
/Font60 FFSF
0.9242 0.1212 m
GS
[0.0280 0.0000 0.0000 0.0280 0 0] CC
(0.3) show
GR
/Font60 FFSF
0.5575 0.0920 m
GS
[0.0280 0.0000 0.0000 0.0280 0 0] CC
(Frequency\(THz\)) show
GR
[] 0 SD
0.0023 SLW
n
0.1500 0.1500 m
0.1500 0.8500 l
s
n
1.1500 0.1500 m
1.1500 0.8500 l
s
[] 0 SD
0.0015 SLW
n
0.1500 0.2311 m
0.1600 0.2311 l
s
n
1.1500 0.2311 m
1.1400 0.2311 l
s
n
0.1500 0.3933 m
0.1600 0.3933 l
s
n
1.1500 0.3933 m
1.1400 0.3933 l
s
n
0.1500 0.5555 m
0.1600 0.5555 l
s
n
1.1500 0.5555 m
1.1400 0.5555 l
s
n
0.1500 0.7177 m
0.1600 0.7177 l
s
n
1.1500 0.7177 m
1.1400 0.7177 l
s
n
0.1500 0.1500 m
0.1700 0.1500 l
s
n
1.1500 0.1500 m
1.1300 0.1500 l
s
n
0.1500 0.3122 m
0.1700 0.3122 l
s
n
1.1500 0.3122 m
1.1300 0.3122 l
s
n
0.1500 0.4744 m
0.1700 0.4744 l
s
n
1.1500 0.4744 m
1.1300 0.4744 l
s
n
0.1500 0.6366 m
0.1700 0.6366 l
s
n
1.1500 0.6366 m
1.1300 0.6366 l
s
n
0.1500 0.7988 m
0.1700 0.7988 l
s
n
1.1500 0.7988 m
1.1300 0.7988 l
s
/Font60 FFSF
0.1267 0.1408 m
GS
[0.0280 0.0000 0.0000 0.0280 0 0] CC
(0) show
GR
/Font60 FFSF
0.0918 0.3030 m
GS
[0.0280 0.0000 0.0000 0.0280 0 0] CC
(0.02) show
GR
/Font60 FFSF
0.0918 0.4652 m
GS
[0.0280 0.0000 0.0000 0.0280 0 0] CC
(0.04) show
GR
/Font60 FFSF
0.0922 0.6272 m
GS
[0.0280 0.0000 0.0000 0.0280 0 0] CC
(0.06) show
GR
/Font60 FFSF
0.0925 0.7896 m
GS
[0.0280 0.0000 0.0000 0.0280 0 0] CC
(0.08) show
GR
/Font60 FFSF
0.0767 0.4012 m
GS
[0.0000 0.0280 -0.0280 0.0000 0 0] CC
(VDOS\(arb. units\)) show
GR
n
0.1500 0.1500 m
0.1500 0.8500 l
1.1500 0.8500 l
1.1500 0.1500 l
0.1500 0.1500 l
c
s
n
0.7000 0.8000 m
0.7000 0.6957 l
1.0807 0.6957 l
1.0807 0.8000 l
c
[/DeviceRGB] SCS
Color0 SC
fill
[/DeviceRGB] SCS
Color1 SC
n
0.7000 0.8000 m
0.7000 0.6957 l
1.0807 0.6957 l
1.0807 0.8000 l
0.7000 0.8000 l
c
s
/Font60 FFSF
0.7711 0.7708 m
GS
[0.0280 0.0000 0.0000 0.0280 0 0] CC
(SLGS with vacancy defect) show
GR
[/DeviceRGB] SCS
Color4 SC
[] 0 SD
0.0023 SLW
n
0.7111 0.7775 m
0.7511 0.7775 l
s
/Font60 FFSF
[/DeviceRGB] SCS
Color1 SC
0.7711 0.7357 m
GS
[0.0280 0.0000 0.0000 0.0280 0 0] CC
(Pristine SLGS) show
GR
[/DeviceRGB] SCS
Color2 SC
n
0.7111 0.7451 m
0.7511 0.7451 l
s
/Font60 FFSF
[/DeviceRGB] SCS
Color1 SC
0.7711 0.7061 m
GS
[0.0280 0.0000 0.0000 0.0280 0 0] CC
(SLGS with SW defect) show
GR
n
0.7111 0.7155 m
0.7511 0.7155 l
s
%%Trailer
%%BoundingBox: 34 51 706 522
%%DocumentNeededResources: font Times-Roman
%%EOF
