%!PS-Adobe-3.0 EPSF-3.0
%%BoundingBox: (atend)
%%LanguageLevel: 2
%%Creator: Grace-5.1.25
%%CreationDate: Thu Dec 14 15:45:29 2023
%%DocumentData: Clean8Bit
%%Orientation: Portrait
%%Title: Untitled
%%For: amrita
%%DocumentNeededResources: (atend)
%%EndComments
%%BeginProlog
/m {moveto} def
/l {lineto} def
/s {stroke} def
/n {newpath} def
/c {closepath} def
/RL {rlineto} def
/SLW {setlinewidth} def
/GS {gsave} def
/GR {grestore} def
/SC {setcolor} def
/SGRY {setgray} def
/SRGB {setrgbcolor} def
/SD {setdash} def
/SLC {setlinecap} def
/SLJ {setlinejoin} def
/SCS {setcolorspace} def
/FFSF {findfont setfont} def
/CC {concat} def
/PXL {n m 0 0 RL s} def
/Color0 {1.0000 1.0000 1.0000} def
/Color1 {0.0000 0.0000 0.0000} def
/Color2 {1.0000 0.0000 0.0000} def
/Color3 {0.0000 1.0000 0.0000} def
/Color4 {0.0000 0.0000 1.0000} def
/Color5 {1.0000 1.0000 0.0000} def
/Color6 {0.7373 0.5608 0.5608} def
/Color7 {0.8627 0.8627 0.8627} def
/Color8 {0.5804 0.0000 0.8275} def
/Color9 {0.0000 1.0000 1.0000} def
/Color10 {1.0000 0.0000 1.0000} def
/Color11 {1.0000 0.6471 0.0000} def
/Color12 {0.4471 0.1294 0.7373} def
/Color13 {0.4039 0.0275 0.2824} def
/Color14 {0.2510 0.8784 0.8157} def
/Color15 {0.0000 0.5451 0.0000} def
/Color16 {0.7529 0.7529 0.7529} def
/Color17 {0.5059 0.5059 0.5059} def
/Color18 {0.2588 0.2588 0.2588} def
/PTRN {
 /pat_bits exch def 
 <<
  /PaintType 2
  /PatternType 1 /TilingType 1
  /BBox[0 0 16 16]
  /XStep 16 /YStep 16
  /PaintProc {
   pop
   16 16 true [-1 0 0 -1 16 16] pat_bits imagemask
  }
 >>
 [0.0016 0 0 0.0016 0 0]
 makepattern
} def
/Pattern0 {<0000000000000000000000000000000000000000000000000000000000000000> PTRN} bind def
/Pattern1 {<ffffffffffffffffffffffffffffffffffffffffffffffffffffffffffffffff> PTRN} bind def
/Pattern2 {<eeeeffffbbbbffffeeeeffffbbbbffffeeeeffffbbbbffffeeeeffffbbbbffff> PTRN} bind def
/Pattern3 {<eeeebbbbeeeebbbbeeeebbbbeeeebbbbeeeebbbbeeeebbbbeeeebbbbeeeebbbb> PTRN} bind def
/Pattern4 {<5555aaaa5555aaaa5555aaaa5555aaaa5555aaaa5555aaaa5555aaaa5555aaaa> PTRN} bind def
/Pattern5 {<1111444411114444111144441111444411114444111144441111444411114444> PTRN} bind def
/Pattern6 {<1111000044440000111100004444000011110000444400001111000044440000> PTRN} bind def
/Pattern7 {<1010000000000000010100000000000010100000000000000101000000000000> PTRN} bind def
/Pattern8 {<0000000000000000000000000000000000000000000000000000000000000000> PTRN} bind def
/Pattern9 {<1e1e0f0f8787c3c3e1e1f0f078783c3c1e1e0f0f8787c3c3e1e1f0f078783c3c> PTRN} bind def
/Pattern10 {<7878f0f0e1e1c3c387870f0f1e1e3c3c7878f0f0e1e1c3c387870f0f1e1e3c3c> PTRN} bind def
/Pattern11 {<3333333333333333333333333333333333333333333333333333333333333333> PTRN} bind def
/Pattern12 {<ffffffff00000000ffffffff00000000ffffffff00000000ffffffff00000000> PTRN} bind def
/Pattern13 {<8181424224241818181824244242818181814242242418181818242442428181> PTRN} bind def
/Pattern14 {<8080404020201010080804040202010180804040202010100808040402020101> PTRN} bind def
/Pattern15 {<0101020204040808101020204040808001010202040408081010202040408080> PTRN} bind def
/Pattern16 {<2222222222222222222222222222222222222222222222222222222222222222> PTRN} bind def
/Pattern17 {<0000ffff000000000000ffff000000000000ffff000000000000ffff00000000> PTRN} bind def
/Pattern18 {<2222ffff222222222222ffff222222222222ffff222222222222ffff22222222> PTRN} bind def
/Pattern19 {<ffffffff33333333ffffffff33333333ffffffff33333333ffffffff33333333> PTRN} bind def
/Pattern20 {<0f0f0f0f0f0f0f0ff0f0f0f0f0f0f0f00f0f0f0f0f0f0f0ff0f0f0f0f0f0f0f0> PTRN} bind def
/Pattern21 {<ff00ff00ff00ff00ff00ff00ff00ff0000ff00ff00ff00ff00ff00ff00ff00ff> PTRN} bind def
/Pattern22 {<8001800180018001800180018001ffffffff8001800180018001800180018001> PTRN} bind def
/Pattern23 {<c003c003c003c003c003c003ffffffffffffffffc003c003c003c003c003c003> PTRN} bind def
/Pattern24 {<040404040404ffff404040404040ffff040404040404ffff404040404040ffff> PTRN} bind def
/Pattern25 {<180018001800180018001800ffffffff001800180018001800180018ffffffff> PTRN} bind def
/Pattern26 {<1111b8b87c7c3a3a1111a3a3c7c78b8b1111b8b87c7c3a3a1111a3a3c7c78b8b> PTRN} bind def
/Pattern27 {<101010102828c7c70101010182827c7c101010102828c7c70101010182827c7c> PTRN} bind def
/Pattern28 {<1c1c121211112121c1c12121111112121c1c121211112121c1c1212111111212> PTRN} bind def
/Pattern29 {<3e3e414180808080e3e31414080808083e3e414180808080e3e3141408080808> PTRN} bind def
/Pattern30 {<4848888884848383848488884848383848488888848483838484888848483838> PTRN} bind def
/Pattern31 {<03030404080808080c0c12122121c0c003030404080808080c0c12122121c0c0> PTRN} bind def
/ellipsedict 8 dict def
ellipsedict /mtrx matrix put
/EARC {
 ellipsedict begin
  /endangle exch def
  /startangle exch def
  /yrad exch def
  /xrad exch def
  /y exch def
  /x exch def
  /savematrix mtrx currentmatrix def
  x y translate
  xrad yrad scale
  0 0 1 startangle endangle arc
  savematrix setmatrix
 end
} def
/TL {
  /kcomp exch def
  /linewidth exch def
  /offset exch def
  GS
  0 offset rmoveto
  linewidth SLW
  dup stringwidth exch kcomp add exch RL s
  GR
} def
/KINIT
{
 /kvector exch def
 /kid 0 def
} def
/KPROC
{
 pop pop
 kvector kid get
 0 rmoveto
 /kid 1 kid add def
} def
/DefEncoding [
 /.notdef
 /.notdef
 /.notdef
 /.notdef
 /.notdef
 /.notdef
 /.notdef
 /.notdef
 /.notdef
 /.notdef
 /.notdef
 /.notdef
 /.notdef
 /.notdef
 /.notdef
 /.notdef
 /.notdef
 /.notdef
 /.notdef
 /.notdef
 /.notdef
 /.notdef
 /.notdef
 /.notdef
 /.notdef
 /.notdef
 /.notdef
 /.notdef
 /.notdef
 /.notdef
 /.notdef
 /.notdef
 /space
 /exclam
 /quotedbl
 /numbersign
 /dollar
 /percent
 /ampersand
 /quoteright
 /parenleft
 /parenright
 /asterisk
 /plus
 /comma
 /hyphen
 /period
 /slash
 /zero
 /one
 /two
 /three
 /four
 /five
 /six
 /seven
 /eight
 /nine
 /colon
 /semicolon
 /less
 /equal
 /greater
 /question
 /at
 /A
 /B
 /C
 /D
 /E
 /F
 /G
 /H
 /I
 /J
 /K
 /L
 /M
 /N
 /O
 /P
 /Q
 /R
 /S
 /T
 /U
 /V
 /W
 /X
 /Y
 /Z
 /bracketleft
 /backslash
 /bracketright
 /asciicircum
 /underscore
 /grave
 /a
 /b
 /c
 /d
 /e
 /f
 /g
 /h
 /i
 /j
 /k
 /l
 /m
 /n
 /o
 /p
 /q
 /r
 /s
 /t
 /u
 /v
 /w
 /x
 /y
 /z
 /braceleft
 /bar
 /braceright
 /asciitilde
 /.notdef
 /.notdef
 /.notdef
 /.notdef
 /.notdef
 /.notdef
 /.notdef
 /.notdef
 /.notdef
 /.notdef
 /.notdef
 /.notdef
 /.notdef
 /.notdef
 /.notdef
 /.notdef
 /.notdef
 /.notdef
 /.notdef
 /.notdef
 /.notdef
 /.notdef
 /.notdef
 /.notdef
 /.notdef
 /.notdef
 /.notdef
 /.notdef
 /.notdef
 /.notdef
 /.notdef
 /.notdef
 /.notdef
 /space
 /exclamdown
 /cent
 /sterling
 /currency
 /yen
 /brokenbar
 /section
 /dieresis
 /copyright
 /ordfeminine
 /guillemotleft
 /logicalnot
 /hyphen
 /registered
 /macron
 /degree
 /plusminus
 /twosuperior
 /threesuperior
 /acute
 /mu
 /paragraph
 /periodcentered
 /cedilla
 /onesuperior
 /ordmasculine
 /guillemotright
 /onequarter
 /onehalf
 /threequarters
 /questiondown
 /Agrave
 /Aacute
 /Acircumflex
 /Atilde
 /Adieresis
 /Aring
 /AE
 /Ccedilla
 /Egrave
 /Eacute
 /Ecircumflex
 /Edieresis
 /Igrave
 /Iacute
 /Icircumflex
 /Idieresis
 /Eth
 /Ntilde
 /Ograve
 /Oacute
 /Ocircumflex
 /Otilde
 /Odieresis
 /multiply
 /Oslash
 /Ugrave
 /Uacute
 /Ucircumflex
 /Udieresis
 /Yacute
 /Thorn
 /germandbls
 /agrave
 /aacute
 /acircumflex
 /atilde
 /adieresis
 /aring
 /ae
 /ccedilla
 /egrave
 /eacute
 /ecircumflex
 /edieresis
 /igrave
 /iacute
 /icircumflex
 /idieresis
 /eth
 /ntilde
 /ograve
 /oacute
 /ocircumflex
 /otilde
 /odieresis
 /divide
 /oslash
 /ugrave
 /uacute
 /ucircumflex
 /udieresis
 /yacute
 /thorn
 /ydieresis
] def
%%EndProlog
%%BeginSetup
%%EndSetup
612.00 612.00 scale
n
0.0000 0.0000 m
0.0000 1.0000 l
1.2941 1.0000 l
1.2941 0.0000 l
c
[/DeviceRGB] SCS
Color0 SC
fill
[/DeviceRGB] SCS
Color1 SC
[] 0 SD
0.0023 SLW
0 SLC
0 SLJ
n
0.1506 0.1503 m
0.1509 0.1505 l
0.1519 0.1521 l
0.1528 0.1531 l
0.1537 0.1546 l
0.1547 0.1558 l
0.1556 0.1569 l
0.1566 0.1582 l
0.1575 0.1593 l
0.1584 0.1609 l
0.1594 0.1623 l
0.1603 0.1635 l
0.1613 0.1647 l
0.1622 0.1658 l
0.1631 0.1672 l
0.1641 0.1682 l
0.1650 0.1699 l
0.1659 0.1711 l
0.1669 0.1725 l
0.1678 0.1737 l
0.1688 0.1750 l
0.1697 0.1759 l
0.1706 0.1771 l
0.1716 0.1787 l
0.1725 0.1797 l
0.1734 0.1812 l
0.1744 0.1822 l
0.1753 0.1835 l
0.1763 0.1848 l
0.1772 0.1859 l
0.1781 0.1874 l
0.1791 0.1887 l
0.1800 0.1897 l
0.1809 0.1910 l
0.1819 0.1921 l
0.1828 0.1932 l
0.1837 0.1946 l
0.1847 0.1959 l
0.1856 0.1972 l
0.1866 0.1980 l
0.1875 0.1992 l
0.1884 0.2008 l
0.1894 0.2019 l
0.1903 0.2031 l
0.1912 0.2044 l
0.1922 0.2053 l
0.1931 0.2066 l
0.1941 0.2078 l
0.1950 0.2091 l
0.1959 0.2103 l
0.1969 0.2112 l
0.1978 0.2125 l
0.1987 0.2135 l
0.1997 0.2147 l
0.2006 0.2157 l
0.2016 0.2170 l
0.2025 0.2183 l
0.2034 0.2193 l
0.2044 0.2205 l
0.2053 0.2214 l
0.2062 0.2222 l
0.2072 0.2235 l
0.2081 0.2245 l
0.2091 0.2256 l
0.2100 0.2269 l
0.2109 0.2281 l
0.2119 0.2287 l
0.2128 0.2300 l
0.2137 0.2309 l
0.2147 0.2321 l
0.2156 0.2331 l
0.2166 0.2339 l
0.2175 0.2352 l
0.2184 0.2362 l
0.2194 0.2375 l
0.2203 0.2381 l
0.2212 0.2393 l
0.2222 0.2403 l
0.2231 0.2412 l
0.2241 0.2421 l
0.2250 0.2432 l
0.2259 0.2439 l
0.2269 0.2451 l
0.2278 0.2458 l
0.2287 0.2467 l
0.2297 0.2479 l
0.2306 0.2484 l
0.2316 0.2498 l
0.2325 0.2504 l
0.2334 0.2517 l
0.2344 0.2529 l
0.2353 0.2533 l
0.2362 0.2542 l
0.2372 0.2550 l
0.2381 0.2558 l
0.2391 0.2567 l
0.2400 0.2574 l
0.2409 0.2583 l
0.2419 0.2593 l
0.2428 0.2602 l
0.2437 0.2613 l
0.2447 0.2617 l
0.2456 0.2628 l
0.2466 0.2634 l
0.2475 0.2644 l
0.2484 0.2653 l
0.2494 0.2661 l
0.2503 0.2668 l
0.2512 0.2678 l
0.2522 0.2687 l
0.2531 0.2691 l
0.2541 0.2701 l
0.2550 0.2709 l
0.2559 0.2714 l
0.2569 0.2724 l
0.2578 0.2730 l
0.2587 0.2738 l
0.2597 0.2742 l
0.2606 0.2754 l
0.2616 0.2760 l
0.2625 0.2769 l
0.2634 0.2773 l
0.2644 0.2780 l
0.2653 0.2789 l
0.2662 0.2789 l
0.2672 0.2805 l
0.2681 0.2806 l
0.2691 0.2809 l
0.2700 0.2818 l
0.2709 0.2828 l
0.2719 0.2829 l
0.2728 0.2840 l
0.2737 0.2842 l
0.2747 0.2851 l
0.2756 0.2859 l
0.2766 0.2861 l
0.2775 0.2866 l
0.2784 0.2873 l
0.2794 0.2884 l
0.2803 0.2885 l
0.2812 0.2891 l
0.2822 0.2899 l
0.2831 0.2904 l
0.2841 0.2904 l
0.2850 0.2912 l
0.2859 0.2918 l
0.2869 0.2924 l
0.2878 0.2929 l
0.2887 0.2935 l
0.2897 0.2940 l
0.2906 0.2946 l
0.2916 0.2947 l
0.2925 0.2955 l
0.2934 0.2959 l
0.2944 0.2968 l
0.2953 0.2971 l
0.2962 0.2976 l
0.2972 0.2979 l
0.2981 0.2985 l
0.2991 0.2987 l
0.3000 0.2997 l
0.3009 0.2997 l
0.3019 0.3005 l
0.3028 0.3001 l
0.3037 0.3013 l
0.3047 0.3014 l
0.3056 0.3022 l
0.3066 0.3022 l
0.3075 0.3032 l
0.3084 0.3033 l
0.3094 0.3039 l
0.3103 0.3044 l
0.3112 0.3050 l
0.3122 0.3051 l
0.3131 0.3054 l
0.3141 0.3056 l
0.3150 0.3062 l
0.3159 0.3066 l
0.3169 0.3070 l
0.3178 0.3079 l
0.3187 0.3080 l
0.3197 0.3081 l
0.3206 0.3086 l
0.3216 0.3091 l
0.3225 0.3092 l
0.3234 0.3098 l
0.3244 0.3104 l
0.3253 0.3108 l
0.3262 0.3112 l
0.3272 0.3118 l
0.3281 0.3117 l
0.3291 0.3124 l
0.3300 0.3128 l
0.3309 0.3127 l
0.3319 0.3138 l
0.3328 0.3138 l
0.3337 0.3143 l
0.3347 0.3145 l
0.3356 0.3153 l
0.3366 0.3156 l
0.3375 0.3162 l
0.3384 0.3162 l
0.3394 0.3167 l
0.3403 0.3176 l
0.3412 0.3176 l
0.3422 0.3182 l
0.3431 0.3186 l
0.3441 0.3194 l
0.3450 0.3188 l
0.3459 0.3192 l
0.3469 0.3207 l
0.3478 0.3202 l
0.3487 0.3207 l
0.3497 0.3209 l
0.3506 0.3225 l
0.3516 0.3221 l
0.3525 0.3224 l
0.3534 0.3229 l
0.3544 0.3234 l
0.3553 0.3237 l
0.3562 0.3249 l
0.3572 0.3239 l
0.3581 0.3254 l
0.3591 0.3258 l
0.3600 0.3268 l
0.3609 0.3271 l
0.3619 0.3279 l
0.3628 0.3275 l
0.3637 0.3279 l
0.3647 0.3288 l
0.3656 0.3290 l
0.3666 0.3302 l
0.3675 0.3310 l
0.3684 0.3312 l
0.3694 0.3332 l
0.3703 0.3329 l
0.3712 0.3337 l
0.3722 0.3336 l
0.3731 0.3337 l
0.3741 0.3346 l
0.3750 0.3348 l
0.3759 0.3351 l
0.3769 0.3354 l
0.3778 0.3379 l
0.3787 0.3376 l
0.3797 0.3390 l
0.3806 0.3390 l
0.3816 0.3404 l
0.3825 0.3405 l
0.3834 0.3415 l
0.3844 0.3425 l
0.3853 0.3435 l
0.3862 0.3420 l
0.3872 0.3438 l
0.3881 0.3460 l
0.3891 0.3457 l
0.3900 0.3456 l
0.3909 0.3471 l
0.3919 0.3490 l
0.3928 0.3484 l
0.3937 0.3498 l
0.3947 0.3519 l
0.3956 0.3531 l
0.3966 0.3529 l
0.3975 0.3545 l
0.3984 0.3545 l
0.3994 0.3552 l
0.4003 0.3554 l
0.4012 0.3572 l
0.4022 0.3587 l
0.4031 0.3588 l
0.4041 0.3597 l
0.4050 0.3601 l
0.4059 0.3619 l
0.4069 0.3616 l
0.4078 0.3636 l
0.4087 0.3645 l
0.4097 0.3655 l
0.4106 0.3663 l
0.4116 0.3667 l
0.4125 0.3671 l
0.4134 0.3692 l
0.4144 0.3706 l
0.4153 0.3706 l
0.4162 0.3714 l
0.4172 0.3726 l
0.4181 0.3739 l
0.4191 0.3746 l
0.4200 0.3758 l
0.4209 0.3763 l
0.4219 0.3776 l
0.4228 0.3788 l
0.4237 0.3789 l
0.4247 0.3798 l
0.4256 0.3814 l
0.4266 0.3816 l
0.4275 0.3831 l
0.4284 0.3830 l
0.4294 0.3843 l
0.4303 0.3848 l
0.4312 0.3862 l
0.4322 0.3875 l
0.4331 0.3878 l
0.4341 0.3882 l
0.4350 0.3888 l
0.4359 0.3885 l
0.4369 0.3892 l
0.4378 0.3909 l
0.4387 0.3921 l
0.4397 0.3928 l
0.4406 0.3933 l
0.4416 0.3940 l
0.4425 0.3939 l
0.4434 0.3942 l
0.4444 0.3929 l
0.4453 0.3950 l
0.4462 0.3950 l
0.4472 0.3937 l
0.4481 0.3964 l
0.4491 0.3940 l
0.4500 0.3926 l
0.4509 0.3947 l
0.4519 0.3929 l
0.4528 0.3931 l
0.4537 0.3912 l
0.4547 0.3933 l
0.4556 0.3891 l
0.4566 0.3794 l
0.4575 0.3760 l
0.4584 0.3635 l
0.4594 0.3654 l
0.4603 0.3632 l
0.4612 0.3618 l
0.4622 0.3624 l
0.4631 0.3634 l
0.4641 0.3622 l
0.4650 0.3604 l
0.4659 0.3615 l
0.4669 0.3627 l
0.4678 0.3629 l
0.4687 0.3641 l
0.4697 0.3644 l
0.4706 0.3627 l
0.4716 0.3620 l
0.4725 0.3638 l
0.4734 0.3633 l
0.4744 0.3618 l
0.4753 0.3650 l
0.4762 0.3661 l
0.4772 0.3637 l
0.4781 0.3624 l
0.4791 0.3623 l
0.4800 0.3609 l
0.4809 0.3649 l
0.4819 0.3618 l
0.4828 0.3614 l
0.4837 0.3598 l
0.4847 0.3635 l
0.4856 0.3612 l
0.4866 0.3613 l
0.4875 0.3631 l
0.4884 0.3657 l
0.4894 0.3621 l
0.4903 0.3603 l
0.4912 0.3602 l
0.4922 0.3611 l
0.4931 0.3623 l
0.4941 0.3625 l
0.4950 0.3626 l
0.4959 0.3606 l
0.4969 0.3614 l
0.4978 0.3624 l
0.4987 0.3624 l
0.4997 0.3624 l
0.5006 0.3627 l
0.5016 0.3623 l
0.5025 0.3607 l
0.5034 0.3626 l
0.5044 0.3637 l
0.5053 0.3627 l
0.5062 0.3634 l
0.5072 0.3618 l
0.5081 0.3636 l
0.5091 0.3606 l
0.5100 0.3627 l
0.5109 0.3635 l
0.5119 0.3655 l
0.5128 0.3635 l
0.5137 0.3631 l
0.5147 0.3634 l
0.5156 0.3655 l
0.5166 0.3647 l
0.5175 0.3646 l
0.5184 0.3628 l
0.5194 0.3667 l
0.5203 0.3628 l
0.5212 0.3671 l
0.5222 0.3654 l
0.5231 0.3640 l
0.5241 0.3648 l
0.5250 0.3643 l
0.5259 0.3639 l
0.5269 0.3638 l
0.5278 0.3596 l
0.5287 0.3610 l
0.5297 0.3661 l
0.5306 0.3615 l
0.5316 0.3650 l
0.5325 0.3622 l
0.5334 0.3631 l
0.5344 0.3647 l
0.5353 0.3636 l
0.5362 0.3629 l
0.5372 0.3633 l
0.5381 0.3634 l
0.5391 0.3647 l
0.5400 0.3653 l
0.5409 0.3632 l
0.5419 0.3603 l
0.5428 0.3645 l
0.5437 0.3634 l
0.5447 0.3620 l
0.5456 0.3639 l
0.5466 0.3597 l
0.5475 0.3680 l
0.5484 0.3630 l
0.5494 0.3651 l
0.5503 0.3624 l
0.5512 0.3621 l
0.5522 0.3639 l
0.5531 0.3640 l
0.5541 0.3647 l
0.5550 0.3646 l
0.5559 0.3667 l
0.5569 0.3670 l
0.5578 0.3653 l
0.5587 0.3666 l
0.5597 0.3663 l
0.5606 0.3674 l
0.5616 0.3663 l
0.5625 0.3676 l
0.5634 0.3647 l
0.5644 0.3663 l
0.5653 0.3690 l
0.5662 0.3682 l
0.5672 0.3711 l
0.5681 0.3674 l
0.5691 0.3624 l
0.5700 0.3632 l
0.5709 0.3609 l
0.5719 0.3638 l
0.5728 0.3663 l
0.5737 0.3647 l
0.5747 0.3652 l
0.5756 0.3628 l
0.5766 0.3648 l
0.5775 0.3543 l
0.5784 0.3554 l
0.5794 0.3561 l
0.5803 0.3569 l
0.5812 0.3568 l
0.5822 0.3593 l
0.5831 0.3587 l
0.5841 0.3590 l
0.5850 0.3605 l
0.5859 0.3614 l
0.5869 0.3619 l
0.5878 0.3633 l
0.5887 0.3638 l
0.5897 0.3641 l
0.5906 0.3654 l
0.5916 0.3651 l
0.5925 0.3663 l
0.5934 0.3670 l
0.5944 0.3680 l
0.5953 0.3684 l
0.5962 0.3685 l
0.5972 0.3689 l
0.5981 0.3696 l
0.5991 0.3698 l
0.6000 0.3716 l
0.6009 0.3715 l
0.6019 0.3715 l
0.6028 0.3721 l
0.6037 0.3730 l
0.6047 0.3745 l
0.6056 0.3739 l
0.6066 0.3752 l
0.6075 0.3750 l
0.6084 0.3753 l
0.6094 0.3763 l
0.6103 0.3765 l
0.6112 0.3768 l
0.6122 0.3777 l
0.6131 0.3785 l
0.6141 0.3784 l
0.6150 0.3790 l
0.6159 0.3797 l
0.6169 0.3793 l
0.6178 0.3801 l
0.6187 0.3809 l
0.6197 0.3815 l
0.6206 0.3820 l
0.6216 0.3818 l
0.6225 0.3819 l
0.6234 0.3827 l
0.6244 0.3833 l
0.6253 0.3834 l
0.6262 0.3838 l
0.6272 0.3836 l
0.6281 0.3838 l
0.6291 0.3841 l
0.6300 0.3852 l
0.6309 0.3846 l
0.6319 0.3856 l
0.6328 0.3861 l
0.6337 0.3864 l
0.6347 0.3863 l
0.6356 0.3865 l
0.6366 0.3866 l
0.6375 0.3878 l
0.6384 0.3879 l
0.6394 0.3882 l
0.6403 0.3872 l
0.6412 0.3889 l
0.6422 0.3885 l
0.6431 0.3886 l
0.6441 0.3891 l
0.6450 0.3887 l
0.6459 0.3900 l
0.6469 0.3895 l
0.6478 0.3896 l
0.6487 0.3906 l
0.6497 0.3909 l
0.6506 0.3915 l
0.6516 0.3906 l
0.6525 0.3917 l
0.6534 0.3916 l
0.6544 0.3922 l
0.6553 0.3916 l
0.6562 0.3917 l
0.6572 0.3935 l
0.6581 0.3927 l
0.6591 0.3932 l
0.6600 0.3932 l
0.6609 0.3938 l
0.6619 0.3940 l
0.6628 0.3943 l
0.6637 0.3939 l
0.6647 0.3952 l
0.6656 0.3958 l
0.6666 0.3956 l
0.6675 0.3962 l
0.6684 0.3956 l
0.6694 0.3966 l
0.6703 0.3969 l
0.6712 0.3968 l
0.6722 0.3970 l
0.6731 0.3970 l
0.6741 0.3972 l
0.6750 0.3979 l
0.6759 0.3981 l
0.6769 0.3997 l
0.6778 0.3984 l
0.6787 0.3973 l
0.6797 0.4003 l
0.6806 0.3985 l
0.6816 0.4010 l
0.6825 0.4012 l
0.6834 0.3996 l
0.6844 0.4004 l
0.6853 0.4014 l
0.6862 0.4036 l
0.6872 0.4025 l
0.6881 0.4025 l
0.6891 0.4028 l
0.6900 0.4021 l
0.6909 0.4035 l
0.6919 0.4038 l
0.6928 0.4034 l
0.6937 0.4037 l
0.6947 0.4061 l
0.6956 0.4077 l
0.6966 0.4060 l
0.6975 0.4072 l
0.6984 0.4073 l
0.6994 0.4089 l
0.7003 0.4095 l
0.7012 0.4102 l
0.7022 0.4083 l
0.7031 0.4090 l
0.7041 0.4118 l
0.7050 0.4145 l
0.7059 0.4126 l
0.7069 0.4126 l
0.7078 0.4132 l
0.7087 0.4168 l
0.7097 0.4166 l
0.7106 0.4152 l
0.7116 0.4189 l
0.7125 0.4177 l
0.7134 0.4201 l
0.7144 0.4225 l
0.7153 0.4226 l
0.7162 0.4229 l
0.7172 0.4249 l
0.7181 0.4282 l
0.7191 0.4286 l
0.7200 0.4277 l
0.7209 0.4307 l
0.7219 0.4321 l
0.7228 0.4349 l
0.7237 0.4385 l
0.7247 0.4391 l
0.7256 0.4432 l
0.7266 0.4464 l
0.7275 0.4461 l
0.7284 0.4526 l
0.7294 0.4538 l
0.7303 0.4570 l
0.7312 0.4599 l
0.7322 0.4640 l
0.7331 0.4650 l
0.7341 0.4718 l
0.7350 0.4747 l
0.7359 0.4799 l
0.7369 0.4851 l
0.7378 0.4903 l
0.7387 0.4930 l
0.7397 0.4971 l
0.7406 0.5038 l
0.7416 0.5075 l
0.7425 0.5124 l
0.7434 0.5171 l
0.7444 0.5238 l
0.7453 0.5303 l
0.7462 0.5337 l
0.7472 0.5412 l
0.7481 0.5467 l
0.7491 0.5525 l
0.7500 0.5584 l
0.7509 0.5642 l
0.7519 0.5713 l
0.7528 0.5735 l
0.7537 0.5795 l
0.7547 0.5861 l
0.7556 0.5922 l
0.7566 0.5967 l
0.7575 0.6024 l
0.7584 0.6083 l
0.7594 0.6098 l
0.7603 0.6177 l
0.7612 0.6237 l
0.7622 0.6286 l
0.7631 0.6331 l
0.7641 0.6396 l
0.7650 0.6432 l
0.7659 0.6498 l
0.7669 0.6558 l
0.7678 0.6596 l
0.7687 0.6627 l
0.7697 0.6697 l
0.7706 0.6733 l
0.7716 0.6801 l
0.7725 0.6809 l
0.7734 0.6855 l
0.7744 0.6903 l
0.7753 0.2074 l
0.7762 0.2080 l
0.7772 0.2094 l
0.7781 0.2086 l
0.7791 0.2102 l
0.7800 0.2092 l
0.7809 0.2104 l
0.7819 0.2114 l
0.7828 0.2050 l
0.7837 0.2063 l
0.7847 0.2067 l
0.7856 0.2055 l
0.7866 0.2059 l
0.7875 0.2094 l
0.7884 0.2073 l
0.7894 0.2070 l
0.7903 0.2077 l
0.7912 0.2100 l
0.7922 0.2090 l
0.7931 0.2082 l
0.7941 0.2085 l
0.7950 0.2116 l
0.7959 0.2092 l
0.7969 0.2104 l
0.7978 0.2104 l
0.7987 0.2123 l
0.7997 0.2095 l
0.8006 0.2112 l
0.8016 0.2136 l
0.8025 0.2120 l
0.8034 0.2131 l
0.8044 0.2124 l
0.8053 0.2148 l
0.8062 0.2125 l
0.8072 0.2137 l
0.8081 0.2137 l
0.8091 0.1870 l
0.8100 0.1859 l
0.8109 0.1883 l
0.8119 0.1852 l
0.8128 0.1883 l
0.8137 0.1895 l
0.8147 0.1891 l
0.8156 0.1899 l
0.8166 0.1896 l
0.8175 0.1917 l
0.8184 0.1893 l
0.8194 0.1896 l
0.8203 0.1919 l
0.8212 0.1913 l
0.8222 0.1924 l
0.8231 0.1916 l
0.8241 0.1929 l
0.8250 0.1937 l
0.8259 0.1940 l
0.8269 0.1935 l
0.8278 0.1933 l
0.8287 0.1934 l
0.8297 0.1967 l
0.8306 0.1931 l
0.8316 0.1936 l
0.8325 0.1950 l
0.8334 0.1965 l
0.8344 0.1951 l
0.8353 0.1956 l
0.8362 0.1949 l
0.8372 0.1979 l
0.8381 0.1957 l
0.8391 0.1969 l
0.8400 0.1974 l
0.8409 0.1980 l
0.8419 0.1977 l
0.8428 0.1989 l
0.8437 0.1997 l
0.8447 0.1980 l
0.8456 0.1965 l
0.8466 0.2005 l
0.8475 0.1998 l
0.8484 0.1992 l
0.8494 0.2009 l
0.8503 0.2011 l
0.8512 0.1989 l
0.8522 0.2026 l
0.8531 0.2033 l
0.8541 0.2027 l
0.8550 0.2019 l
0.8559 0.2019 l
0.8569 0.2020 l
0.8578 0.1811 l
0.8587 0.1788 l
0.8597 0.1773 l
0.8606 0.1818 l
0.8616 0.1824 l
0.8625 0.1766 l
0.8634 0.1825 l
0.8644 0.1801 l
0.8653 0.1813 l
0.8662 0.1802 l
0.8672 0.1790 l
0.8681 0.1813 l
0.8691 0.1797 l
0.8700 0.1806 l
0.8709 0.1810 l
0.8719 0.1813 l
0.8728 0.1801 l
0.8737 0.1829 l
0.8747 0.1823 l
0.8756 0.1803 l
0.8766 0.1821 l
0.8775 0.1823 l
0.8784 0.1828 l
0.8794 0.1821 l
0.8803 0.1839 l
0.8812 0.1826 l
0.8822 0.1823 l
0.8831 0.1832 l
0.8841 0.1821 l
0.8850 0.1849 l
0.8859 0.1834 l
0.8869 0.1849 l
0.8878 0.1837 l
0.8887 0.1831 l
0.8897 0.1849 l
0.8906 0.1869 l
0.8916 0.1838 l
0.8925 0.1830 l
0.8934 0.1872 l
0.8944 0.1859 l
0.8953 0.1846 l
0.8962 0.1854 l
0.8972 0.1850 l
0.8981 0.1853 l
0.8991 0.1872 l
0.9000 0.1851 l
0.9009 0.1874 l
0.9019 0.1865 l
0.9028 0.1844 l
0.9037 0.1860 l
0.9047 0.1869 l
0.9056 0.1853 l
0.9066 0.1889 l
0.9075 0.1882 l
0.9084 0.1858 l
0.9094 0.1907 l
0.9103 0.1863 l
0.9112 0.1863 l
0.9122 0.1894 l
0.9131 0.1860 l
0.9141 0.1872 l
0.9150 0.1883 l
0.9159 0.1894 l
0.9169 0.1876 l
0.9178 0.1885 l
0.9187 0.1887 l
0.9197 0.1903 l
0.9206 0.1886 l
0.9216 0.1888 l
0.9225 0.1879 l
0.9234 0.1853 l
0.9244 0.1886 l
0.9253 0.1870 l
0.9262 0.1868 l
0.9272 0.1881 l
0.9281 0.1886 l
0.9291 0.1887 l
0.9300 0.1874 l
0.9309 0.1847 l
0.9319 0.1867 l
0.9328 0.1858 l
0.9337 0.1861 l
0.9347 0.1852 l
0.9356 0.1874 l
0.9366 0.1866 l
0.9375 0.1867 l
0.9384 0.1871 l
0.9394 0.1881 l
0.9403 0.1872 l
0.9412 0.1873 l
0.9422 0.1891 l
0.9431 0.1876 l
0.9441 0.1885 l
0.9450 0.1885 l
0.9459 0.1892 l
0.9469 0.1896 l
0.9478 0.1901 l
0.9487 0.1894 l
0.9497 0.1919 l
0.9506 0.1892 l
0.9516 0.1895 l
0.9525 0.1918 l
0.9534 0.1906 l
0.9544 0.1897 l
0.9553 0.1920 l
0.9562 0.1908 l
0.9572 0.1917 l
0.9581 0.1914 l
0.9591 0.1922 l
0.9600 0.1918 l
0.9609 0.1925 l
0.9619 0.1928 l
0.9628 0.1917 l
0.9637 0.1941 l
0.9647 0.1942 l
0.9656 0.1931 l
0.9666 0.1949 l
0.9675 0.1943 l
0.9684 0.1944 l
0.9694 0.1962 l
0.9703 0.1941 l
0.9712 0.1954 l
0.9722 0.1973 l
0.9731 0.1967 l
0.9741 0.1968 l
0.9750 0.1973 l
0.9759 0.1962 l
0.9769 0.1974 l
0.9778 0.1971 l
0.9787 0.1958 l
0.9797 0.1971 l
0.9806 0.1978 l
0.9816 0.1967 l
0.9825 0.1992 l
0.9834 0.1967 l
0.9844 0.1982 l
0.9853 0.1987 l
0.9862 0.1981 l
0.9872 0.2002 l
0.9881 0.1983 l
0.9891 0.2006 l
0.9900 0.2023 l
0.9909 0.1984 l
0.9919 0.2008 l
0.9928 0.2029 l
0.9937 0.1995 l
0.9947 0.2020 l
0.9956 0.2016 l
0.9966 0.2004 l
0.9975 0.2018 l
0.9984 0.2026 l
0.9994 0.2024 l
1.0003 0.2015 l
1.0012 0.2018 l
1.0022 0.2030 l
1.0031 0.2025 l
1.0041 0.2020 l
1.0050 0.2042 l
1.0059 0.2044 l
1.0069 0.2021 l
1.0078 0.2042 l
1.0087 0.2062 l
1.0097 0.2030 l
1.0106 0.2047 l
1.0116 0.2067 l
1.0125 0.2060 l
1.0134 0.2049 l
1.0144 0.2052 l
1.0153 0.2062 l
1.0162 0.2069 l
1.0172 0.2074 l
1.0181 0.2075 l
1.0191 0.2072 l
1.0200 0.2062 l
1.0209 0.2086 l
1.0219 0.2093 l
1.0228 0.2072 l
1.0237 0.2093 l
1.0247 0.2073 l
1.0256 0.2102 l
1.0266 0.1974 l
1.0275 0.1965 l
1.0284 0.1949 l
1.0294 0.1718 l
1.0303 0.1595 l
1.0312 0.1572 l
1.0322 0.1556 l
1.0331 0.1635 l
1.0341 0.1584 l
1.0350 0.1572 l
1.0359 0.1582 l
1.0369 0.1618 l
1.0378 0.1613 l
1.0387 0.1578 l
1.0397 0.1607 l
1.0406 0.1603 l
1.0416 0.1625 l
1.0425 0.1574 l
1.0434 0.1589 l
1.0444 0.1604 l
1.0453 0.1616 l
1.0462 0.1590 l
1.0472 0.1594 l
1.0481 0.1601 l
1.0491 0.1607 l
1.0500 0.1605 l
1.0509 0.1596 l
1.0519 0.1600 l
1.0528 0.1617 l
1.0537 0.1610 l
1.0547 0.1614 l
1.0556 0.1620 l
1.0566 0.1620 l
1.0575 0.1609 l
1.0584 0.1597 l
1.0594 0.1623 l
1.0603 0.1619 l
1.0612 0.1638 l
1.0622 0.1610 l
1.0631 0.1615 l
1.0641 0.1624 l
1.0650 0.1630 l
1.0659 0.1646 l
1.0669 0.1610 l
1.0678 0.1611 l
1.0687 0.1612 l
1.0697 0.1623 l
1.0706 0.1613 l
1.0716 0.1640 l
1.0725 0.1656 l
1.0734 0.1623 l
1.0744 0.1624 l
1.0753 0.1626 l
1.0762 0.1648 l
1.0772 0.1638 l
1.0781 0.1642 l
1.0791 0.1614 l
1.0800 0.1611 l
1.0809 0.1615 l
1.0819 0.1619 l
1.0828 0.1641 l
1.0837 0.1645 l
1.0847 0.1618 l
1.0856 0.1612 l
1.0866 0.1613 l
1.0875 0.1631 l
1.0881 0.1623 l
s
[/DeviceRGB] SCS
Color2 SC
[0.0045 0.0135 ] 0 SD
0.0045 SLW
n
0.1519 0.1512 m
0.1528 0.1525 l
0.1537 0.1536 l
0.1547 0.1552 l
0.1556 0.1564 l
0.1566 0.1579 l
0.1575 0.1592 l
0.1584 0.1603 l
0.1594 0.1616 l
0.1603 0.1629 l
0.1613 0.1640 l
0.1622 0.1650 l
0.1631 0.1665 l
0.1641 0.1678 l
0.1650 0.1690 l
0.1659 0.1704 l
0.1669 0.1716 l
0.1678 0.1730 l
0.1688 0.1741 l
0.1697 0.1752 l
0.1706 0.1765 l
0.1716 0.1779 l
0.1725 0.1794 l
0.1734 0.1805 l
0.1744 0.1817 l
0.1753 0.1831 l
0.1763 0.1841 l
0.1772 0.1854 l
0.1781 0.1866 l
0.1791 0.1879 l
0.1800 0.1893 l
0.1809 0.1904 l
0.1819 0.1916 l
0.1828 0.1929 l
0.1837 0.1942 l
0.1847 0.1952 l
0.1856 0.1965 l
0.1866 0.1976 l
0.1875 0.1987 l
0.1884 0.2000 l
0.1894 0.2011 l
0.1903 0.2026 l
0.1912 0.2036 l
0.1922 0.2049 l
0.1931 0.2061 l
0.1941 0.2073 l
0.1950 0.2082 l
0.1959 0.2096 l
0.1969 0.2105 l
0.1978 0.2119 l
0.1987 0.2129 l
0.1997 0.2141 l
0.2006 0.2152 l
0.2016 0.2162 l
0.2025 0.2176 l
0.2034 0.2184 l
0.2044 0.2197 l
0.2053 0.2207 l
0.2062 0.2219 l
0.2072 0.2228 l
0.2081 0.2240 l
0.2091 0.2250 l
0.2100 0.2259 l
0.2109 0.2273 l
0.2119 0.2282 l
0.2128 0.2295 l
0.2137 0.2303 l
0.2147 0.2316 l
0.2156 0.2325 l
0.2166 0.2336 l
0.2175 0.2347 l
0.2184 0.2356 l
0.2194 0.2367 l
0.2203 0.2378 l
0.2212 0.2386 l
0.2222 0.2396 l
0.2231 0.2402 l
0.2241 0.2416 l
0.2250 0.2426 l
0.2259 0.2435 l
0.2269 0.2444 l
0.2278 0.2454 l
0.2287 0.2462 l
0.2297 0.2474 l
0.2306 0.2482 l
0.2316 0.2492 l
0.2325 0.2498 l
0.2334 0.2510 l
0.2344 0.2517 l
0.2353 0.2529 l
0.2362 0.2537 l
0.2372 0.2545 l
0.2381 0.2554 l
0.2391 0.2562 l
0.2400 0.2571 l
0.2409 0.2581 l
0.2419 0.2589 l
0.2428 0.2599 l
0.2437 0.2604 l
0.2447 0.2613 l
0.2456 0.2619 l
0.2466 0.2630 l
0.2475 0.2639 l
0.2484 0.2646 l
0.2494 0.2657 l
0.2503 0.2664 l
0.2512 0.2669 l
0.2522 0.2678 l
0.2531 0.2686 l
0.2541 0.2694 l
0.2550 0.2702 l
0.2559 0.2709 l
0.2569 0.2716 l
0.2578 0.2724 l
0.2587 0.2731 l
0.2597 0.2739 l
0.2606 0.2747 l
0.2616 0.2753 l
0.2625 0.2761 l
0.2634 0.2769 l
0.2644 0.2775 l
0.2653 0.2783 l
0.2662 0.2789 l
0.2672 0.2794 l
0.2681 0.2803 l
0.2691 0.2809 l
0.2700 0.2815 l
0.2709 0.2820 l
0.2719 0.2827 l
0.2728 0.2833 l
0.2737 0.2838 l
0.2747 0.2845 l
0.2756 0.2852 l
0.2766 0.2858 l
0.2775 0.2863 l
0.2784 0.2871 l
0.2794 0.2873 l
0.2803 0.2882 l
0.2812 0.2885 l
0.2822 0.2893 l
0.2831 0.2897 l
0.2841 0.2904 l
0.2850 0.2909 l
0.2859 0.2915 l
0.2869 0.2922 l
0.2878 0.2925 l
0.2887 0.2931 l
0.2897 0.2938 l
0.2906 0.2939 l
0.2916 0.2945 l
0.2925 0.2953 l
0.2934 0.2954 l
0.2944 0.2960 l
0.2953 0.2965 l
0.2962 0.2969 l
0.2972 0.2978 l
0.2981 0.2983 l
0.2991 0.2986 l
0.3000 0.2990 l
0.3009 0.2993 l
0.3019 0.3001 l
0.3028 0.3005 l
0.3037 0.3006 l
0.3047 0.3014 l
0.3056 0.3020 l
0.3066 0.3021 l
0.3075 0.3025 l
0.3084 0.3030 l
0.3094 0.3034 l
0.3103 0.3039 l
0.3112 0.3045 l
0.3122 0.3047 l
0.3131 0.3052 l
0.3141 0.3056 l
0.3150 0.3060 l
0.3159 0.3064 l
0.3169 0.3067 l
0.3178 0.3072 l
0.3187 0.3077 l
0.3197 0.3080 l
0.3206 0.3086 l
0.3216 0.3088 l
0.3225 0.3095 l
0.3234 0.3094 l
0.3244 0.3098 l
0.3253 0.3105 l
0.3262 0.3109 l
0.3272 0.3113 l
0.3281 0.3115 l
0.3291 0.3122 l
0.3300 0.3125 l
0.3309 0.3129 l
0.3319 0.3134 l
0.3328 0.3137 l
0.3337 0.3141 l
0.3347 0.3145 l
0.3356 0.3147 l
0.3366 0.3154 l
0.3375 0.3157 l
0.3384 0.3161 l
0.3394 0.3165 l
0.3403 0.3172 l
0.3412 0.3174 l
0.3422 0.3176 l
0.3431 0.3178 l
0.3441 0.3186 l
0.3450 0.3192 l
0.3459 0.3196 l
0.3469 0.3199 l
0.3478 0.3201 l
0.3487 0.3205 l
0.3497 0.3211 l
0.3506 0.3214 l
0.3516 0.3216 l
0.3525 0.3227 l
0.3534 0.3229 l
0.3544 0.3234 l
0.3553 0.3238 l
0.3562 0.3243 l
0.3572 0.3247 l
0.3581 0.3256 l
0.3591 0.3258 l
0.3600 0.3262 l
0.3609 0.3270 l
0.3619 0.3275 l
0.3628 0.3277 l
0.3637 0.3281 l
0.3647 0.3292 l
0.3656 0.3296 l
0.3666 0.3294 l
0.3675 0.3300 l
0.3684 0.3310 l
0.3694 0.3318 l
0.3703 0.3318 l
0.3712 0.3330 l
0.3722 0.3330 l
0.3731 0.3343 l
0.3741 0.3344 l
0.3750 0.3354 l
0.3759 0.3357 l
0.3769 0.3367 l
0.3778 0.3365 l
0.3787 0.3377 l
0.3797 0.3380 l
0.3806 0.3391 l
0.3816 0.3393 l
0.3825 0.3400 l
0.3834 0.3408 l
0.3844 0.3412 l
0.3853 0.3422 l
0.3862 0.3434 l
0.3872 0.3431 l
0.3881 0.3448 l
0.3891 0.3445 l
0.3900 0.3463 l
0.3909 0.3469 l
0.3919 0.3481 l
0.3928 0.3490 l
0.3937 0.3499 l
0.3947 0.3511 l
0.3956 0.3514 l
0.3966 0.3519 l
0.3975 0.3527 l
0.3984 0.3542 l
0.3994 0.3549 l
0.4003 0.3554 l
0.4012 0.3565 l
0.4022 0.3575 l
0.4031 0.3586 l
0.4041 0.3593 l
0.4050 0.3593 l
0.4059 0.3610 l
0.4069 0.3619 l
0.4078 0.3631 l
0.4087 0.3637 l
0.4097 0.3644 l
0.4106 0.3654 l
0.4116 0.3667 l
0.4125 0.3673 l
0.4134 0.3688 l
0.4144 0.3697 l
0.4153 0.3702 l
0.4162 0.3712 l
0.4172 0.3721 l
0.4181 0.3733 l
0.4191 0.3739 l
0.4200 0.3750 l
0.4209 0.3757 l
0.4219 0.3774 l
0.4228 0.3780 l
0.4237 0.3786 l
0.4247 0.3794 l
0.4256 0.3795 l
0.4266 0.3809 l
0.4275 0.3817 l
0.4284 0.3826 l
0.4294 0.3837 l
0.4303 0.3847 l
0.4312 0.3855 l
0.4322 0.3867 l
0.4331 0.3865 l
0.4341 0.3873 l
0.4350 0.3886 l
0.4359 0.3894 l
0.4369 0.3897 l
0.4378 0.3913 l
0.4387 0.3915 l
0.4397 0.3925 l
0.4406 0.3930 l
0.4416 0.3936 l
0.4425 0.3934 l
0.4434 0.3897 l
0.4444 0.3938 l
0.4453 0.3927 l
0.4462 0.3925 l
0.4472 0.3962 l
0.4481 0.3917 l
0.4491 0.3920 l
0.4500 0.3943 l
0.4509 0.3923 l
0.4519 0.3917 l
0.4528 0.3853 l
0.4537 0.3775 l
0.4547 0.3642 l
0.4556 0.3636 l
0.4566 0.3614 l
0.4575 0.3628 l
0.4584 0.3640 l
0.4594 0.3627 l
0.4603 0.3611 l
0.4612 0.3619 l
0.4622 0.3641 l
0.4631 0.3637 l
0.4641 0.3611 l
0.4650 0.3626 l
0.4659 0.3642 l
0.4669 0.3626 l
0.4678 0.3628 l
0.4687 0.3616 l
0.4697 0.3614 l
0.4706 0.3629 l
0.4716 0.3618 l
0.4725 0.3641 l
0.4734 0.3637 l
0.4744 0.3609 l
0.4753 0.3623 l
0.4762 0.3632 l
0.4772 0.3612 l
0.4781 0.3625 l
0.4791 0.3642 l
0.4800 0.3632 l
0.4809 0.3619 l
0.4819 0.3626 l
0.4828 0.3637 l
0.4837 0.3626 l
0.4847 0.3639 l
0.4856 0.3629 l
0.4866 0.3645 l
0.4875 0.3624 l
0.4884 0.3652 l
0.4894 0.3648 l
0.4903 0.3613 l
0.4912 0.3627 l
0.4922 0.3639 l
0.4931 0.3633 l
0.4941 0.3616 l
0.4950 0.3627 l
0.4959 0.3635 l
0.4969 0.3616 l
0.4978 0.3633 l
0.4987 0.3635 l
0.4997 0.3622 l
0.5006 0.3608 l
0.5016 0.3622 l
0.5025 0.3640 l
0.5034 0.3642 l
0.5044 0.3622 l
0.5053 0.3632 l
0.5062 0.3625 l
0.5072 0.3643 l
0.5081 0.3647 l
0.5091 0.3648 l
0.5100 0.3634 l
0.5109 0.3631 l
0.5119 0.3641 l
0.5128 0.3629 l
0.5137 0.3653 l
0.5147 0.3628 l
0.5156 0.3652 l
0.5166 0.3647 l
0.5175 0.3631 l
0.5184 0.3629 l
0.5194 0.3636 l
0.5203 0.3641 l
0.5212 0.3644 l
0.5222 0.3643 l
0.5231 0.3648 l
0.5241 0.3633 l
0.5250 0.3642 l
0.5259 0.3647 l
0.5269 0.3643 l
0.5278 0.3643 l
0.5287 0.3659 l
0.5297 0.3641 l
0.5306 0.3651 l
0.5316 0.3646 l
0.5325 0.3644 l
0.5334 0.3641 l
0.5344 0.3631 l
0.5353 0.3652 l
0.5362 0.3634 l
0.5372 0.3641 l
0.5381 0.3650 l
0.5391 0.3647 l
0.5400 0.3642 l
0.5409 0.3644 l
0.5419 0.3644 l
0.5428 0.3655 l
0.5437 0.3652 l
0.5447 0.3657 l
0.5456 0.3641 l
0.5466 0.3649 l
0.5475 0.3654 l
0.5484 0.3658 l
0.5494 0.3646 l
0.5503 0.3656 l
0.5512 0.3657 l
0.5522 0.3656 l
0.5531 0.3671 l
0.5541 0.3649 l
0.5550 0.3658 l
0.5559 0.3673 l
0.5569 0.3668 l
0.5578 0.3650 l
0.5587 0.3637 l
0.5597 0.3657 l
0.5606 0.3667 l
0.5616 0.3663 l
0.5625 0.3676 l
0.5634 0.3656 l
0.5644 0.3682 l
0.5653 0.3675 l
0.5662 0.3670 l
0.5672 0.3654 l
0.5681 0.3650 l
0.5691 0.3658 l
0.5700 0.3669 l
0.5709 0.3663 l
0.5719 0.3670 l
0.5728 0.3672 l
0.5737 0.3673 l
0.5747 0.3674 l
0.5756 0.3675 l
0.5766 0.3690 l
0.5775 0.3692 l
0.5784 0.3693 l
0.5794 0.3696 l
0.5803 0.3693 l
0.5812 0.3651 l
0.5822 0.3665 l
0.5831 0.3651 l
0.5841 0.3590 l
0.5850 0.3600 l
0.5859 0.3614 l
0.5869 0.3612 l
0.5878 0.3624 l
0.5887 0.3629 l
0.5897 0.3637 l
0.5906 0.3644 l
0.5916 0.3646 l
0.5925 0.3662 l
0.5934 0.3663 l
0.5944 0.3671 l
0.5953 0.3679 l
0.5962 0.3689 l
0.5972 0.3692 l
0.5981 0.3695 l
0.5991 0.3703 l
0.6000 0.3704 l
0.6009 0.3710 l
0.6019 0.3714 l
0.6028 0.3721 l
0.6037 0.3732 l
0.6047 0.3734 l
0.6056 0.3739 l
0.6066 0.3745 l
0.6075 0.3747 l
0.6084 0.3759 l
0.6094 0.3760 l
0.6103 0.3767 l
0.6112 0.3773 l
0.6122 0.3775 l
0.6131 0.3786 l
0.6141 0.3787 l
0.6150 0.3787 l
0.6159 0.3792 l
0.6169 0.3791 l
0.6178 0.3802 l
0.6187 0.3801 l
0.6197 0.3803 l
0.6206 0.3814 l
0.6216 0.3816 l
0.6225 0.3819 l
0.6234 0.3819 l
0.6244 0.3824 l
0.6253 0.3825 l
0.6262 0.3829 l
0.6272 0.3842 l
0.6281 0.3837 l
0.6291 0.3842 l
0.6300 0.3846 l
0.6309 0.3853 l
0.6319 0.3849 l
0.6328 0.3858 l
0.6337 0.3856 l
0.6347 0.3860 l
0.6356 0.3860 l
0.6366 0.3865 l
0.6375 0.3868 l
0.6384 0.3869 l
0.6394 0.3870 l
0.6403 0.3872 l
0.6412 0.3875 l
0.6422 0.3884 l
0.6431 0.3882 l
0.6441 0.3886 l
0.6450 0.3889 l
0.6459 0.3894 l
0.6469 0.3896 l
0.6478 0.3897 l
0.6487 0.3899 l
0.6497 0.3898 l
0.6506 0.3908 l
0.6516 0.3911 l
0.6525 0.3909 l
0.6534 0.3913 l
0.6544 0.3918 l
0.6553 0.3920 l
0.6562 0.3926 l
0.6572 0.3922 l
0.6581 0.3930 l
0.6591 0.3932 l
0.6600 0.3935 l
0.6609 0.3937 l
0.6619 0.3937 l
0.6628 0.3941 l
0.6637 0.3945 l
0.6647 0.3942 l
0.6656 0.3949 l
0.6666 0.3947 l
0.6675 0.3953 l
0.6684 0.3962 l
0.6694 0.3965 l
0.6703 0.3962 l
0.6712 0.3961 l
0.6722 0.3969 l
0.6731 0.3974 l
0.6741 0.3972 l
0.6750 0.3976 l
0.6759 0.3981 l
0.6769 0.3981 l
0.6778 0.3983 l
0.6787 0.3986 l
0.6797 0.4001 l
0.6806 0.4004 l
0.6816 0.3998 l
0.6825 0.4002 l
0.6834 0.4002 l
0.6844 0.4013 l
0.6853 0.4007 l
0.6862 0.4017 l
0.6872 0.4024 l
0.6881 0.4019 l
0.6891 0.4019 l
0.6900 0.4026 l
0.6909 0.4022 l
0.6919 0.4038 l
0.6928 0.4039 l
0.6937 0.4040 l
0.6947 0.4041 l
0.6956 0.4056 l
0.6966 0.4060 l
0.6975 0.4058 l
0.6984 0.4061 l
0.6994 0.4076 l
0.7003 0.4085 l
0.7012 0.4100 l
0.7022 0.4090 l
0.7031 0.4093 l
0.7041 0.4099 l
0.7050 0.4105 l
0.7059 0.4121 l
0.7069 0.4138 l
0.7078 0.4134 l
0.7087 0.4124 l
0.7097 0.4148 l
0.7106 0.4147 l
0.7116 0.4169 l
0.7125 0.4187 l
0.7134 0.4189 l
0.7144 0.4226 l
0.7153 0.4205 l
0.7162 0.4226 l
0.7172 0.4259 l
0.7181 0.4257 l
0.7191 0.4276 l
0.7200 0.4289 l
0.7209 0.4282 l
0.7219 0.4331 l
0.7228 0.4346 l
0.7237 0.4362 l
0.7247 0.4386 l
0.7256 0.4391 l
0.7266 0.4432 l
0.7275 0.4458 l
0.7284 0.4475 l
0.7294 0.4529 l
0.7303 0.4540 l
0.7312 0.4573 l
0.7322 0.4604 l
0.7331 0.4645 l
0.7341 0.4675 l
0.7350 0.4712 l
0.7359 0.4768 l
0.7369 0.4807 l
0.7378 0.4858 l
0.7387 0.4895 l
0.7397 0.4944 l
0.7406 0.5002 l
0.7416 0.5039 l
0.7425 0.5109 l
0.7434 0.5141 l
0.7444 0.5196 l
0.7453 0.5261 l
0.7462 0.5311 l
0.7472 0.5372 l
0.7481 0.5430 l
0.7491 0.5479 l
0.7500 0.5527 l
0.7509 0.5590 l
0.7519 0.5641 l
0.7528 0.5701 l
0.7537 0.5752 l
0.7547 0.5816 l
0.7556 0.5874 l
0.7566 0.5933 l
0.7575 0.5978 l
0.7584 0.6032 l
0.7594 0.6077 l
0.7603 0.6146 l
0.7612 0.6197 l
0.7622 0.6254 l
0.7631 0.6288 l
0.7641 0.6356 l
0.7650 0.6405 l
0.7659 0.6466 l
0.7669 0.6501 l
0.7678 0.6549 l
0.7687 0.6597 l
0.7697 0.6653 l
0.7706 0.6700 l
0.7716 0.6746 l
0.7725 0.3064 l
0.7734 0.2828 l
0.7744 0.2825 l
0.7753 0.2815 l
0.7762 0.2815 l
0.7772 0.2821 l
0.7781 0.2813 l
0.7791 0.2817 l
0.7800 0.2840 l
0.7809 0.2836 l
0.7819 0.2835 l
0.7828 0.2836 l
0.7837 0.2832 l
0.7847 0.2838 l
0.7856 0.2854 l
0.7866 0.2845 l
0.7875 0.2854 l
0.7884 0.2866 l
0.7894 0.2857 l
0.7903 0.2860 l
0.7912 0.2861 l
0.7922 0.2862 l
0.7931 0.2882 l
0.7941 0.2880 l
0.7950 0.2885 l
0.7959 0.2881 l
0.7969 0.2874 l
0.7978 0.2884 l
0.7987 0.2893 l
0.7997 0.2890 l
0.8006 0.2900 l
0.8016 0.2911 l
0.8025 0.2909 l
0.8034 0.2915 l
0.8044 0.2921 l
0.8053 0.2918 l
0.8062 0.2926 l
0.8072 0.2931 l
0.8081 0.2930 l
0.8091 0.2940 l
0.8100 0.2925 l
0.8109 0.2945 l
0.8119 0.2946 l
0.8128 0.2951 l
0.8137 0.2956 l
0.8147 0.2957 l
0.8156 0.2962 l
0.8166 0.2963 l
0.8175 0.2945 l
0.8184 0.2954 l
0.8194 0.2958 l
0.8203 0.2959 l
0.8212 0.2964 l
0.8222 0.2969 l
0.8231 0.2972 l
0.8241 0.2976 l
0.8250 0.2972 l
0.8259 0.2988 l
0.8269 0.2979 l
0.8278 0.2988 l
0.8287 0.2994 l
0.8297 0.2989 l
0.8306 0.2995 l
0.8316 0.2997 l
0.8325 0.3000 l
0.8334 0.3014 l
0.8344 0.3016 l
0.8353 0.3023 l
0.8362 0.3022 l
0.8372 0.3015 l
0.8381 0.3034 l
0.8391 0.3036 l
0.8400 0.3031 l
0.8409 0.3035 l
0.8419 0.3048 l
0.8428 0.3049 l
0.8437 0.3042 l
0.8447 0.3051 l
0.8456 0.3027 l
0.8466 0.3020 l
0.8475 0.3021 l
0.8484 0.3011 l
0.8494 0.3024 l
0.8503 0.3030 l
0.8512 0.3019 l
0.8522 0.3032 l
0.8531 0.3030 l
0.8541 0.3027 l
0.8550 0.3047 l
0.8559 0.3047 l
0.8569 0.3043 l
0.8578 0.3044 l
0.8587 0.2701 l
0.8597 0.2718 l
0.8606 0.2736 l
0.8616 0.2727 l
0.8625 0.2713 l
0.8634 0.2708 l
0.8644 0.2728 l
0.8653 0.2734 l
0.8662 0.2738 l
0.8672 0.2738 l
0.8681 0.2746 l
0.8691 0.2746 l
0.8700 0.2746 l
0.8709 0.2744 l
0.8719 0.2757 l
0.8728 0.2761 l
0.8737 0.2762 l
0.8747 0.2767 l
0.8756 0.2763 l
0.8766 0.2768 l
0.8775 0.2767 l
0.8784 0.2781 l
0.8794 0.2782 l
0.8803 0.2786 l
0.8812 0.2799 l
0.8822 0.2803 l
0.8831 0.2793 l
0.8841 0.2795 l
0.8850 0.2805 l
0.8859 0.2813 l
0.8869 0.2813 l
0.8878 0.2818 l
0.8887 0.2820 l
0.8897 0.2829 l
0.8906 0.2830 l
0.8916 0.2828 l
0.8925 0.2825 l
0.8934 0.2836 l
0.8944 0.2764 l
0.8953 0.2759 l
0.8962 0.2758 l
0.8972 0.2665 l
0.8981 0.2662 l
0.8991 0.2666 l
0.9000 0.2669 l
0.9009 0.2683 l
0.9019 0.2679 l
0.9028 0.2687 l
0.9037 0.2696 l
0.9047 0.2692 l
0.9056 0.2693 l
0.9066 0.2697 l
0.9075 0.2697 l
0.9084 0.2707 l
0.9094 0.2711 l
0.9103 0.2705 l
0.9112 0.2714 l
0.9122 0.2716 l
0.9131 0.2724 l
0.9141 0.2725 l
0.9150 0.2730 l
0.9159 0.2725 l
0.9169 0.2740 l
0.9178 0.2743 l
0.9187 0.2740 l
0.9197 0.2748 l
0.9206 0.2757 l
0.9216 0.2754 l
0.9225 0.2770 l
0.9234 0.2753 l
0.9244 0.2765 l
0.9253 0.2767 l
0.9262 0.2772 l
0.9272 0.2777 l
0.9281 0.2782 l
0.9291 0.2788 l
0.9300 0.2784 l
0.9309 0.2796 l
0.9319 0.2796 l
0.9328 0.2801 l
0.9337 0.2803 l
0.9347 0.2801 l
0.9356 0.2813 l
0.9366 0.2811 l
0.9375 0.2814 l
0.9384 0.2818 l
0.9394 0.2830 l
0.9403 0.2824 l
0.9412 0.2836 l
0.9422 0.2830 l
0.9431 0.2838 l
0.9441 0.2846 l
0.9450 0.2852 l
0.9459 0.2855 l
0.9469 0.2853 l
0.9478 0.2865 l
0.9487 0.2853 l
0.9497 0.2862 l
0.9506 0.2871 l
0.9516 0.2871 l
0.9525 0.2871 l
0.9534 0.2886 l
0.9544 0.2881 l
0.9553 0.2881 l
0.9562 0.2869 l
0.9572 0.2876 l
0.9581 0.2886 l
0.9591 0.2873 l
0.9600 0.2890 l
0.9609 0.2884 l
0.9619 0.2894 l
0.9628 0.2889 l
0.9637 0.2890 l
0.9647 0.2900 l
0.9656 0.2904 l
0.9666 0.2902 l
0.9675 0.2910 l
0.9684 0.2908 l
0.9694 0.2923 l
0.9703 0.2912 l
0.9712 0.2905 l
0.9722 0.2911 l
0.9731 0.2911 l
0.9741 0.2917 l
0.9750 0.2918 l
0.9759 0.2916 l
0.9769 0.2915 l
0.9778 0.2920 l
0.9787 0.2928 l
0.9797 0.2932 l
0.9806 0.2930 l
0.9816 0.2944 l
0.9825 0.2946 l
0.9834 0.2944 l
0.9844 0.2938 l
0.9853 0.2901 l
0.9862 0.2893 l
0.9872 0.2892 l
0.9881 0.2883 l
0.9891 0.2873 l
0.9900 0.2873 l
0.9909 0.2870 l
0.9919 0.2851 l
0.9928 0.2860 l
0.9937 0.2870 l
0.9947 0.2860 l
0.9956 0.2880 l
0.9966 0.2879 l
0.9975 0.2875 l
0.9984 0.2883 l
0.9994 0.2889 l
1.0003 0.2893 l
1.0012 0.2905 l
1.0022 0.2899 l
1.0031 0.2887 l
1.0041 0.2887 l
1.0050 0.2894 l
1.0059 0.2899 l
1.0069 0.2906 l
1.0078 0.2901 l
1.0087 0.2917 l
1.0097 0.2920 l
1.0106 0.2912 l
1.0116 0.2915 l
1.0125 0.2925 l
1.0134 0.2870 l
1.0144 0.2877 l
1.0153 0.2876 l
1.0162 0.2884 l
1.0172 0.2886 l
1.0181 0.2888 l
1.0191 0.2896 l
1.0200 0.2892 l
1.0209 0.2898 l
1.0219 0.2898 l
1.0228 0.2875 l
1.0237 0.2890 l
1.0247 0.2892 l
1.0256 0.2883 l
1.0266 0.2902 l
1.0275 0.2904 l
1.0284 0.2915 l
1.0294 0.2914 l
1.0303 0.2912 l
1.0312 0.2925 l
1.0322 0.2927 l
1.0331 0.2921 l
1.0341 0.2934 l
1.0350 0.2934 l
1.0359 0.2938 l
1.0369 0.2935 l
1.0378 0.2950 l
1.0387 0.2963 l
1.0397 0.2951 l
1.0406 0.2956 l
1.0416 0.2959 l
1.0425 0.2952 l
1.0434 0.2963 l
1.0444 0.2978 l
1.0453 0.2966 l
1.0462 0.2970 l
1.0472 0.2981 l
1.0481 0.2972 l
1.0491 0.2953 l
1.0500 0.2539 l
1.0509 0.2110 l
1.0519 0.2027 l
1.0528 0.2025 l
1.0537 0.2038 l
1.0547 0.2012 l
1.0556 0.2023 l
1.0566 0.2012 l
1.0575 0.2016 l
1.0584 0.2026 l
1.0594 0.2016 l
1.0603 0.2036 l
1.0612 0.2043 l
1.0622 0.2041 l
1.0631 0.2054 l
1.0641 0.2057 l
1.0650 0.2058 l
1.0659 0.2051 l
1.0669 0.2047 l
1.0678 0.2059 l
1.0687 0.2052 l
1.0697 0.2052 l
1.0706 0.2052 l
1.0716 0.2056 l
1.0725 0.2055 l
1.0734 0.2059 l
1.0744 0.2068 l
1.0753 0.2058 l
1.0762 0.2066 l
1.0772 0.2075 l
1.0781 0.2075 l
1.0791 0.2082 l
1.0800 0.2073 l
1.0809 0.2074 l
1.0819 0.2073 l
1.0828 0.2094 l
1.0837 0.2083 l
1.0847 0.2101 l
1.0856 0.2093 l
1.0866 0.2087 l
1.0875 0.2084 l
1.0881 0.2093 l
s
[/DeviceRGB] SCS
Color13 SC
[0.0158 0.0068 ] 0 SD
0.0023 SLW
n
0.1506 0.1512 m
0.1509 0.1517 l
0.1519 0.1529 l
0.1528 0.1543 l
0.1537 0.1556 l
0.1547 0.1568 l
0.1556 0.1579 l
0.1566 0.1594 l
0.1575 0.1607 l
0.1584 0.1620 l
0.1594 0.1632 l
0.1603 0.1644 l
0.1613 0.1659 l
0.1622 0.1670 l
0.1631 0.1683 l
0.1641 0.1697 l
0.1650 0.1710 l
0.1659 0.1722 l
0.1669 0.1735 l
0.1678 0.1749 l
0.1688 0.1762 l
0.1697 0.1772 l
0.1706 0.1786 l
0.1716 0.1799 l
0.1725 0.1810 l
0.1734 0.1824 l
0.1744 0.1836 l
0.1753 0.1848 l
0.1763 0.1859 l
0.1772 0.1874 l
0.1781 0.1886 l
0.1791 0.1898 l
0.1800 0.1912 l
0.1809 0.1923 l
0.1819 0.1934 l
0.1828 0.1949 l
0.1837 0.1959 l
0.1847 0.1969 l
0.1856 0.1983 l
0.1866 0.1997 l
0.1875 0.2007 l
0.1884 0.2019 l
0.1894 0.2031 l
0.1903 0.2042 l
0.1912 0.2054 l
0.1922 0.2067 l
0.1931 0.2078 l
0.1941 0.2089 l
0.1950 0.2100 l
0.1959 0.2111 l
0.1969 0.2123 l
0.1978 0.2134 l
0.1987 0.2145 l
0.1997 0.2158 l
0.2006 0.2168 l
0.2016 0.2181 l
0.2025 0.2191 l
0.2034 0.2204 l
0.2044 0.2213 l
0.2053 0.2224 l
0.2062 0.2234 l
0.2072 0.2245 l
0.2081 0.2256 l
0.2091 0.2267 l
0.2100 0.2278 l
0.2109 0.2289 l
0.2119 0.2299 l
0.2128 0.2310 l
0.2137 0.2320 l
0.2147 0.2330 l
0.2156 0.2340 l
0.2166 0.2351 l
0.2175 0.2360 l
0.2184 0.2373 l
0.2194 0.2382 l
0.2203 0.2389 l
0.2212 0.2401 l
0.2222 0.2411 l
0.2231 0.2421 l
0.2241 0.2432 l
0.2250 0.2440 l
0.2259 0.2450 l
0.2269 0.2459 l
0.2278 0.2469 l
0.2287 0.2478 l
0.2297 0.2487 l
0.2306 0.2497 l
0.2316 0.2504 l
0.2325 0.2515 l
0.2334 0.2524 l
0.2344 0.2533 l
0.2353 0.2542 l
0.2362 0.2548 l
0.2372 0.2560 l
0.2381 0.2569 l
0.2391 0.2575 l
0.2400 0.2584 l
0.2409 0.2594 l
0.2419 0.2602 l
0.2428 0.2611 l
0.2437 0.2619 l
0.2447 0.2628 l
0.2456 0.2636 l
0.2466 0.2644 l
0.2475 0.2652 l
0.2484 0.2658 l
0.2494 0.2667 l
0.2503 0.2678 l
0.2512 0.2682 l
0.2522 0.2691 l
0.2531 0.2697 l
0.2541 0.2706 l
0.2550 0.2715 l
0.2559 0.2721 l
0.2569 0.2728 l
0.2578 0.2736 l
0.2587 0.2744 l
0.2597 0.2751 l
0.2606 0.2757 l
0.2616 0.2765 l
0.2625 0.2772 l
0.2634 0.2778 l
0.2644 0.2785 l
0.2653 0.2791 l
0.2662 0.2798 l
0.2672 0.2804 l
0.2681 0.2810 l
0.2691 0.2817 l
0.2700 0.2825 l
0.2709 0.2830 l
0.2719 0.2835 l
0.2728 0.2843 l
0.2737 0.2848 l
0.2747 0.2854 l
0.2756 0.2861 l
0.2766 0.2865 l
0.2775 0.2874 l
0.2784 0.2877 l
0.2794 0.2885 l
0.2803 0.2891 l
0.2812 0.2898 l
0.2822 0.2901 l
0.2831 0.2908 l
0.2841 0.2913 l
0.2850 0.2918 l
0.2859 0.2924 l
0.2869 0.2930 l
0.2878 0.2933 l
0.2887 0.2941 l
0.2897 0.2946 l
0.2906 0.2949 l
0.2916 0.2956 l
0.2925 0.2960 l
0.2934 0.2964 l
0.2944 0.2970 l
0.2953 0.2974 l
0.2962 0.2979 l
0.2972 0.2985 l
0.2981 0.2987 l
0.2991 0.2993 l
0.3000 0.2998 l
0.3009 0.3003 l
0.3019 0.3007 l
0.3028 0.3011 l
0.3037 0.3015 l
0.3047 0.3020 l
0.3056 0.3025 l
0.3066 0.3030 l
0.3075 0.3033 l
0.3084 0.3038 l
0.3094 0.3042 l
0.3103 0.3046 l
0.3112 0.3049 l
0.3122 0.3054 l
0.3131 0.3060 l
0.3141 0.3062 l
0.3150 0.3069 l
0.3159 0.3071 l
0.3169 0.3075 l
0.3178 0.3079 l
0.3187 0.3083 l
0.3197 0.3087 l
0.3206 0.3092 l
0.3216 0.3096 l
0.3225 0.3101 l
0.3234 0.3105 l
0.3244 0.3110 l
0.3253 0.3115 l
0.3262 0.3114 l
0.3272 0.3119 l
0.3281 0.3123 l
0.3291 0.3129 l
0.3300 0.3132 l
0.3309 0.3134 l
0.3319 0.3140 l
0.3328 0.3147 l
0.3337 0.3149 l
0.3347 0.3155 l
0.3356 0.3158 l
0.3366 0.3161 l
0.3375 0.3163 l
0.3384 0.3168 l
0.3394 0.3172 l
0.3403 0.3177 l
0.3412 0.3181 l
0.3422 0.3186 l
0.3431 0.3190 l
0.3441 0.3192 l
0.3450 0.3199 l
0.3459 0.3201 l
0.3469 0.3204 l
0.3478 0.3211 l
0.3487 0.3217 l
0.3497 0.3217 l
0.3506 0.3221 l
0.3516 0.3230 l
0.3525 0.3234 l
0.3534 0.3237 l
0.3544 0.3245 l
0.3553 0.3249 l
0.3562 0.3252 l
0.3572 0.3259 l
0.3581 0.3260 l
0.3591 0.3270 l
0.3600 0.3273 l
0.3609 0.3274 l
0.3619 0.3282 l
0.3628 0.3287 l
0.3637 0.3294 l
0.3647 0.3300 l
0.3656 0.3301 l
0.3666 0.3307 l
0.3675 0.3316 l
0.3684 0.3317 l
0.3694 0.3327 l
0.3703 0.3330 l
0.3712 0.3339 l
0.3722 0.3342 l
0.3731 0.3352 l
0.3741 0.3354 l
0.3750 0.3361 l
0.3759 0.3366 l
0.3769 0.3376 l
0.3778 0.3381 l
0.3787 0.3387 l
0.3797 0.3399 l
0.3806 0.3405 l
0.3816 0.3408 l
0.3825 0.3413 l
0.3834 0.3422 l
0.3844 0.3434 l
0.3853 0.3437 l
0.3862 0.3448 l
0.3872 0.3452 l
0.3881 0.3457 l
0.3891 0.3468 l
0.3900 0.3474 l
0.3909 0.3483 l
0.3919 0.3492 l
0.3928 0.3499 l
0.3937 0.3504 l
0.3947 0.3520 l
0.3956 0.3524 l
0.3966 0.3535 l
0.3975 0.3543 l
0.3984 0.3549 l
0.3994 0.3562 l
0.4003 0.3570 l
0.4012 0.3584 l
0.4022 0.3594 l
0.4031 0.3598 l
0.4041 0.3606 l
0.4050 0.3617 l
0.4059 0.3626 l
0.4069 0.3638 l
0.4078 0.3648 l
0.4087 0.3660 l
0.4097 0.3665 l
0.4106 0.3672 l
0.4116 0.3688 l
0.4125 0.3692 l
0.4134 0.3703 l
0.4144 0.3707 l
0.4153 0.3717 l
0.4162 0.3728 l
0.4172 0.3738 l
0.4181 0.3747 l
0.4191 0.3754 l
0.4200 0.3768 l
0.4209 0.3777 l
0.4219 0.3783 l
0.4228 0.3795 l
0.4237 0.3803 l
0.4247 0.3811 l
0.4256 0.3817 l
0.4266 0.3826 l
0.4275 0.3834 l
0.4284 0.3844 l
0.4294 0.3853 l
0.4303 0.3861 l
0.4312 0.3867 l
0.4322 0.3878 l
0.4331 0.3881 l
0.4341 0.3896 l
0.4350 0.3899 l
0.4359 0.3906 l
0.4369 0.3912 l
0.4378 0.3915 l
0.4387 0.3914 l
0.4397 0.3926 l
0.4406 0.3926 l
0.4416 0.3929 l
0.4425 0.3936 l
0.4434 0.3935 l
0.4444 0.3938 l
0.4453 0.3919 l
0.4462 0.3900 l
0.4472 0.3816 l
0.4481 0.3756 l
0.4491 0.3634 l
0.4500 0.3639 l
0.4509 0.3635 l
0.4519 0.3617 l
0.4528 0.3637 l
0.4537 0.3637 l
0.4547 0.3616 l
0.4556 0.3635 l
0.4566 0.3619 l
0.4575 0.3624 l
0.4584 0.3635 l
0.4594 0.3630 l
0.4603 0.3630 l
0.4612 0.3614 l
0.4622 0.3633 l
0.4631 0.3628 l
0.4641 0.3646 l
0.4650 0.3623 l
0.4659 0.3631 l
0.4669 0.3634 l
0.4678 0.3627 l
0.4687 0.3641 l
0.4697 0.3636 l
0.4706 0.3631 l
0.4716 0.3636 l
0.4725 0.3641 l
0.4734 0.3624 l
0.4744 0.3619 l
0.4753 0.3628 l
0.4762 0.3625 l
0.4772 0.3637 l
0.4781 0.3643 l
0.4791 0.3630 l
0.4800 0.3640 l
0.4809 0.3639 l
0.4819 0.3635 l
0.4828 0.3630 l
0.4837 0.3635 l
0.4847 0.3645 l
0.4856 0.3625 l
0.4866 0.3640 l
0.4875 0.3625 l
0.4884 0.3626 l
0.4894 0.3635 l
0.4903 0.3641 l
0.4912 0.3629 l
0.4922 0.3637 l
0.4931 0.3628 l
0.4941 0.3631 l
0.4950 0.3646 l
0.4959 0.3647 l
0.4969 0.3639 l
0.4978 0.3636 l
0.4987 0.3646 l
0.4997 0.3639 l
0.5006 0.3631 l
0.5016 0.3638 l
0.5025 0.3628 l
0.5034 0.3635 l
0.5044 0.3652 l
0.5053 0.3635 l
0.5062 0.3635 l
0.5072 0.3643 l
0.5081 0.3628 l
0.5091 0.3646 l
0.5100 0.3647 l
0.5109 0.3641 l
0.5119 0.3633 l
0.5128 0.3627 l
0.5137 0.3637 l
0.5147 0.3644 l
0.5156 0.3646 l
0.5166 0.3646 l
0.5175 0.3645 l
0.5184 0.3638 l
0.5194 0.3634 l
0.5203 0.3639 l
0.5212 0.3645 l
0.5222 0.3657 l
0.5231 0.3642 l
0.5241 0.3646 l
0.5250 0.3656 l
0.5259 0.3652 l
0.5269 0.3645 l
0.5278 0.3647 l
0.5287 0.3642 l
0.5297 0.3639 l
0.5306 0.3648 l
0.5316 0.3655 l
0.5325 0.3642 l
0.5334 0.3652 l
0.5344 0.3644 l
0.5353 0.3653 l
0.5362 0.3654 l
0.5372 0.3656 l
0.5381 0.3650 l
0.5391 0.3640 l
0.5400 0.3649 l
0.5409 0.3648 l
0.5419 0.3667 l
0.5428 0.3660 l
0.5437 0.3653 l
0.5447 0.3652 l
0.5456 0.3660 l
0.5466 0.3660 l
0.5475 0.3657 l
0.5484 0.3647 l
0.5494 0.3646 l
0.5503 0.3651 l
0.5512 0.3663 l
0.5522 0.3665 l
0.5531 0.3663 l
0.5541 0.3665 l
0.5550 0.3666 l
0.5559 0.3653 l
0.5569 0.3669 l
0.5578 0.3662 l
0.5587 0.3667 l
0.5597 0.3662 l
0.5606 0.3665 l
0.5616 0.3667 l
0.5625 0.3666 l
0.5634 0.3667 l
0.5644 0.3665 l
0.5653 0.3662 l
0.5662 0.3668 l
0.5672 0.3662 l
0.5681 0.3665 l
0.5691 0.3670 l
0.5700 0.3664 l
0.5709 0.3672 l
0.5719 0.3673 l
0.5728 0.3672 l
0.5737 0.3676 l
0.5747 0.3663 l
0.5756 0.3663 l
0.5766 0.3667 l
0.5775 0.3677 l
0.5784 0.3683 l
0.5794 0.3686 l
0.5803 0.3694 l
0.5812 0.3697 l
0.5822 0.3701 l
0.5831 0.3706 l
0.5841 0.3683 l
0.5850 0.3649 l
0.5859 0.3624 l
0.5869 0.3627 l
0.5878 0.3637 l
0.5887 0.3645 l
0.5897 0.3653 l
0.5906 0.3656 l
0.5916 0.3661 l
0.5925 0.3670 l
0.5934 0.3679 l
0.5944 0.3683 l
0.5953 0.3689 l
0.5962 0.3695 l
0.5972 0.3701 l
0.5981 0.3708 l
0.5991 0.3715 l
0.6000 0.3718 l
0.6009 0.3725 l
0.6019 0.3731 l
0.6028 0.3735 l
0.6037 0.3739 l
0.6047 0.3744 l
0.6056 0.3751 l
0.6066 0.3754 l
0.6075 0.3757 l
0.6084 0.3764 l
0.6094 0.3774 l
0.6103 0.3776 l
0.6112 0.3774 l
0.6122 0.3780 l
0.6131 0.3788 l
0.6141 0.3792 l
0.6150 0.3796 l
0.6159 0.3797 l
0.6169 0.3807 l
0.6178 0.3805 l
0.6187 0.3810 l
0.6197 0.3816 l
0.6206 0.3818 l
0.6216 0.3823 l
0.6225 0.3823 l
0.6234 0.3829 l
0.6244 0.3834 l
0.6253 0.3833 l
0.6262 0.3840 l
0.6272 0.3841 l
0.6281 0.3849 l
0.6291 0.3849 l
0.6300 0.3856 l
0.6309 0.3855 l
0.6319 0.3857 l
0.6328 0.3861 l
0.6337 0.3866 l
0.6347 0.3868 l
0.6356 0.3867 l
0.6366 0.3873 l
0.6375 0.3875 l
0.6384 0.3876 l
0.6394 0.3879 l
0.6403 0.3883 l
0.6412 0.3886 l
0.6422 0.3886 l
0.6431 0.3893 l
0.6441 0.3891 l
0.6450 0.3896 l
0.6459 0.3900 l
0.6469 0.3906 l
0.6478 0.3905 l
0.6487 0.3911 l
0.6497 0.3909 l
0.6506 0.3912 l
0.6516 0.3916 l
0.6525 0.3922 l
0.6534 0.3917 l
0.6544 0.3921 l
0.6553 0.3923 l
0.6562 0.3929 l
0.6572 0.3930 l
0.6581 0.3928 l
0.6591 0.3939 l
0.6600 0.3941 l
0.6609 0.3939 l
0.6619 0.3944 l
0.6628 0.3945 l
0.6637 0.3950 l
0.6647 0.3949 l
0.6656 0.3955 l
0.6666 0.3960 l
0.6675 0.3963 l
0.6684 0.3963 l
0.6694 0.3967 l
0.6703 0.3973 l
0.6712 0.3969 l
0.6722 0.3972 l
0.6731 0.3977 l
0.6741 0.3979 l
0.6750 0.3979 l
0.6759 0.3984 l
0.6769 0.3987 l
0.6778 0.3992 l
0.6787 0.3988 l
0.6797 0.3999 l
0.6806 0.4000 l
0.6816 0.4005 l
0.6825 0.4010 l
0.6834 0.4016 l
0.6844 0.4013 l
0.6853 0.4021 l
0.6862 0.4021 l
0.6872 0.4023 l
0.6881 0.4030 l
0.6891 0.4036 l
0.6900 0.4034 l
0.6909 0.4039 l
0.6919 0.4047 l
0.6928 0.4052 l
0.6937 0.4056 l
0.6947 0.4063 l
0.6956 0.4074 l
0.6966 0.4067 l
0.6975 0.4080 l
0.6984 0.4076 l
0.6994 0.4087 l
0.7003 0.4094 l
0.7012 0.4106 l
0.7022 0.4108 l
0.7031 0.4115 l
0.7041 0.4118 l
0.7050 0.4141 l
0.7059 0.4131 l
0.7069 0.4141 l
0.7078 0.4136 l
0.7087 0.4158 l
0.7097 0.4172 l
0.7106 0.4180 l
0.7116 0.4185 l
0.7125 0.4200 l
0.7134 0.4214 l
0.7144 0.4224 l
0.7153 0.4226 l
0.7162 0.4267 l
0.7172 0.4275 l
0.7181 0.4290 l
0.7191 0.4312 l
0.7200 0.4322 l
0.7209 0.4353 l
0.7219 0.4371 l
0.7228 0.4377 l
0.7237 0.4422 l
0.7247 0.4428 l
0.7256 0.4460 l
0.7266 0.4495 l
0.7275 0.4517 l
0.7284 0.4546 l
0.7294 0.4578 l
0.7303 0.4613 l
0.7312 0.4653 l
0.7322 0.4697 l
0.7331 0.4726 l
0.7341 0.4786 l
0.7350 0.4817 l
0.7359 0.4866 l
0.7369 0.4917 l
0.7378 0.4957 l
0.7387 0.5001 l
0.7397 0.5059 l
0.7406 0.5112 l
0.7416 0.5156 l
0.7425 0.5222 l
0.7434 0.5268 l
0.7444 0.5322 l
0.7453 0.5379 l
0.7462 0.5448 l
0.7472 0.5491 l
0.7481 0.5549 l
0.7491 0.5620 l
0.7500 0.5664 l
0.7509 0.5717 l
0.7519 0.5780 l
0.7528 0.5828 l
0.7537 0.5890 l
0.7547 0.5940 l
0.7556 0.5989 l
0.7566 0.6048 l
0.7575 0.6100 l
0.7584 0.6140 l
0.7594 0.6212 l
0.7603 0.6260 l
0.7612 0.6314 l
0.7622 0.6376 l
0.7631 0.6416 l
0.7641 0.6466 l
0.7650 0.6513 l
0.7659 0.6567 l
0.7669 0.6622 l
0.7678 0.6667 l
0.7687 0.6710 l
0.7697 0.6759 l
0.7706 0.6807 l
0.7716 0.6858 l
0.7725 0.5156 l
0.7734 0.2663 l
0.7744 0.1861 l
0.7752 0.1499 l
s
n
0.7769 0.1499 m
0.7772 0.1520 l
0.7781 0.1561 l
0.7791 0.1508 l
0.7792 0.1499 l
s
n
0.7816 0.1499 m
0.7819 0.1517 l
0.7828 0.1530 l
0.7837 0.1535 l
0.7845 0.1499 l
s
n
0.7867 0.1499 m
0.7875 0.1522 l
0.7884 0.1524 l
0.7894 0.1505 l
0.7895 0.1499 l
s
n
0.7924 0.1499 m
0.7931 0.1519 l
0.7941 0.1523 l
0.7950 0.1514 l
0.7956 0.1499 l
s
n
0.7964 0.1499 m
0.7969 0.1509 l
0.7978 0.1511 l
0.7987 0.1518 l
0.7997 0.1502 l
0.7998 0.1499 l
s
n
0.8029 0.1499 m
0.8034 0.1512 l
0.8044 0.1520 l
0.8053 0.1511 l
0.8059 0.1499 l
s
n
0.8086 0.1499 m
0.8091 0.1506 l
0.8100 0.1501 l
0.8101 0.1499 l
s
n
0.8134 0.1499 m
0.8137 0.1503 l
0.8147 0.1523 l
0.8156 0.1513 l
0.8166 0.1507 l
0.8171 0.1499 l
s
n
0.8179 0.1499 m
0.8184 0.1505 l
0.8194 0.1502 l
0.8198 0.1499 l
s
n
0.8208 0.1499 m
0.8212 0.1503 l
0.8218 0.1499 l
s
n
0.8257 0.1499 m
0.8259 0.1504 l
0.8269 0.1511 l
0.8278 0.1515 l
0.8287 0.1504 l
0.8297 0.1506 l
0.8306 0.1502 l
0.8316 0.1511 l
0.8325 0.1502 l
0.8329 0.1499 l
s
n
0.8376 0.1499 m
0.8381 0.1501 l
0.8391 0.1510 l
0.8400 0.1500 l
0.8409 0.1500 l
0.8410 0.1499 l
s
n
0.8426 0.1499 m
0.8428 0.1501 l
0.8437 0.1500 l
0.8447 0.1508 l
0.8456 0.1507 l
0.8466 0.1502 l
0.8467 0.1499 l
s
n
0.8515 0.1499 m
0.8522 0.1506 l
0.8528 0.1499 l
s
n
0.8593 0.1499 m
0.8597 0.1505 l
0.8605 0.1499 l
s
n
0.8608 0.1499 m
0.8616 0.1503 l
0.8618 0.1499 l
s
n
0.8633 0.1499 m
0.8634 0.1501 l
0.8638 0.1499 l
s
n
0.8649 0.1499 m
0.8653 0.1501 l
0.8662 0.1504 l
0.8670 0.1499 l
s
n
0.8700 0.1499 m
0.8700 0.1499 l
0.8701 0.1499 l
s
n
0.8765 0.1499 m
0.8766 0.1499 l
0.8775 0.1503 l
0.8784 0.1508 l
0.8794 0.1499 l
0.8803 0.1502 l
0.8812 0.1499 l
0.8822 0.1507 l
0.8831 0.1506 l
0.8841 0.1510 l
0.8850 0.1499 l
s
n
0.8851 0.1499 m
0.8859 0.1503 l
0.8862 0.1499 l
s
n
0.8889 0.1499 m
0.8897 0.1506 l
0.8905 0.1499 l
s
n
0.8921 0.1499 m
0.8925 0.1501 l
0.8934 0.1500 l
0.8944 0.1504 l
0.8953 0.1512 l
0.8962 0.1505 l
0.8969 0.1499 l
s
n
0.8995 0.1499 m
0.9000 0.1506 l
0.9009 0.1502 l
0.9016 0.1499 l
s
n
0.9030 0.1499 m
0.9037 0.1504 l
0.9045 0.1499 l
s
n
0.9050 0.1499 m
0.9056 0.1502 l
0.9066 0.1503 l
0.9070 0.1499 l
s
n
0.9078 0.1499 m
0.9084 0.1507 l
0.9092 0.1499 l
s
n
0.9096 0.1499 m
0.9103 0.1507 l
0.9112 0.1508 l
0.9121 0.1499 l
s
n
0.9122 0.1499 m
0.9131 0.1505 l
0.9141 0.1508 l
0.9150 0.1502 l
0.9159 0.1506 l
0.9165 0.1499 l
s
n
0.9201 0.1499 m
0.9206 0.1503 l
0.9216 0.1506 l
0.9221 0.1499 l
s
n
0.9240 0.1499 m
0.9244 0.1501 l
0.9253 0.1503 l
0.9262 0.1507 l
0.9272 0.1504 l
0.9281 0.1501 l
0.9284 0.1499 l
s
n
0.9304 0.1499 m
0.9309 0.1506 l
0.9319 0.1506 l
0.9328 0.1508 l
0.9337 0.1499 l
0.9338 0.1499 l
s
n
0.9368 0.1499 m
0.9375 0.1508 l
0.9384 0.1512 l
0.9394 0.1502 l
0.9401 0.1499 l
s
n
0.9422 0.1499 m
0.9422 0.1499 l
0.9431 0.1511 l
0.9441 0.1510 l
0.9450 0.1507 l
0.9459 0.1504 l
0.9469 0.1500 l
0.9478 0.1505 l
0.9487 0.1501 l
0.9497 0.1512 l
0.9506 0.1504 l
0.9516 0.1501 l
0.9518 0.1499 l
s
n
0.9547 0.1499 m
0.9553 0.1508 l
0.9562 0.1517 l
0.9572 0.1517 l
0.9581 0.1501 l
0.9591 0.1500 l
0.9593 0.1499 l
s
n
0.9608 0.1499 m
0.9609 0.1500 l
0.9619 0.1507 l
0.9628 0.1504 l
0.9637 0.1499 l
s
n
0.9675 0.1499 m
0.9675 0.1499 l
0.9684 0.1500 l
0.9694 0.1506 l
0.9703 0.1503 l
0.9708 0.1499 l
s
n
0.9735 0.1499 m
0.9741 0.1501 l
0.9750 0.1507 l
0.9759 0.1508 l
0.9769 0.1502 l
0.9774 0.1499 l
s
n
0.9784 0.1499 m
0.9787 0.1500 l
0.9791 0.1499 l
s
n
0.9799 0.1499 m
0.9806 0.1512 l
0.9816 0.1504 l
0.9825 0.1502 l
0.9831 0.1499 l
s
n
0.9875 0.1499 m
0.9881 0.1504 l
0.9888 0.1499 l
s
n
0.9920 0.1499 m
0.9928 0.1510 l
0.9937 0.1508 l
0.9947 0.1506 l
0.9951 0.1499 l
s
n
0.9982 0.1499 m
0.9984 0.1503 l
0.9994 0.1505 l
1.0003 0.1511 l
1.0012 0.1499 l
s
n
1.0021 0.1499 m
1.0022 0.1499 l
1.0022 0.1499 l
s
n
1.0042 0.1499 m
1.0050 0.1503 l
1.0059 0.1503 l
1.0069 0.1502 l
1.0078 0.1503 l
1.0087 0.1509 l
1.0097 0.1516 l
1.0106 0.1510 l
1.0113 0.1499 l
s
n
1.0161 0.1499 m
1.0162 0.1502 l
1.0165 0.1499 l
s
n
1.0178 0.1499 m
1.0181 0.1503 l
1.0184 0.1499 l
s
n
1.0196 0.1499 m
1.0200 0.1507 l
1.0209 0.1502 l
1.0219 0.1508 l
1.0228 0.1507 l
1.0237 0.1506 l
1.0247 0.1506 l
1.0253 0.1499 l
s
n
1.0269 0.1499 m
1.0275 0.1507 l
1.0284 0.1503 l
1.0294 0.1509 l
1.0302 0.1499 l
s
n
1.0320 0.1499 m
1.0322 0.1500 l
1.0331 0.1499 l
1.0341 0.1505 l
1.0350 0.1506 l
1.0357 0.1499 l
s
n
1.0381 0.1499 m
1.0387 0.1510 l
1.0397 0.1508 l
1.0406 0.1501 l
1.0415 0.1499 l
s
n
1.0440 0.1499 m
1.0444 0.1501 l
1.0453 0.1500 l
1.0462 0.1501 l
1.0472 0.1501 l
1.0473 0.1499 l
s
n
1.0515 0.1499 m
1.0519 0.1501 l
1.0528 0.1501 l
1.0537 0.1514 l
1.0547 0.1508 l
1.0556 0.1509 l
1.0566 0.1506 l
1.0575 0.1501 l
1.0583 0.1499 l
s
n
1.0585 0.1499 m
1.0594 0.1501 l
1.0597 0.1499 l
s
n
1.0606 0.1499 m
1.0612 0.1507 l
1.0622 0.1501 l
1.0631 0.1501 l
1.0641 0.1505 l
1.0650 0.1504 l
1.0659 0.1500 l
1.0669 0.1506 l
1.0678 0.1508 l
1.0687 0.1509 l
1.0697 0.1507 l
1.0706 0.1506 l
1.0716 0.1510 l
1.0725 0.1501 l
1.0734 0.1504 l
1.0744 0.1502 l
1.0747 0.1499 l
s
n
1.0760 0.1499 m
1.0762 0.1502 l
1.0772 0.1499 l
1.0772 0.1499 l
s
n
1.0823 0.1499 m
1.0828 0.1501 l
1.0837 0.1500 l
1.0842 0.1499 l
s
n
1.0870 0.1499 m
1.0875 0.1509 l
1.0879 0.1499 l
s
[/DeviceRGB] SCS
Color4 SC
[0.0023 0.0068 0.0113 0.0068 ] 0 SD
0.0023 SLW
n
0.1506 0.1512 m
0.1509 0.1516 l
0.1519 0.1530 l
0.1528 0.1542 l
0.1537 0.1557 l
0.1547 0.1569 l
0.1556 0.1582 l
0.1566 0.1594 l
0.1575 0.1608 l
0.1584 0.1621 l
0.1594 0.1634 l
0.1603 0.1647 l
0.1613 0.1659 l
0.1622 0.1671 l
0.1631 0.1684 l
0.1641 0.1697 l
0.1650 0.1709 l
0.1659 0.1722 l
0.1669 0.1735 l
0.1678 0.1748 l
0.1688 0.1760 l
0.1697 0.1773 l
0.1706 0.1786 l
0.1716 0.1798 l
0.1725 0.1811 l
0.1734 0.1824 l
0.1744 0.1836 l
0.1753 0.1848 l
0.1763 0.1861 l
0.1772 0.1874 l
0.1781 0.1885 l
0.1791 0.1898 l
0.1800 0.1910 l
0.1809 0.1923 l
0.1819 0.1935 l
0.1828 0.1946 l
0.1837 0.1959 l
0.1847 0.1971 l
0.1856 0.1982 l
0.1866 0.1994 l
0.1875 0.2007 l
0.1884 0.2019 l
0.1894 0.2031 l
0.1903 0.2043 l
0.1912 0.2055 l
0.1922 0.2067 l
0.1931 0.2078 l
0.1941 0.2089 l
0.1950 0.2101 l
0.1959 0.2113 l
0.1969 0.2124 l
0.1978 0.2137 l
0.1987 0.2147 l
0.1997 0.2157 l
0.2006 0.2169 l
0.2016 0.2180 l
0.2025 0.2192 l
0.2034 0.2202 l
0.2044 0.2213 l
0.2053 0.2224 l
0.2062 0.2235 l
0.2072 0.2246 l
0.2081 0.2257 l
0.2091 0.2267 l
0.2100 0.2279 l
0.2109 0.2289 l
0.2119 0.2299 l
0.2128 0.2311 l
0.2137 0.2321 l
0.2147 0.2330 l
0.2156 0.2341 l
0.2166 0.2352 l
0.2175 0.2362 l
0.2184 0.2370 l
0.2194 0.2382 l
0.2203 0.2392 l
0.2212 0.2401 l
0.2222 0.2412 l
0.2231 0.2421 l
0.2241 0.2430 l
0.2250 0.2440 l
0.2259 0.2451 l
0.2269 0.2459 l
0.2278 0.2469 l
0.2287 0.2479 l
0.2297 0.2488 l
0.2306 0.2496 l
0.2316 0.2506 l
0.2325 0.2515 l
0.2334 0.2524 l
0.2344 0.2532 l
0.2353 0.2543 l
0.2362 0.2551 l
0.2372 0.2559 l
0.2381 0.2569 l
0.2391 0.2577 l
0.2400 0.2586 l
0.2409 0.2594 l
0.2419 0.2603 l
0.2428 0.2610 l
0.2437 0.2620 l
0.2447 0.2627 l
0.2456 0.2636 l
0.2466 0.2643 l
0.2475 0.2652 l
0.2484 0.2660 l
0.2494 0.2667 l
0.2503 0.2675 l
0.2512 0.2684 l
0.2522 0.2690 l
0.2531 0.2699 l
0.2541 0.2706 l
0.2550 0.2714 l
0.2559 0.2721 l
0.2569 0.2728 l
0.2578 0.2735 l
0.2587 0.2742 l
0.2597 0.2751 l
0.2606 0.2756 l
0.2616 0.2764 l
0.2625 0.2772 l
0.2634 0.2778 l
0.2644 0.2786 l
0.2653 0.2791 l
0.2662 0.2798 l
0.2672 0.2803 l
0.2681 0.2811 l
0.2691 0.2818 l
0.2700 0.2825 l
0.2709 0.2830 l
0.2719 0.2836 l
0.2728 0.2843 l
0.2737 0.2849 l
0.2747 0.2856 l
0.2756 0.2861 l
0.2766 0.2867 l
0.2775 0.2873 l
0.2784 0.2879 l
0.2794 0.2884 l
0.2803 0.2891 l
0.2812 0.2896 l
0.2822 0.2901 l
0.2831 0.2908 l
0.2841 0.2914 l
0.2850 0.2918 l
0.2859 0.2924 l
0.2869 0.2929 l
0.2878 0.2934 l
0.2887 0.2941 l
0.2897 0.2944 l
0.2906 0.2950 l
0.2916 0.2955 l
0.2925 0.2959 l
0.2934 0.2965 l
0.2944 0.2969 l
0.2953 0.2973 l
0.2962 0.2978 l
0.2972 0.2984 l
0.2981 0.2989 l
0.2991 0.2995 l
0.3000 0.2999 l
0.3009 0.3003 l
0.3019 0.3007 l
0.3028 0.3012 l
0.3037 0.3017 l
0.3047 0.3020 l
0.3056 0.3024 l
0.3066 0.3030 l
0.3075 0.3034 l
0.3084 0.3038 l
0.3094 0.3041 l
0.3103 0.3047 l
0.3112 0.3050 l
0.3122 0.3054 l
0.3131 0.3059 l
0.3141 0.3063 l
0.3150 0.3068 l
0.3159 0.3072 l
0.3169 0.3075 l
0.3178 0.3078 l
0.3187 0.3083 l
0.3197 0.3088 l
0.3206 0.3092 l
0.3216 0.3097 l
0.3225 0.3100 l
0.3234 0.3103 l
0.3244 0.3108 l
0.3253 0.3111 l
0.3262 0.3115 l
0.3272 0.3120 l
0.3281 0.3124 l
0.3291 0.3127 l
0.3300 0.3133 l
0.3309 0.3135 l
0.3319 0.3140 l
0.3328 0.3143 l
0.3337 0.3149 l
0.3347 0.3154 l
0.3356 0.3157 l
0.3366 0.3160 l
0.3375 0.3166 l
0.3384 0.3169 l
0.3394 0.3172 l
0.3403 0.3175 l
0.3412 0.3181 l
0.3422 0.3185 l
0.3431 0.3189 l
0.3441 0.3193 l
0.3450 0.3196 l
0.3459 0.3203 l
0.3469 0.3207 l
0.3478 0.3211 l
0.3487 0.3213 l
0.3497 0.3220 l
0.3506 0.3223 l
0.3516 0.3231 l
0.3525 0.3233 l
0.3534 0.3237 l
0.3544 0.3241 l
0.3553 0.3248 l
0.3562 0.3251 l
0.3572 0.3254 l
0.3581 0.3259 l
0.3591 0.3265 l
0.3600 0.3271 l
0.3609 0.3275 l
0.3619 0.3280 l
0.3628 0.3286 l
0.3637 0.3291 l
0.3647 0.3297 l
0.3656 0.3303 l
0.3666 0.3308 l
0.3675 0.3316 l
0.3684 0.3324 l
0.3694 0.3327 l
0.3703 0.3331 l
0.3712 0.3337 l
0.3722 0.3343 l
0.3731 0.3350 l
0.3741 0.3355 l
0.3750 0.3360 l
0.3759 0.3368 l
0.3769 0.3371 l
0.3778 0.3379 l
0.3787 0.3386 l
0.3797 0.3393 l
0.3806 0.3400 l
0.3816 0.3408 l
0.3825 0.3415 l
0.3834 0.3424 l
0.3844 0.3431 l
0.3853 0.3435 l
0.3862 0.3444 l
0.3872 0.3455 l
0.3881 0.3461 l
0.3891 0.3468 l
0.3900 0.3478 l
0.3909 0.3481 l
0.3919 0.3497 l
0.3928 0.3505 l
0.3937 0.3510 l
0.3947 0.3518 l
0.3956 0.3528 l
0.3966 0.3535 l
0.3975 0.3544 l
0.3984 0.3555 l
0.3994 0.3563 l
0.4003 0.3567 l
0.4012 0.3579 l
0.4022 0.3589 l
0.4031 0.3599 l
0.4041 0.3608 l
0.4050 0.3618 l
0.4059 0.3629 l
0.4069 0.3635 l
0.4078 0.3643 l
0.4087 0.3655 l
0.4097 0.3663 l
0.4106 0.3673 l
0.4116 0.3682 l
0.4125 0.3694 l
0.4134 0.3699 l
0.4144 0.3712 l
0.4153 0.3719 l
0.4162 0.3729 l
0.4172 0.3739 l
0.4181 0.3748 l
0.4191 0.3758 l
0.4200 0.3766 l
0.4209 0.3774 l
0.4219 0.3784 l
0.4228 0.3791 l
0.4237 0.3800 l
0.4247 0.3809 l
0.4256 0.3821 l
0.4266 0.3827 l
0.4275 0.3833 l
0.4284 0.3842 l
0.4294 0.3850 l
0.4303 0.3860 l
0.4312 0.3868 l
0.4322 0.3875 l
0.4331 0.3885 l
0.4341 0.3891 l
0.4350 0.3896 l
0.4359 0.3903 l
0.4369 0.3912 l
0.4378 0.3916 l
0.4387 0.3917 l
0.4397 0.3914 l
0.4406 0.3933 l
0.4416 0.3930 l
0.4425 0.3935 l
0.4434 0.3930 l
0.4444 0.3940 l
0.4453 0.3925 l
0.4462 0.3918 l
0.4472 0.3885 l
0.4481 0.3817 l
0.4491 0.3747 l
0.4500 0.3630 l
0.4509 0.3404 l
0.4519 0.2214 l
0.4527 0.1499 l
s
n
0.4538 0.1499 m
0.4547 0.1654 l
0.4556 0.1514 l
0.4563 0.1499 l
s
n
0.4566 0.1499 m
0.4575 0.1651 l
0.4584 0.1559 l
0.4588 0.1499 l
s
n
0.4599 0.1499 m
0.4603 0.1566 l
0.4612 0.1658 l
0.4622 0.1512 l
0.4626 0.1499 l
s
n
0.4633 0.1499 m
0.4641 0.1572 l
0.4650 0.1555 l
0.4658 0.1499 l
s
n
0.4660 0.1499 m
0.4669 0.1556 l
0.4678 0.1612 l
0.4687 0.1542 l
0.4695 0.1499 l
s
n
0.4700 0.1499 m
0.4706 0.1524 l
0.4716 0.1599 l
0.4725 0.1570 l
0.4734 0.1522 l
0.4744 0.1544 l
0.4753 0.1564 l
0.4762 0.1537 l
0.4772 0.1528 l
0.4781 0.1578 l
0.4791 0.1583 l
0.4800 0.1525 l
0.4809 0.1499 l
s
n
0.4809 0.1499 m
0.4819 0.1561 l
0.4828 0.1579 l
0.4837 0.1552 l
0.4847 0.1543 l
0.4856 0.1562 l
0.4866 0.1560 l
0.4875 0.1524 l
0.4884 0.1547 l
0.4894 0.1582 l
0.4903 0.1570 l
0.4912 0.1518 l
0.4922 0.1529 l
0.4931 0.1569 l
0.4941 0.1568 l
0.4950 0.1540 l
0.4959 0.1562 l
0.4969 0.1583 l
0.4978 0.1545 l
0.4987 0.1522 l
0.4997 0.1564 l
0.5006 0.1603 l
0.5016 0.1560 l
0.5025 0.1538 l
0.5034 0.1562 l
0.5044 0.1578 l
0.5053 0.1545 l
0.5062 0.1549 l
0.5072 0.1594 l
0.5081 0.1596 l
0.5091 0.1541 l
0.5100 0.1538 l
0.5109 0.1584 l
0.5119 0.1594 l
0.5128 0.1565 l
0.5137 0.1568 l
0.5147 0.1598 l
0.5156 0.1586 l
0.5166 0.1547 l
0.5175 0.1558 l
0.5184 0.1602 l
0.5194 0.1574 l
0.5203 0.1530 l
0.5212 0.1555 l
0.5222 0.1579 l
0.5231 0.1553 l
0.5241 0.1539 l
0.5250 0.1569 l
0.5259 0.1595 l
0.5269 0.1561 l
0.5278 0.1533 l
0.5287 0.1564 l
0.5297 0.1579 l
0.5306 0.1554 l
0.5316 0.1554 l
0.5325 0.1580 l
0.5334 0.1583 l
0.5344 0.1551 l
0.5353 0.1552 l
0.5362 0.1587 l
0.5372 0.1594 l
0.5381 0.1572 l
0.5391 0.1559 l
0.5400 0.1584 l
0.5409 0.1586 l
0.5419 0.1567 l
0.5428 0.1577 l
0.5437 0.1608 l
0.5447 0.1602 l
0.5456 0.1577 l
0.5466 0.1571 l
0.5475 0.1595 l
0.5484 0.1610 l
0.5494 0.1589 l
0.5503 0.1592 l
0.5512 0.1610 l
0.5522 0.1600 l
0.5531 0.1579 l
0.5541 0.1595 l
0.5550 0.1621 l
0.5559 0.1624 l
0.5569 0.1598 l
0.5578 0.1590 l
0.5587 0.1617 l
0.5597 0.1622 l
0.5606 0.1611 l
0.5616 0.1619 l
0.5625 0.1632 l
0.5634 0.1629 l
0.5644 0.1610 l
0.5653 0.1613 l
0.5662 0.1642 l
0.5672 0.1643 l
0.5681 0.1622 l
0.5691 0.1622 l
0.5700 0.1632 l
0.5709 0.1633 l
0.5719 0.1627 l
0.5728 0.1562 l
0.5737 0.1602 l
0.5747 0.1561 l
0.5756 0.1515 l
0.5766 0.1549 l
0.5775 0.1568 l
0.5784 0.1542 l
0.5794 0.1542 l
0.5803 0.1579 l
0.5812 0.1557 l
0.5822 0.1514 l
0.5831 0.1534 l
0.5841 0.1579 l
0.5850 0.1579 l
0.5859 0.1532 l
0.5869 0.1540 l
0.5878 0.1562 l
0.5887 0.1555 l
0.5897 0.1538 l
0.5906 0.1562 l
0.5916 0.1580 l
0.5925 0.1551 l
0.5934 0.1534 l
0.5944 0.1550 l
0.5953 0.1581 l
0.5962 0.1563 l
0.5972 0.1544 l
0.5981 0.1558 l
0.5991 0.1574 l
0.6000 0.1548 l
0.6009 0.1549 l
0.6019 0.1579 l
0.6028 0.1585 l
0.6037 0.1562 l
0.6047 0.1548 l
0.6056 0.1569 l
0.6066 0.1588 l
0.6075 0.1571 l
0.6084 0.1567 l
0.6094 0.1589 l
0.6103 0.1587 l
0.6112 0.1564 l
0.6122 0.1561 l
0.6131 0.1587 l
0.6141 0.1592 l
0.6150 0.1577 l
0.6159 0.1575 l
0.6169 0.1598 l
0.6178 0.1589 l
0.6187 0.1571 l
0.6197 0.1579 l
0.6206 0.1603 l
0.6216 0.1602 l
0.6225 0.1589 l
0.6234 0.1587 l
0.6244 0.1607 l
0.6253 0.1603 l
0.6262 0.1584 l
0.6272 0.1592 l
0.6281 0.1611 l
0.6291 0.1612 l
0.6300 0.1603 l
0.6309 0.1603 l
0.6319 0.1612 l
0.6328 0.1604 l
0.6337 0.1593 l
0.6347 0.1608 l
0.6356 0.1633 l
0.6366 0.1628 l
0.6375 0.1610 l
0.6384 0.1610 l
0.6394 0.1622 l
0.6403 0.1618 l
0.6412 0.1610 l
0.6422 0.1627 l
0.6431 0.1643 l
0.6441 0.1627 l
0.6450 0.1612 l
0.6459 0.1619 l
0.6469 0.1633 l
0.6478 0.1633 l
0.6487 0.1624 l
0.6497 0.1625 l
0.6506 0.1642 l
0.6516 0.1633 l
0.6525 0.1592 l
0.6534 0.1566 l
0.6544 0.1552 l
0.6553 0.1561 l
0.6562 0.1566 l
0.6572 0.1572 l
0.6581 0.1560 l
0.6591 0.1548 l
0.6600 0.1552 l
0.6609 0.1567 l
0.6619 0.1578 l
0.6628 0.1563 l
0.6637 0.1555 l
0.6647 0.1560 l
0.6656 0.1571 l
0.6666 0.1581 l
0.6675 0.1582 l
0.6684 0.1579 l
0.6694 0.1564 l
0.6703 0.1560 l
0.6712 0.1574 l
0.6722 0.1588 l
0.6731 0.1588 l
0.6741 0.1582 l
0.6750 0.1577 l
0.6759 0.1579 l
0.6769 0.1579 l
0.6778 0.1581 l
0.6787 0.1593 l
0.6797 0.1586 l
0.6806 0.1585 l
0.6816 0.1574 l
0.6825 0.1589 l
0.6834 0.1595 l
0.6844 0.1594 l
0.6853 0.1596 l
0.6862 0.1604 l
0.6872 0.1603 l
0.6881 0.1590 l
0.6891 0.1593 l
0.6900 0.1602 l
0.6909 0.1609 l
0.6919 0.1609 l
0.6928 0.1609 l
0.6937 0.1615 l
0.6947 0.1608 l
0.6956 0.1595 l
0.6966 0.1604 l
0.6975 0.1623 l
0.6984 0.1625 l
0.6994 0.1618 l
0.7003 0.1618 l
0.7012 0.1613 l
0.7022 0.1615 l
0.7031 0.1614 l
0.7041 0.1625 l
0.7050 0.1635 l
0.7059 0.1630 l
0.7069 0.1615 l
0.7078 0.1576 l
0.7087 0.1605 l
0.7097 0.1599 l
0.7106 0.1582 l
0.7116 0.1581 l
0.7125 0.1581 l
0.7134 0.1580 l
0.7144 0.1596 l
0.7153 0.1607 l
0.7162 0.1601 l
0.7172 0.1570 l
0.7181 0.1575 l
0.7191 0.1601 l
0.7200 0.1621 l
0.7209 0.1605 l
0.7219 0.1597 l
0.7228 0.1586 l
0.7237 0.1586 l
0.7247 0.1588 l
0.7256 0.1614 l
0.7266 0.1585 l
0.7275 0.1582 l
0.7284 0.1561 l
0.7294 0.1550 l
0.7303 0.1570 l
0.7312 0.1588 l
0.7322 0.1574 l
0.7331 0.1561 l
0.7341 0.1572 l
0.7350 0.1586 l
0.7359 0.1590 l
0.7369 0.1576 l
0.7378 0.1569 l
0.7387 0.1583 l
0.7397 0.1588 l
0.7406 0.1582 l
0.7416 0.1579 l
0.7425 0.1579 l
0.7434 0.1586 l
0.7444 0.1593 l
0.7453 0.1591 l
0.7462 0.1585 l
0.7472 0.1582 l
0.7481 0.1591 l
0.7491 0.1610 l
0.7500 0.1606 l
0.7509 0.1592 l
0.7519 0.1585 l
0.7528 0.1596 l
0.7537 0.1599 l
0.7547 0.1605 l
0.7556 0.1611 l
0.7566 0.1601 l
0.7575 0.1593 l
0.7584 0.1598 l
0.7594 0.1608 l
0.7603 0.1618 l
0.7612 0.1612 l
0.7622 0.1604 l
0.7631 0.1607 l
0.7641 0.1615 l
0.7650 0.1616 l
0.7659 0.1619 l
0.7669 0.1622 l
0.7678 0.1619 l
0.7687 0.1613 l
0.7697 0.1614 l
0.7706 0.1629 l
0.7716 0.1631 l
0.7725 0.1624 l
0.7734 0.1622 l
0.7744 0.1625 l
0.7753 0.1634 l
0.7762 0.1627 l
0.7772 0.1626 l
0.7781 0.1618 l
0.7791 0.1607 l
0.7800 0.1607 l
0.7809 0.1614 l
0.7819 0.1621 l
0.7828 0.1622 l
0.7837 0.1578 l
0.7847 0.1499 l
s
n
0.7869 0.1499 m
0.7875 0.1520 l
0.7884 0.1500 l
0.7885 0.1499 l
s
n
0.7904 0.1499 m
0.7912 0.1518 l
0.7920 0.1499 l
s
n
0.7934 0.1499 m
0.7941 0.1520 l
0.7950 0.1522 l
0.7956 0.1499 l
s
n
0.7975 0.1499 m
0.7978 0.1512 l
0.7987 0.1515 l
0.7994 0.1499 l
s
n
0.8011 0.1499 m
0.8016 0.1515 l
0.8025 0.1505 l
0.8027 0.1499 l
s
n
0.8043 0.1499 m
0.8044 0.1500 l
0.8053 0.1523 l
0.8062 0.1508 l
0.8065 0.1499 l
s
n
0.8084 0.1499 m
0.8091 0.1518 l
0.8100 0.1502 l
0.8102 0.1499 l
s
n
0.8116 0.1499 m
0.8119 0.1504 l
0.8128 0.1516 l
0.8134 0.1499 l
s
n
0.8152 0.1499 m
0.8156 0.1513 l
0.8166 0.1523 l
0.8173 0.1499 l
s
n
0.8190 0.1499 m
0.8194 0.1510 l
0.8203 0.1514 l
0.8209 0.1499 l
s
n
0.8225 0.1499 m
0.8231 0.1512 l
0.8241 0.1506 l
0.8243 0.1499 l
s
n
0.8262 0.1499 m
0.8269 0.1522 l
0.8278 0.1509 l
0.8282 0.1499 l
s
n
0.8298 0.1499 m
0.8306 0.1515 l
0.8316 0.1504 l
0.8318 0.1499 l
s
n
0.8330 0.1499 m
0.8334 0.1510 l
0.8344 0.1520 l
0.8351 0.1499 l
s
n
0.8370 0.1499 m
0.8372 0.1505 l
0.8381 0.1523 l
0.8391 0.1499 l
0.8391 0.1499 l
s
n
0.8406 0.1499 m
0.8409 0.1506 l
0.8419 0.1512 l
0.8425 0.1499 l
s
n
0.8441 0.1499 m
0.8447 0.1515 l
0.8456 0.1514 l
0.8461 0.1499 l
s
n
0.8480 0.1499 m
0.8484 0.1512 l
0.8494 0.1515 l
0.8500 0.1499 l
s
n
0.8514 0.1499 m
0.8522 0.1517 l
0.8531 0.1504 l
0.8533 0.1499 l
s
n
0.8550 0.1499 m
0.8559 0.1520 l
0.8569 0.1504 l
0.8571 0.1499 l
s
n
0.8588 0.1499 m
0.8597 0.1514 l
0.8605 0.1499 l
s
n
0.8622 0.1499 m
0.8625 0.1505 l
0.8634 0.1514 l
0.8642 0.1499 l
s
n
0.8659 0.1499 m
0.8662 0.1506 l
0.8672 0.1509 l
0.8679 0.1499 l
s
n
0.8695 0.1499 m
0.8700 0.1510 l
0.8709 0.1505 l
0.8713 0.1499 l
s
n
0.8732 0.1499 m
0.8737 0.1515 l
0.8747 0.1511 l
0.8752 0.1499 l
s
n
0.8769 0.1499 m
0.8775 0.1512 l
0.8784 0.1504 l
0.8787 0.1499 l
s
n
0.8806 0.1499 m
0.8812 0.1513 l
0.8822 0.1506 l
0.8825 0.1499 l
s
n
0.8842 0.1499 m
0.8850 0.1510 l
0.8859 0.1502 l
0.8861 0.1499 l
s
n
0.8875 0.1499 m
0.8878 0.1506 l
0.8887 0.1512 l
0.8895 0.1499 l
s
n
0.8912 0.1499 m
0.8916 0.1507 l
0.8925 0.1513 l
0.8932 0.1499 l
s
n
0.8946 0.1499 m
0.8953 0.1508 l
0.8962 0.1510 l
0.8968 0.1499 l
s
n
0.8985 0.1499 m
0.8991 0.1510 l
0.9000 0.1506 l
0.9006 0.1499 l
s
n
0.9021 0.1499 m
0.9028 0.1510 l
0.9037 0.1501 l
0.9039 0.1499 l
s
n
0.9056 0.1499 m
0.9056 0.1499 l
0.9066 0.1515 l
0.9075 0.1503 l
0.9078 0.1499 l
s
n
0.9095 0.1499 m
0.9103 0.1508 l
0.9112 0.1502 l
0.9118 0.1499 l
s
n
0.9128 0.1499 m
0.9131 0.1501 l
0.9141 0.1507 l
0.9147 0.1499 l
s
n
0.9165 0.1499 m
0.9169 0.1504 l
0.9178 0.1511 l
0.9185 0.1499 l
s
n
0.9203 0.1499 m
0.9206 0.1504 l
0.9216 0.1508 l
0.9221 0.1499 l
s
n
0.9238 0.1499 m
0.9244 0.1509 l
0.9253 0.1502 l
0.9255 0.1499 l
s
n
0.9276 0.1499 m
0.9281 0.1509 l
0.9291 0.1507 l
0.9296 0.1499 l
s
n
0.9311 0.1499 m
0.9319 0.1506 l
0.9328 0.1501 l
0.9331 0.1499 l
s
n
0.9343 0.1499 m
0.9347 0.1503 l
0.9356 0.1510 l
0.9366 0.1500 l
0.9366 0.1499 l
s
n
0.9382 0.1499 m
0.9384 0.1502 l
0.9394 0.1511 l
0.9403 0.1499 l
s
n
0.9419 0.1499 m
0.9422 0.1503 l
0.9431 0.1504 l
0.9438 0.1499 l
s
n
0.9452 0.1499 m
0.9459 0.1507 l
0.9469 0.1505 l
0.9472 0.1499 l
s
n
0.9491 0.1499 m
0.9497 0.1510 l
0.9506 0.1504 l
0.9512 0.1499 l
s
n
0.9528 0.1499 m
0.9534 0.1508 l
0.9544 0.1502 l
0.9547 0.1499 l
s
n
0.9557 0.1499 m
0.9562 0.1505 l
0.9572 0.1506 l
0.9578 0.1499 l
s
n
0.9599 0.1499 m
0.9600 0.1499 l
0.9609 0.1510 l
0.9619 0.1502 l
0.9623 0.1499 l
s
n
0.9634 0.1499 m
0.9637 0.1502 l
0.9647 0.1505 l
0.9653 0.1499 l
s
n
0.9668 0.1499 m
0.9675 0.1506 l
0.9684 0.1505 l
0.9689 0.1499 l
s
n
0.9707 0.1499 m
0.9712 0.1507 l
0.9722 0.1506 l
0.9728 0.1499 l
s
n
0.9744 0.1499 m
0.9750 0.1502 l
0.9759 0.1499 l
0.9760 0.1499 l
s
n
0.9775 0.1499 m
0.9778 0.1501 l
0.9787 0.1507 l
0.9796 0.1499 l
s
n
0.9809 0.1499 m
0.9816 0.1501 l
0.9825 0.1506 l
0.9834 0.1501 l
0.9838 0.1499 l
s
n
0.9853 0.1499 m
0.9853 0.1499 l
0.9862 0.1502 l
0.9867 0.1499 l
s
n
0.9887 0.1499 m
0.9891 0.1502 l
0.9900 0.1502 l
0.9909 0.1500 l
0.9911 0.1499 l
s
n
0.9922 0.1499 m
0.9928 0.1504 l
0.9937 0.1505 l
0.9947 0.1502 l
0.9956 0.1500 l
0.9966 0.1499 l
0.9967 0.1499 l
s
n
0.9992 0.1499 m
0.9994 0.1501 l
1.0003 0.1508 l
1.0012 0.1500 l
1.0013 0.1499 l
s
n
1.0038 0.1499 m
1.0041 0.1501 l
1.0050 0.1505 l
1.0059 0.1502 l
1.0069 0.1499 l
1.0078 0.1501 l
1.0083 0.1499 l
s
n
1.0098 0.1499 m
1.0106 0.1501 l
1.0116 0.1504 l
1.0125 0.1499 l
s
n
1.0150 0.1499 m
1.0153 0.1500 l
1.0158 0.1499 l
s
n
1.0172 0.1499 m
1.0181 0.1505 l
1.0191 0.1503 l
1.0199 0.1499 l
s
n
1.0220 0.1499 m
1.0228 0.1503 l
1.0237 0.1499 l
s
n
1.0252 0.1499 m
1.0256 0.1502 l
1.0265 0.1499 l
s
n
1.0271 0.1499 m
1.0275 0.1499 l
1.0284 0.1500 l
1.0294 0.1506 l
1.0302 0.1499 l
s
n
1.0325 0.1499 m
1.0331 0.1501 l
1.0339 0.1499 l
s
n
1.0353 0.1499 m
1.0359 0.1505 l
1.0368 0.1499 l
s
n
1.0371 0.1499 m
1.0378 0.1500 l
1.0381 0.1499 l
s
n
1.0393 0.1499 m
1.0397 0.1501 l
1.0406 0.1502 l
1.0416 0.1500 l
1.0425 0.1499 l
1.0427 0.1499 l
s
n
1.0440 0.1499 m
1.0444 0.1500 l
1.0446 0.1499 l
s
n
1.0462 0.1499 m
1.0462 0.1499 l
1.0472 0.1503 l
1.0481 0.1504 l
1.0491 0.1500 l
1.0493 0.1499 l
s
n
1.0507 0.1499 m
1.0509 0.1500 l
1.0513 0.1499 l
s
n
1.0530 0.1499 m
1.0537 0.1505 l
1.0547 0.1505 l
1.0554 0.1499 l
s
n
1.0568 0.1499 m
1.0575 0.1502 l
1.0584 0.1508 l
1.0594 0.1501 l
1.0598 0.1499 l
s
n
1.0621 0.1499 m
1.0622 0.1499 l
1.0623 0.1499 l
s
n
1.0636 0.1499 m
1.0641 0.1501 l
1.0650 0.1504 l
1.0659 0.1502 l
1.0662 0.1499 l
s
n
1.0683 0.1499 m
1.0687 0.1503 l
1.0697 0.1504 l
1.0706 0.1500 l
1.0708 0.1499 l
s
n
1.0720 0.1499 m
1.0725 0.1502 l
1.0734 0.1502 l
1.0744 0.1500 l
1.0753 0.1503 l
1.0762 0.1502 l
1.0767 0.1499 l
s
n
1.0786 0.1499 m
1.0791 0.1505 l
1.0800 0.1509 l
1.0809 0.1502 l
1.0813 0.1499 l
s
n
1.0830 0.1499 m
1.0837 0.1501 l
1.0845 0.1499 l
s
n
1.0848 0.1499 m
1.0856 0.1502 l
1.0866 0.1505 l
1.0875 0.1501 l
1.0877 0.1499 l
s
[/DeviceRGB] SCS
Color1 SC
[] 0 SD
0.0023 SLW
n
0.1500 0.1500 m
1.1500 0.1500 l
s
n
0.1500 0.8500 m
1.1500 0.8500 l
s
[] 0 SD
0.0015 SLW
n
0.2125 0.1500 m
0.2125 0.1600 l
s
n
0.2125 0.8500 m
0.2125 0.8400 l
s
n
0.3375 0.1500 m
0.3375 0.1600 l
s
n
0.3375 0.8500 m
0.3375 0.8400 l
s
n
0.4625 0.1500 m
0.4625 0.1600 l
s
n
0.4625 0.8500 m
0.4625 0.8400 l
s
n
0.5875 0.1500 m
0.5875 0.1600 l
s
n
0.5875 0.8500 m
0.5875 0.8400 l
s
n
0.7125 0.1500 m
0.7125 0.1600 l
s
n
0.7125 0.8500 m
0.7125 0.8400 l
s
n
0.8375 0.1500 m
0.8375 0.1600 l
s
n
0.8375 0.8500 m
0.8375 0.8400 l
s
n
0.9625 0.1500 m
0.9625 0.1600 l
s
n
0.9625 0.8500 m
0.9625 0.8400 l
s
n
1.0875 0.1500 m
1.0875 0.1600 l
s
n
1.0875 0.8500 m
1.0875 0.8400 l
s
n
0.1500 0.1500 m
0.1500 0.1700 l
s
n
0.1500 0.8500 m
0.1500 0.8300 l
s
n
0.2750 0.1500 m
0.2750 0.1700 l
s
n
0.2750 0.8500 m
0.2750 0.8300 l
s
n
0.4000 0.1500 m
0.4000 0.1700 l
s
n
0.4000 0.8500 m
0.4000 0.8300 l
s
n
0.5250 0.1500 m
0.5250 0.1700 l
s
n
0.5250 0.8500 m
0.5250 0.8300 l
s
n
0.6500 0.1500 m
0.6500 0.1700 l
s
n
0.6500 0.8500 m
0.6500 0.8300 l
s
n
0.7750 0.1500 m
0.7750 0.1700 l
s
n
0.7750 0.8500 m
0.7750 0.8300 l
s
n
0.9000 0.1500 m
0.9000 0.1700 l
s
n
0.9000 0.8500 m
0.9000 0.8300 l
s
n
1.0250 0.1500 m
1.0250 0.1700 l
s
n
1.0250 0.8500 m
1.0250 0.8300 l
s
n
1.1500 0.1500 m
1.1500 0.1700 l
s
n
1.1500 0.8500 m
1.1500 0.8300 l
s
/Times-Roman findfont
dup length dict begin
 {1 index /FID ne {def} {pop pop} ifelse} forall
 /Encoding DefEncoding def
 currentdict
end
/Font60 exch definefont pop
/Font60 FFSF
0.1433 0.1212 m
GS
[0.0280 0.0000 0.0000 0.0280 0 0] CC
(0) show
GR
/Font60 FFSF
0.2589 0.1212 m
GS
[0.0280 0.0000 0.0000 0.0280 0 0] CC
(0.1) show
GR
/Font60 FFSF
0.3827 0.1212 m
GS
[0.0280 0.0000 0.0000 0.0280 0 0] CC
(0.2) show
GR
/Font60 FFSF
0.5083 0.1212 m
GS
[0.0280 0.0000 0.0000 0.0280 0 0] CC
(0.3) show
GR
/Font60 FFSF
0.6327 0.1212 m
GS
[0.0280 0.0000 0.0000 0.0280 0 0] CC
(0.4) show
GR
/Font60 FFSF
0.7583 0.1208 m
GS
[0.0280 0.0000 0.0000 0.0280 0 0] CC
(0.5) show
GR
/Font60 FFSF
0.8829 0.1208 m
GS
[0.0280 0.0000 0.0000 0.0280 0 0] CC
(0.6) show
GR
/Font60 FFSF
1.0081 0.1212 m
GS
[0.0280 0.0000 0.0000 0.0280 0 0] CC
(0.7) show
GR
/Font60 FFSF
1.1331 0.1212 m
GS
[0.0280 0.0000 0.0000 0.0280 0 0] CC
(0.8) show
GR
/Font60 FFSF
0.6167 0.0912 m
GS
[0.0280 0.0000 0.0000 0.0280 0 0] CC
(Strain) show
GR
[] 0 SD
0.0023 SLW
n
0.1500 0.1500 m
0.1500 0.8500 l
s
n
1.1500 0.1500 m
1.1500 0.8500 l
s
[] 0 SD
0.0015 SLW
n
0.1500 0.1938 m
0.1600 0.1938 l
s
n
1.1500 0.1938 m
1.1400 0.1938 l
s
n
0.1500 0.2812 m
0.1600 0.2812 l
s
n
1.1500 0.2812 m
1.1400 0.2812 l
s
n
0.1500 0.3688 m
0.1600 0.3688 l
s
n
1.1500 0.3688 m
1.1400 0.3688 l
s
n
0.1500 0.4562 m
0.1600 0.4562 l
s
n
1.1500 0.4562 m
1.1400 0.4562 l
s
n
0.1500 0.5437 m
0.1600 0.5437 l
s
n
1.1500 0.5437 m
1.1400 0.5437 l
s
n
0.1500 0.6312 m
0.1600 0.6312 l
s
n
1.1500 0.6312 m
1.1400 0.6312 l
s
n
0.1500 0.7188 m
0.1600 0.7188 l
s
n
1.1500 0.7188 m
1.1400 0.7188 l
s
n
0.1500 0.8062 m
0.1600 0.8062 l
s
n
1.1500 0.8062 m
1.1400 0.8062 l
s
n
0.1500 0.1500 m
0.1700 0.1500 l
s
n
1.1500 0.1500 m
1.1300 0.1500 l
s
n
0.1500 0.2375 m
0.1700 0.2375 l
s
n
1.1500 0.2375 m
1.1300 0.2375 l
s
n
0.1500 0.3250 m
0.1700 0.3250 l
s
n
1.1500 0.3250 m
1.1300 0.3250 l
s
n
0.1500 0.4125 m
0.1700 0.4125 l
s
n
1.1500 0.4125 m
1.1300 0.4125 l
s
n
0.1500 0.5000 m
0.1700 0.5000 l
s
n
1.1500 0.5000 m
1.1300 0.5000 l
s
n
0.1500 0.5875 m
0.1700 0.5875 l
s
n
1.1500 0.5875 m
1.1300 0.5875 l
s
n
0.1500 0.6750 m
0.1700 0.6750 l
s
n
1.1500 0.6750 m
1.1300 0.6750 l
s
n
0.1500 0.7625 m
0.1700 0.7625 l
s
n
1.1500 0.7625 m
1.1300 0.7625 l
s
n
0.1500 0.8500 m
0.1700 0.8500 l
s
n
1.1500 0.8500 m
1.1300 0.8500 l
s
/Font60 FFSF
0.1267 0.1408 m
GS
[0.0280 0.0000 0.0000 0.0280 0 0] CC
(0) show
GR
/Font60 FFSF
0.1125 0.2281 m
GS
[0.0280 0.0000 0.0000 0.0280 0 0] CC
(50) show
GR
/Font60 FFSF
0.0988 0.3158 m
GS
[0.0280 0.0000 0.0000 0.0280 0 0] CC
(100) show
GR
/Font60 FFSF
0.0988 0.4031 m
GS
[0.0280 0.0000 0.0000 0.0280 0 0] CC
(150) show
GR
/Font60 FFSF
0.0988 0.4908 m
GS
[0.0280 0.0000 0.0000 0.0280 0 0] CC
(200) show
GR
/Font60 FFSF
0.0988 0.5781 m
GS
[0.0280 0.0000 0.0000 0.0280 0 0] CC
(250) show
GR
/Font60 FFSF
0.0988 0.6658 m
GS
[0.0280 0.0000 0.0000 0.0280 0 0] CC
(300) show
GR
/Font60 FFSF
0.0988 0.7531 m
GS
[0.0280 0.0000 0.0000 0.0280 0 0] CC
(350) show
GR
/Font60 FFSF
0.0988 0.8408 m
GS
[0.0280 0.0000 0.0000 0.0280 0 0] CC
(400) show
GR
/Font60 FFSF
0.0837 0.4339 m
GS
[0.0000 0.0280 -0.0280 0.0000 0 0] CC
(Stress\(GPa\)) show
GR
n
0.1500 0.1500 m
0.1500 0.8500 l
1.1500 0.8500 l
1.1500 0.1500 l
0.1500 0.1500 l
c
s
n
0.8000 0.8000 m
0.8000 0.6727 l
1.1046 0.6727 l
1.1046 0.8000 l
c
[/DeviceRGB] SCS
Color0 SC
fill
[/DeviceRGB] SCS
Color1 SC
n
0.8000 0.8000 m
0.8000 0.6727 l
1.1046 0.6727 l
1.1046 0.8000 l
0.8000 0.8000 l
c
s
/Font60 FFSF
0.8723 0.7708 m
GS
[0.0280 0.0000 0.0000 0.0280 0 0] CC
(5nm x 5nm SLGS) show
GR
[] 0 SD
0.0023 SLW
n
0.8123 0.7802 m
0.8523 0.7802 l
s
/Font60 FFSF
0.8723 0.7416 m
GS
[0.0280 0.0000 0.0000 0.0280 0 0] CC
(3nm x 3nm SLGS) show
GR
[/DeviceRGB] SCS
Color2 SC
[0.0045 0.0135 ] 0 SD
0.0045 SLW
n
0.8123 0.7508 m
0.8523 0.7508 l
s
/Font60 FFSF
[/DeviceRGB] SCS
Color1 SC
0.8723 0.7124 m
GS
[0.0280 0.0000 0.0000 0.0280 0 0] CC
(7nm x 7nm SLGS) show
GR
[/DeviceRGB] SCS
Color13 SC
[0.0158 0.0068 ] 0 SD
0.0023 SLW
n
0.8123 0.7216 m
0.8523 0.7216 l
s
/Font60 FFSF
[/DeviceRGB] SCS
Color1 SC
0.8723 0.6831 m
GS
[0.0280 0.0000 0.0000 0.0280 0 0] CC
(10nm x10nm SLGS) show
GR
[/DeviceRGB] SCS
Color4 SC
[0.0023 0.0068 0.0113 0.0068 ] 0 SD
0.0023 SLW
n
0.8123 0.6924 m
0.8523 0.6924 l
s
%%Trailer
%%BoundingBox: 38 54 716 528
%%DocumentNeededResources: font Times-Roman
%%EOF
