x,y
0.0015,0.71210378
0.00225,1.4356917
0.003,2.0693333
0.00375,2.9976248
0.0045,3.6451727
0.00525,4.5154592
0.006,5.2776051
0.00675,5.8837684
0.0075,6.6097385
0.00825,7.3537709
0.009,7.9951632
0.00975,8.5966007
0.0105,9.4327134
0.01125,10.191215
0.012,10.871327
0.01275,11.677925
0.0135,12.347463
0.01425,13.159525
0.015,13.780778
0.01575,14.396458
0.0165,15.16849
0.01725,15.925817
0.018,16.795324
0.01875,17.441071
0.0195,18.129831
0.02025,18.886
0.021,19.484013
0.02175,20.204765
0.0225,20.899355
0.02325,21.643123
0.024,22.451065
0.02475,23.107067
0.0255,23.78894
0.02625,24.5246
0.027,25.231939
0.02775,25.816332
0.0285,26.572635
0.02925,27.210351
0.03,27.845366
0.03075,28.557881
0.0315,29.221492
0.03225,30.045259
0.033,30.62267
0.03375,31.350974
0.0345,32.033145
0.03525,32.733276
0.036,33.270492
0.03675,34.044524
0.0375,34.594178
0.03825,35.355997
0.039,35.968714
0.03975,36.613729
0.0405,37.273487
0.04125,37.825238
0.042,38.628558
0.04275,39.081943
0.0435,39.835286
0.04425,40.428444
0.045,41.096176
0.04575,41.601888
0.0465,42.283491
0.04725,42.8546
0.048,43.37994
0.04875,44.164022
0.0495,44.672139
0.05025,45.419214
0.051,45.908207
0.05175,46.650076
0.0525,47.118116
0.05325,47.773884
0.054,48.407215
0.05475,48.891364
0.0555,49.537094
0.05625,50.189514
0.057,50.624038
0.05775,51.207662
0.0585,51.564298
0.05925,52.332864
0.06,52.906128
0.06075,53.440091
0.0615,53.931004
0.06225,54.500647
0.063,54.958391
0.06375,55.631313
0.0645,56.128435
0.06525,56.709091
0.066,57.036714
0.06675,57.717921
0.0675,58.142685
0.06825,58.778827
0.069,59.245989
0.06975,59.71511
0.0705,60.221282
0.07125,60.698393
0.072,61.178713
0.07275,61.789936
0.0735,62.222808
0.07425,62.781195
0.075,63.072134
0.07575,63.596981
0.0765,63.946294
0.07725,64.554409
0.078,65.092752
0.07875,65.491174
0.0795,66.092891
0.08025,66.511415
0.081,66.826141
0.08175,67.331345
0.0825,67.758988
0.08325,68.231163
0.084,68.706506
0.08475,69.066306
0.0855,69.472642
0.08625,69.938734
0.087,70.349696
0.08775,70.78217
0.0885,71.228645
0.08925,71.603001
0.09,72.043481
0.09075,72.523373
0.0915,72.843846
0.09225,73.34163
0.093,73.681574
0.09375,73.936841
0.0945,74.467725
0.09525,74.807995
0.096,75.15134
0.09675,75.44602
0.0975,75.831111
0.09825,76.161316
0.099,76.464227
0.09975,76.876653
0.1005,77.253872
0.10125,77.601528
0.102,77.873999
0.10275,78.348623
0.1035,78.458961
0.10425,78.978632
0.105,79.150864
0.10575,79.599875
0.1065,79.840969
0.10725,80.203652
0.108,80.507391
0.10875,80.875763
0.1095,81.281006
0.11025,81.433625
0.111,81.746209
0.11175,82.172852
0.1125,82.242007
0.11325,82.547468
0.114,83.039364
0.11475,83.113854
0.1155,83.456026
0.11625,83.725502
0.117,83.923855
0.11775,84.470411
0.1185,84.732503
0.11925,84.905443
0.12,85.127506
0.12075,85.330158
0.1215,85.749245
0.12225,85.989177
0.123,86.055433
0.12375,86.520845
0.1245,86.853459
0.12525,86.929403
0.126,87.158306
0.12675,87.436694
0.1275,87.682687
0.12825,87.964782
0.129,88.266243
0.12975,88.39765
0.1305,88.664294
0.13125,88.924476
0.132,89.132492
0.13275,89.381111
0.1335,89.571199
0.13425,89.815006
0.135,90.106105
0.13575,90.276245
0.1365,90.608415
0.13725,90.758586
0.138,91.162671
0.13875,91.111237
0.1395,91.30785
0.14025,91.713183
0.141,91.936314
0.14175,92.144837
0.1425,92.297192
0.14325,92.685957
0.144,92.831316
0.14475,93.107611
0.1455,93.353961
0.14625,93.557379
0.147,93.780721
0.14775,93.994974
0.1485,94.138318
0.14925,94.490879
0.15,94.692601
0.15075,94.94096
0.1515,95.15354
0.15225,95.532306
0.153,95.664963
0.15375,95.797472
0.1545,95.903825
0.15525,96.357933
0.156,96.690647
0.15675,96.888676
0.1575,97.083937
0.15825,97.209908
0.159,97.402217
0.15975,97.778471
0.1605,97.950829
0.16125,98.064063
0.162,98.700597
0.16275,98.826494
0.1635,99.08161
0.16425,99.29682
0.165,99.573838
0.16575,99.815279
0.1665,100.35186
0.16725,100.48395
0.168,100.66325
0.16875,101.14042
0.1695,101.45087
0.17025,101.54245
0.171,101.75908
0.17175,102.3978
0.1725,102.65237
0.17325,102.51564
0.174,102.82961
0.17475,103.439
0.1755,103.89415
0.17625,103.88647
0.177,104.57095
0.17775,104.59064
0.1785,105.33747
0.17925,105.34477
0.18,105.95537
0.18075,106.12457
0.1815,106.68825
0.18225,106.54728
0.183,107.26656
0.18375,107.40845
0.1845,108.04449
0.18525,108.14729
0.186,108.57001
0.18675,109.00159
0.1875,109.25697
0.18825,109.85188
0.189,110.48705
0.18975,110.34315
0.1905,111.29896
0.19125,111.16822
0.192,112.1452
0.19275,112.54075
0.1935,113.22842
0.19425,113.73536
0.195,114.22809
0.19575,114.93023
0.1965,115.07025
0.19725,115.37001
0.198,115.80657
0.19875,116.70786
0.1995,117.09551
0.20025,117.36304
0.201,118.00237
0.20175,118.56964
0.2025,119.21969
0.20325,119.6281
0.204,119.62112
0.20475,120.58155
0.2055,121.07629
0.20625,121.74545
0.207,122.1085
0.20775,122.52082
0.2085,123.09272
0.20925,123.82794
0.21,124.1959
0.21075,125.03909
0.2115,125.55805
0.21225,125.83376
0.213,126.40226
0.21375,126.93586
0.2145,127.58693
0.21525,127.9604
0.216,128.55923
0.21675,128.94536
0.2175,129.97049
0.21825,130.30461
0.219,130.62164
0.21975,131.09356
0.2205,131.12177
0.22125,131.95239
0.222,132.40418
0.22275,132.91139
0.2235,133.54784
0.22425,134.12456
0.225,134.5765
0.22575,135.27765
0.2265,135.16977
0.22725,135.58322
0.228,136.33576
0.22875,136.80818
0.2295,136.95886
0.23025,137.89231
0.231,138.00315
0.23175,138.59178
0.2325,138.85011
0.23325,139.19125
0.234,139.07627
0.23475,136.99792
0.2355,139.31369
0.23625,138.67475
0.237,138.59475
0.23775,140.70155
0.2385,138.08748
0.23925,138.2836
0.24,139.57287
0.24075,138.45711
0.2415,138.13433
0.24225,134.44651
0.243,129.99979
0.24375,122.42644
0.2445,122.03956
0.24525,120.7767
0.246,121.58875
0.24675,122.26449
0.2475,121.53992
0.24825,120.60201
0.249,121.05904
0.24975,122.32377
0.2505,122.09144
0.25125,120.64213
0.252,121.50857
0.25275,122.38392
0.2535,121.49864
0.25425,121.59802
0.255,120.90643
0.25575,120.82637
0.2565,121.64055
0.25725,121.04451
0.258,122.36159
0.25875,122.09094
0.2595,120.53074
0.26025,121.30906
0.261,121.84221
0.26175,120.66468
0.2625,121.4502
0.26325,122.41222
0.264,121.80526
0.26475,121.10586
0.2655,121.49192
0.26625,122.13716
0.267,121.4816
0.26775,122.23661
0.2685,121.63708
0.26925,122.59725
0.27,121.36247
0.27075,122.98608
0.2715,122.76412
0.27225,120.74068
0.273,121.51878
0.27375,122.23622
0.2745,121.87195
0.27525,120.93988
0.276,121.53189
0.27675,122.02824
0.2775,120.89049
0.27825,121.90533
0.279,121.9976
0.27975,121.24227
0.2805,120.43883
0.28125,121.25578
0.282,122.28586
0.28275,122.41121
0.2835,121.27928
0.28425,121.81194
0.285,121.42217
0.28575,122.43407
0.2865,122.67328
0.28725,122.74363
0.288,121.94812
0.28875,121.77156
0.2895,122.36315
0.29025,121.62886
0.291,123.00616
0.29175,121.62224
0.2925,122.9459
0.29325,122.69456
0.294,121.77761
0.29475,121.6666
0.2955,122.04486
0.29625,122.33434
0.297,122.48607
0.29775,122.44695
0.2985,122.7657
0.29925,121.88104
0.3,122.40232
0.30075,122.69539
0.3015,122.4542
0.30225,122.47056
0.303,123.39313
0.30375,122.33379
0.3045,122.93447
0.30525,122.64883
0.306,122.51174
0.30675,122.31469
0.3075,121.75113
0.30825,122.97135
0.309,121.96982
0.30975,122.36316
0.3105,122.86
0.31125,122.67025
0.312,122.41638
0.31275,122.49
0.3135,122.53715
0.31425,123.14281
0.315,122.97888
0.31575,123.24465
0.3165,122.36041
0.31725,122.77361
0.318,123.0989
0.31875,123.34223
0.3195,122.6031
0.32025,123.20168
0.321,123.23434
0.32175,123.21446
0.3225,124.04751
0.32325,122.78559
0.324,123.33191
0.32475,124.17876
0.3255,123.88902
0.32625,122.83208
0.327,122.12175
0.32775,123.23956
0.3285,123.83101
0.32925,123.60527
0.33,124.31604
0.33075,123.17363
0.3315,124.67114
0.33225,124.28635
0.333,123.98626
0.33375,123.10481
0.3345,122.83323
0.33525,123.31648
0.336,123.94721
0.33675,123.60774
0.3375,123.97854
0.33825,124.13843
0.339,124.15643
0.33975,124.23475
0.3405,124.29052
0.34125,125.12114
0.342,125.24406
0.34275,125.33516
0.3435,125.47679
0.34425,125.32766
0.345,122.89129
0.34575,123.69632
0.3465,122.91302
0.34725,119.41412
0.348,119.97273
0.34875,120.80236
0.3495,120.67607
0.35025,121.37882
0.351,121.68015
0.35175,122.14181
0.3525,122.53758
0.35325,122.60023
0.354,123.52508
0.35475,123.57852
0.3555,124.03062
0.35625,124.48986
0.357,125.10483
0.35775,125.24745
0.3585,125.41093
0.35925,125.87222
0.36,125.95238
0.36075,126.29754
0.3615,126.51506
0.36225,126.93927
0.363,127.51433
0.36375,127.65511
0.3645,127.95172
0.36525,128.28887
0.366,128.39214
0.36675,129.06706
0.3675,129.14085
0.36825,129.5657
0.369,129.8778
0.36975,130.01289
0.3705,130.65114
0.37125,130.70907
0.372,130.71409
0.37275,130.94394
0.3735,130.89222
0.37425,131.54866
0.375,131.49831
0.37575,131.6169
0.3765,132.21735
0.37725,132.37141
0.378,132.52469
0.37875,132.50954
0.3795,132.79133
0.38025,132.83505
0.381,133.06941
0.38175,133.81683
0.3825,133.52418
0.38325,133.82305
0.384,134.04601
0.38475,134.43919
0.3855,134.22444
0.38625,134.73732
0.387,134.63144
0.38775,134.83746
0.3885,134.87153
0.38925,135.14301
0.39,135.31427
0.39075,135.3858
0.3915,135.413
0.39225,135.53095
0.393,135.69577
0.39375,136.2061
0.3945,136.11295
0.39525,136.35331
0.396,136.49293
0.39675,136.81614
0.3975,136.89588
0.39825,136.96902
0.399,137.10066
0.39975,137.05101
0.4005,137.57204
0.40125,137.79239
0.402,137.65705
0.40275,137.86656
0.4035,138.18873
0.40425,138.28305
0.405,138.6341
0.40575,138.40597
0.4065,138.84239
0.40725,138.9666
0.408,139.12686
0.40875,139.25926
0.4095,139.27686
0.41025,139.48275
0.411,139.70655
0.41175,139.53622
0.4125,139.95616
0.41325,139.82994
0.414,140.1875
0.41475,140.69976
0.4155,140.83613
0.41625,140.70155
0.417,140.63175
0.41775,141.06598
0.4185,141.39459
0.41925,141.2447
0.42,141.46818
0.42075,141.74587
0.4215,141.77419
0.42225,141.89744
0.423,142.03319
0.42375,142.88838
0.4245,143.09331
0.42525,142.77024
0.426,142.98859
0.42675,142.98201
0.4275,143.59491
0.42825,143.27193
0.429,143.84149
0.42975,144.20252
0.4305,143.93225
0.43125,143.96536
0.432,144.32585
0.43275,144.08675
0.4335,145.00764
0.43425,145.07692
0.435,145.16691
0.43575,145.17501
0.4365,146.08236
0.43725,146.28771
0.438,146.15305
0.43875,146.33291
0.4395,147.17343
0.44025,147.68974
0.441,148.59351
0.44175,147.98589
0.4425,148.18477
0.44325,148.4977
0.444,148.85886
0.44475,149.79668
0.4455,150.73848
0.44625,150.49617
0.447,149.94009
0.44775,151.33677
0.4485,151.24089
0.44925,152.50389
0.45,153.56158
0.45075,153.64497
0.4515,155.75905
0.45225,154.56447
0.453,155.76412
0.45375,157.67282
0.4545,157.54439
0.45525,158.64526
0.456,159.39509
0.45675,158.97788
0.4575,161.75396
0.45825,162.64831
0.459,163.56193
0.45975,164.93839
0.4605,165.22064
0.46125,167.52637
0.462,169.04154
0.46275,169.98584
0.4635,173.09087
0.46425,173.71879
0.465,175.61383
0.46575,177.38084
0.4665,179.6993
0.46725,181.40023
0.468,183.52577
0.46875,186.7149
0.4695,188.95644
0.47025,191.87194
0.471,193.98181
0.47175,196.80539
0.4725,200.11322
0.47325,202.23543
0.474,206.22224
0.47475,208.02986
0.4755,211.17498
0.47625,214.91991
0.477,217.75178
0.47775,221.25461
0.4785,224.57603
0.47925,227.39014
0.48,230.09318
0.48075,233.73525
0.4815,236.64066
0.48225,240.03842
0.483,242.97481
0.48375,246.628
0.4845,249.9269
0.48525,253.31959
0.486,255.90789
0.48675,258.96938
0.4875,261.5331
0.48825,265.46029
0.489,268.37268
0.48975,271.63565
0.4905,273.6202
0.49125,277.45985
0.492,280.29675
0.49275,283.78214
0.4935,285.79114
0.49425,288.53857
0.495,291.23251
0.49575,294.46253
0.4965,297.13764
0.49725,299.74681
0.498,89.360084
0.49875,75.904404
0.4995,75.734306
0.50025,75.114992
